"storeId=10152&catalogId=10552&langId=-1&orderId=.&field2=0&comment=420034&calculationUsage=-1%"
"2C-2%2C-5%2C-6%2C-7&catEntryId=420038&quantity=1&requesttype=ajax&visitorId=%5BCS%5Dv1%7C2B0B5"
"6810507A725-40000116E00E1B28%5BCE%5D"
