GET /action-uic/0?ti=403381&Ver=2&mid=e89747f8-dfa3-ada8-86c4-f9ac74135aec&evt=pageLoad&lt=18503&pi=-1898162245&lg=en-US&sw=1276&sh=681&sc=24&p=http%3A%2F%2Ftcp-perf.childrensplace.com%2Fshop%2Fus%2Fhome&r=&rn=614054 HTTP/1.1
Host: bat.r.msn.com
Connection: keep-alive
User-Agent: Mozilla/5.0 (Windows NT 6.1; Win64; x64) AppleWebKit/537.36 (KHTML, like Gecko) Chrome/56.0.2924.87 Safari/537.36
Accept: image/webp,image/*,*/*;q=0.8
Referer: http://tcp-perf.childrensplace.com/shop/us/home
Accept-Encoding: gzip, deflate, sdch
Accept-Language: en-US,en;q=0.8

