GET /shop/LogonForm?new=Y&catalogId=10551&myAcctMain=&langId=-1&storeId=10151 HTTP/1.1
Host: tcp-perf.childrensplace.com
Connection: keep-alive
Upgrade-Insecure-Requests: 1
User-Agent: Mozilla/5.0 (Windows NT 6.1; Win64; x64) AppleWebKit/537.36 (KHTML, like Gecko) Chrome/56.0.2924.87 Safari/537.36
Accept: text/html,application/xhtml+xml,application/xml;q=0.9,image/webp,*/*;q=0.8
Referer: http://tcp-perf.childrensplace.com/shop/us/home
Accept-Encoding: gzip, deflate, sdch, br
Accept-Language: en-US,en;q=0.8
Cookie: BIGipServer~TCP-RD1~vip-206.24.3.65_web1=rd1o00000000000000000000ffff0a381c07o80; JSESSIONID=0000zmsEufw2P7ySOoH3kMPld_Q:19ivs1mnm; WC_PERSISTENT=ocQM5eGXv2cPX08A3%2BBHX3070so%3D%0A%3B2017-02-09+15%3A28%3A48.917_1486672128917-11435_0; AMCVS_9A0A1C8B5329646E0A490D4D%40AdobeOrg=1; iShippingCookie=US|en_US|USD|1.0|1.0; s_vi=[CS]v1|2C4E68818507EE95-4000010DA0000753[CE]; AMCV_9A0A1C8B5329646E0A490D4D%40AdobeOrg=-1176276602%7CMCIDTS%7C17207%7CMCMID%7C19768006287662953370298756180292457633%7CMCAAMLH-1487276931%7C7%7CMCAAMB-1487276932%7CNRX38WO0n5BH8Th-nqAG_A%7CMCOPTOUT-1486679331s%7CNONE%7CMCAID%7C2C4E68818507EE95-4000010DA0000753; IRMS_la3971=1486672133317; tcp_email_signup_modal_persistent=Thu, 09 Feb 2017 20:28:53 GMT; MP_COUNTRY=us; MP_LANG=en; mbox=check#true#1486672191|session#1486672130564-94838#1486673991|PC#1486672130564-94838.20_15#1487881735; shopping_cart=new; s_cpc=1; s_cm=undefinedTyped%2FBookmarkedTyped%2FBookmarkedundefined; s_ev43=%5B%5B%27Direct%2520Load%27%2C%271486672134289%27%5D%5D; s_cc=true; utag_main=v_id:015a24907aac001cd8065cf7329e04071002f069007bd$_sn:1$_ss:1$_pn:1%3Bexp-session$_st:1486673934496$ses_id:1486672132780%3Bexp-session$previous_refinements:%3Bexp-session$_prevpage:gl%3A%20home%20page%3Bexp-1486675734483; icxid=1486672135540-1933089361097342; icxid=1486672135540-1933089361097342; __cq_seg=; __cq_uuid=61b2d150-ef06-11e6-a1e9-0535dd1ca0f4; tcpState=CO; tcpGeoLoc=39.7393|-104.9844; ipe_s=363930cc-93fc-59db-d2aa-e6e304142499; gpv_v28=gl%3A%20home%20page; s_vs=1; s_nr=1486672140152-New; undefined_s=First%20Visit; s_direct=1; s_sq=%5B%5BB%5D%5D

