POST /webapp/wcs/stores/servlet/TCPAjaxEmailVerificationCmd HTTP/1.1
Host: tcp-perf.childrensplace.com
Connection: keep-alive
Content-Length: 81
Origin: https://tcp-perf.childrensplace.com
X-Requested-With: XMLHttpRequest
User-Agent: Mozilla/5.0 (Windows NT 6.1; Win64; x64) AppleWebKit/537.36 (KHTML, like Gecko) Chrome/56.0.2924.87 Safari/537.36
Content-Type: application/x-www-form-urlencoded
Accept: */*
Referer: https://tcp-perf.childrensplace.com/shop/PersonProcessServicePersonRegister
Accept-Encoding: gzip, deflate, br
Accept-Language: en-US,en;q=0.8
Cookie: BIGipServer~TCP-RD1~vip-206.24.3.65_web1=rd1o00000000000000000000ffff0a381c07o80; JSESSIONID=0000zmsEufw2P7ySOoH3kMPld_Q:19ivs1mnm; AMCVS_9A0A1C8B5329646E0A490D4D%40AdobeOrg=1; iShippingCookie=US|en_US|USD|1.0|1.0; s_vi=[CS]v1|2C4E68818507EE95-4000010DA0000753[CE]; AMCV_9A0A1C8B5329646E0A490D4D%40AdobeOrg=-1176276602%7CMCIDTS%7C17207%7CMCMID%7C19768006287662953370298756180292457633%7CMCAAMLH-1487276931%7C7%7CMCAAMB-1487276932%7CNRX38WO0n5BH8Th-nqAG_A%7CMCOPTOUT-1486679331s%7CNONE%7CMCAID%7C2C4E68818507EE95-4000010DA0000753; IRMS_la3971=1486672133317; tcp_email_signup_modal_persistent=Thu, 09 Feb 2017 20:28:53 GMT; shopping_cart=new; s_cm=undefinedTyped%2FBookmarkedTyped%2FBookmarkedundefined; s_ev43=%5B%5B%27Direct%2520Load%27%2C%271486672134289%27%5D%5D; icxid=1486672135540-1933089361097342; icxid=1486672135540-1933089361097342; tcpState=CO; tcpGeoLoc=39.7393|-104.9844; ipe_s=363930cc-93fc-59db-d2aa-e6e304142499; ipe.30858.pageViewedCount=1; WC_SESSION_ESTABLISHED=true; WC_ACTIVEPOINTER=-1%2C10151; BIGipServer~TCP-RD1~vip-206.24.3.65_web1-443=rd1o00000000000000000000ffff0a381c05o443; s_cpc=0; __cq_uuid=61b2d150-ef06-11e6-a1e9-0535dd1ca0f4; __cq_seg=; WC_PERSISTENT=EloC8OLGS11mvteBXBuwgJiRZ6Q%3D%0A%3B2017-02-09+15%3A33%3A10.153_1486672128917-11435_10151_263463020%2C-1%2CUSD_10151; WC_AUTHENTICATION_263463020=263463020%2CCr%2BZnxdxf6PffZpRFeeBXfNVivw%3D; WC_USERACTIVITY_263463020=263463020%2C10151%2Cnull%2Cnull%2Cnull%2Cnull%2Cnull%2Cnull%2Cnull%2Cnull%2CEzMJ6zs2PRWzEOtENjQ2srM9BDnWM9hDJx6lp0gJhYsNJDocokSKBCYSncYc6YAxach20N9yvaVGhUdI7KxIxmL%2Bzmw3AvEiAXzLduslXAUwZUHqeoZTvp9VYYdWt%2FvBuUFxEuZXjBLx3UR%2BTWx2NTNWOTYGhhiMWyM0vZNLsLAMTzLjTn0y6KXaa4k1%2Bj%2FL%2B5S4MBTo7zH7UnOrFz8hBg%3D%3D; mbox=session#1486672130564-94838#1486674301|PC#1486672130564-94838.20_15#1487882041|check#true#1486672501; s_cc=true; MP_COUNTRY=us; MP_LANG=en; s_sq=%5B%5BB%5D%5D; utag_main=v_id:015a24907aac001cd8065cf7329e04071002f069007bd$_sn:1$_ss:0$_pn:3%3Bexp-session$_st:1486674394646$ses_id:1486672132780%3Bexp-session$previous_refinements:%3Bexp-session$_prevpage:gl%3A%20my%20place%3A%20register%3Bexp-1486676194627; gpv_v28=gl%3A%20my%20place%3A%20register; s_vs=1; s_nr=1486672594657-New; undefined_s=First%20Visit; s_direct=1

