POST /webapp/wcs/stores/servlet/AjaxCreditCardProcess HTTP/1.1
Host: tcp-perf.childrensplace.com
Connection: keep-alive
Content-Length: 911
Accept: text/html, */*; q=0.01
Origin: https://tcp-perf.childrensplace.com
X-Requested-With: XMLHttpRequest
User-Agent: Mozilla/5.0 (Windows NT 6.1; Win64; x64) AppleWebKit/537.36 (KHTML, like Gecko) Chrome/56.0.2924.87 Safari/537.36
Content-Type: application/x-www-form-urlencoded; charset=UTF-8
Referer: https://tcp-perf.childrensplace.com/shop/AjaxLogonForm?catalogId=10551&myAcctMain=1&langId=-1&storeId=10151
Accept-Encoding: gzip, deflate, br
Accept-Language: en-US,en;q=0.8
Cookie: utagdb=true; BIGipServer~TCP-RD1~vip-206.24.3.65_web1=rd1o00000000000000000000ffff0a381c07o80; JSESSIONID=0000zmsEufw2P7ySOoH3kMPld_Q:19ivs1mnm; AMCVS_9A0A1C8B5329646E0A490D4D%40AdobeOrg=1; iShippingCookie=US|en_US|USD|1.0|1.0; s_vi=[CS]v1|2C4E68818507EE95-4000010DA0000753[CE]; AMCV_9A0A1C8B5329646E0A490D4D%40AdobeOrg=-1176276602%7CMCIDTS%7C17207%7CMCMID%7C19768006287662953370298756180292457633%7CMCAAMLH-1487276931%7C7%7CMCAAMB-1487276932%7CNRX38WO0n5BH8Th-nqAG_A%7CMCOPTOUT-1486679331s%7CNONE%7CMCAID%7C2C4E68818507EE95-4000010DA0000753; IRMS_la3971=1486672133317; shopping_cart=new; s_cm=undefinedTyped%2FBookmarkedTyped%2FBookmarkedundefined; s_ev43=%5B%5B%27Direct%2520Load%27%2C%271486672134289%27%5D%5D; icxid=1486672135540-1933089361097342; icxid=1486672135540-1933089361097342; tcpState=CO; tcpGeoLoc=39.7393|-104.9844; ipe_s=363930cc-93fc-59db-d2aa-e6e304142499; ipe.30858.pageViewedCount=1; WC_SESSION_ESTABLISHED=true; WC_ACTIVEPOINTER=-1%2C10151; BIGipServer~TCP-RD1~vip-206.24.3.65_web1-443=rd1o00000000000000000000ffff0a381c05o443; s_cpc=0; WC_PERSISTENT=EloC8OLGS11mvteBXBuwgJiRZ6Q%3D%0A%3B2017-02-09+15%3A33%3A10.153_1486672128917-11435_10151_263463020%2C-1%2CUSD_10151; WC_AUTHENTICATION_263463020=263463020%2CCr%2BZnxdxf6PffZpRFeeBXfNVivw%3D; WC_USERACTIVITY_263463020=263463020%2C10151%2Cnull%2Cnull%2Cnull%2Cnull%2Cnull%2Cnull%2Cnull%2Cnull%2CEzMJ6zs2PRWzEOtENjQ2srM9BDnWM9hDJx6lp0gJhYsNJDocokSKBCYSncYc6YAxach20N9yvaVGhUdI7KxIxmL%2Bzmw3AvEiAXzLduslXAUwZUHqeoZTvp9VYYdWt%2FvBuUFxEuZXjBLx3UR%2BTWx2NTNWOTYGhhiMWyM0vZNLsLAMTzLjTn0y6KXaa4k1%2Bj%2FL%2B5S4MBTo7zH7UnOrFz8hBg%3D%3D; memberSince=February 2017; acctId=""; myPlaceAcctNbr=M40180263463020; tier=1; acctStatus=active; showLoyaltyWebsiteInd=1; tcp_isregistered=true; tcp_firstname=JOE; tcp_email_signup_modal_persistent=9 Feb 2017 20:38:02 GMT; mbox=session#1486672130564-94838#1486674638|PC#1486672130564-94838.20_15#1487882378|check#true#1486672838; s_cc=true; MP_COUNTRY=us; MP_LANG=en; utag_main=v_id:015a24907aac001cd8065cf7329e04071002f069007bd$_sn:1$_ss:0$_pn:5%3Bexp-session$_st:1486674924671$ses_id:1486672132780%3Bexp-session$previous_refinements:%3Bexp-session$_prevpage:gl%3A%20my%20place%3A%20add%20credit%20card%3Bexp-1486676724642; __cq_uuid=61b2d150-ef06-11e6-a1e9-0535dd1ca0f4; __cq_seg=; s_sq=tcpglobaldev%252Ctcpportaldev%3D%2526pid%253Dgl%25253A%252520my%252520place%25253A%252520add%252520credit%252520card%2526pidt%253D1%2526oid%253Dfunctiononclick%252528event%252529%25257BJavaScript%25253ATCPMyPaymentInfoPopupJS.tcpPrepareNewUpdateProfile%252528%252527AddEditCreditC%2526oidt%253D2%2526ot%253DA; gpv_v28=gl%3A%20my%20place%3A%20add%20credit%20card; s_vs=1; s_nr=1486673193407-New; undefined_s=First%20Visit; s_direct=1

