GET /action-uic/0?ti=403381&Ver=2&mid=62be8820-c9fc-90bb-4e66-3eecf32e394b&evt=pageLoad&lt=21517&pi=-1748725250&lg=en-US&sw=1836&sh=1037&sc=24&tl=Kids%20Clothes%20&%20Baby%20Clothes%20|%20The%20Children%27s%20Place%20|%20$10%20Off*&p=http%3A%2F%2Fuatlive3.childrensplace.com%2Fshop%2Fus%2Fhome&r=&rn=881771 HTTP/1.1
Host: bat.r.msn.com
Connection: keep-alive
User-Agent: Mozilla/5.0 (Windows NT 6.1; Win64; x64) AppleWebKit/537.36 (KHTML, like Gecko) Chrome/56.0.2924.87 Safari/537.36
Accept: image/webp,image/*,*/*;q=0.8
Referer: http://uatlive3.childrensplace.com/shop/us/home
Accept-Encoding: gzip, deflate, sdch
Accept-Language: en-US,en;q=0.8

