"\n"
"^\n"
"\x06\n"
"\x04\x08\x03\x10\x02\x12%\n"
"\x06\n"
"\x04\x08\x03\x10\x01\x12\x12\t\x06\x9D\xAB\x06\xA6\xC7x\x9E\x11\xBAF\xB8'e\xC4\xCD\x01\x1A\x07"
"\x08\x86\x18\x10\x03\x18\x01\x1A\x18\x08\x19\x12\x14CQF\xCB\x089b\xAC\x18Rd\x91\xFF=/f\x8D\xCC"
"\x17\xEF \xF5\xDE\xBF\xBB\x99\xFE\x02(\x9D\xAE\xE4\xB5\xA6+2\x0128\x9F\x08*\xC1\x01\n"
"\x1C\n"
"\r\x08\xEC\x07\x12\x08AUTOFILL\x10\x01\x18\xF8\x86\xC8\xE3\x8B\xA4\xD2\x020\x01\n"
"!\n"
"\x12\x08\xEC\x07\x12\rFAVICON_IMAGE\x10\x01\x18\x90\xC9\xCF\xB7\xFF\xA3\xD2\x020\x00\n"
"$\n"
"\x15\x08\xEC\x07\x12\x10FAVICON_TRACKING\x10\x01\x18\xD8\xE6\xCA\xE4\x8F\xA4\xD2\x020\x01\n"
"\x1C\n"
"\r\x08\xEC\x07\x12\x08PASSWORD\x10\x01\x18\xB8\xF3\xD5\xAB\x88\xA4\xD2\x020\x00\n"
"\x1B\n"
"\x0C\x08\xEC\x07\x12\x07SESSION\x10\x01\x18\xA8\xFB\xFB\xE1\x8F\xA4\xD2\x020\x01\n"
"\x1D\n"
"\x0E\x08\xEC\x07\x12\tTYPED_URL\x10\x01\x18\xF8\xFD\xC1\xDA\x8F\xA4\xD2\x020\x01"
