GET /wcsstore/GlobalSAS/css/tcp/errors.css HTTP/1.1
Host: uatlive3.childrensplace.com
Connection: keep-alive
User-Agent: Mozilla/5.0 (Windows NT 6.1; Win64; x64) AppleWebKit/537.36 (KHTML, like Gecko) Chrome/56.0.2924.87 Safari/537.36
Accept: text/css,*/*;q=0.1
Referer: https://uatlive3.childrensplace.com/shop/us/content/double-up?icid=dbl_mpr_logon_dsc_110116
Accept-Encoding: gzip, deflate, sdch, br
Accept-Language: en-US,en;q=0.8
Cookie: JSESSIONID=0000qB7T_PjDwrX2kmFT2khfqyF:1b3su48e7; AMCVS_9A0A1C8B5329646E0A490D4D%40AdobeOrg=1; s_vi=[CS]v1|2C56E0658507D9E0-600001076003C108[CE]; iShippingCookie=US|en_US|USD|1.0|1.0; AMCV_9A0A1C8B5329646E0A490D4D%40AdobeOrg=-1176276602%7CMCIDTS%7C17220%7CMCMID%7C38218986573120325143450582430132824225%7CMCAAMLH-1488386891%7C7%7CMCAAMB-1488386891%7CNRX38WO0n5BH8Th-nqAG_A%7CMCOPTOUT-1487789291s%7CNONE%7CMCAID%7C2C56E0658507D9E0-600001076003C108; shopping_cart=new; s_cm=undefinedTyped%2FBookmarkedTyped%2FBookmarkedundefined; s_ev43=%5B%5B%27Direct%2520Load%27%2C%271487782093173%27%5D%5D; IRMS_la3971=1487782094301; tcp_email_signup_modal_persistent=Wed, 22 Feb 2017 16:48:15 GMT; icxid=1487782097711-6143813300466176; icxid=1487782097711-6143813300466176; tcpState=CO; tcpGeoLoc=39.7393|-104.9844; __cq_seg=; __cq_uuid=b84b8170-f91e-11e6-83e5-73bce4c12744; ipe_s=8709d455-2b9a-d1c9-01a9-26e0eaa6fb85; ipe.30858.pageViewedCount=1; WC_SESSION_ESTABLISHED=true; WC_PERSISTENT=ger%2BKXeeQGaCHRgM0GZ7eQ6ZyL8%3D%0A%3B2017-02-22+11%3A48%3A44.998_1487782088784-697_10151_-1002%2C-1%2CUSD_10151; WC_AUTHENTICATION_-1002=-1002%2CWqffnmHt8h0uf3tS%2FTDWBVxpYF4%3D; WC_ACTIVEPOINTER=-1%2C10151; WC_USERACTIVITY_-1002=-1002%2C10151%2Cnull%2Cnull%2Cnull%2Cnull%2Cnull%2Cnull%2Cnull%2Cnull%2CUmi0JsdlKWsNHV9isemPxphwoIkoIFKV97c1hndL4OwScA6JxNR171dzxLtWD%2FTRKEoSXQJzxElsTPvdSIyweqDvGU%2BYD7bPVbtqmebBRxUXKWEAafZC2tIyQBDwBJxVJBaLK7piybgVE%2FopAif0Djlh7zBRiRLlPmZCzmyEDGZn%2FRSD3Zy1MvKEkxTC%2B3h8wz7iYJWj9VXsjkJBh4rYwQ%3D%3D; WC_GENERIC_ACTIVITYDATA=[50776182%3Atrue%3Afalse%3A0%3AYYjF0c6HmmGOJwJguwDTQmURUfQ%3D][com.ibm.commerce.context.audit.AuditContext|1487782088784-697][com.ibm.commerce.store.facade.server.context.StoreGeoCodeContext|null%26null%26null%26null%26null%26null][CTXSETNAME|Store][com.ibm.commerce.context.globalization.GlobalizationContext|-1%26USD%26-1%26USD][com.ibm.commerce.catalog.businesscontext.CatalogContext|10551%26null%26false%26false%26false][com.ibm.commerce.context.ExternalCartContext|null][com.ibm.commerce.context.base.BaseContext|10151%26-1002%26-1002%26-1][com.ibm.commerce.context.experiment.ExperimentContext|null][com.ibm.commerce.context.entitlement.EntitlementContext|4000000000000000003%264000000000000000003%26null%26-2000%26null%26null%26null][com.ibm.commerce.giftcenter.context.GiftCenterContext|null%26null%26null]; mbox=check#true#1487782187|session#1487782090606-339012#1487783987|PC#1487782090606-339012.20_63#1488991727; utag_main=v_id:015a66b91f9c00234b39ed2f4a7405071002f06900b51$_sn:1$_ss:0$_pn:2%3Bexp-session$_st:1487783928359$ses_id:1487782092700%3Bexp-session$previous_refinements:%3Bexp-session$_prevpage:gl%3A%20my%20place%3A%20login%3Bexp-1487785728541; s_cpc=0; s_cc=true; MP_COUNTRY=us; MP_LANG=en; gpv_v28=gl%3A%20my%20place%3A%20login; s_vs=1; s_nr=1487782280688-New; undefined_s=First%20Visit; s_direct=1; s_sq=tcpglobaldev%252Ctcpportaldev%3D%2526pid%253Dgl%25253A%252520my%252520place%25253A%252520login%2526pidt%253D1%2526oid%253Dhttps%25253A%25252F%25252Fuatlive3.childrensplace.com%25252Fshop%25252Fus%25252Fcontent%25252Fdouble-up%25253Ficid%25253Ddbl_mpr_logon_dsc_110116%2526ot%253DA

