HTTP/1.1 200 OK
Content-Encoding: gzip
Accept-Ranges: bytes
Cache-Control: max-age=1296000
Content-Type: text/javascript
Date: Wed, 22 Feb 2017 16:51:55 GMT
Etag: "1998070468+gzip"
Expires: Thu, 09 Mar 2017 16:51:55 GMT
Last-Modified: Mon, 29 Feb 2016 16:14:45 GMT
Server: ECS (mdw/13E2)
Vary: Accept-Encoding
X-Cache: HIT
Content-Length: 1502

