HTTP/1.1 404 Not Found
Date: Mon, 30 Oct 2017 21:40:37 GMT
Content-Length: 415
Keep-Alive: timeout=10, max=100
Connection: Keep-Alive
Content-Type: text/html; charset=iso-8859-1
Set-Cookie: BIGipServer~TCP-RD1~vip-10.56.26.209_web2-443=rd1o00000000000000000000ffff0a381c07o443; path=/

