LOGON_ID,LOGON_PASSWORD
TCPPERFV70040724.363@CHILDRENSPLACE.COM,asdf1234
TCPPERFV70040727.296@CHILDRENSPLACE.COM,asdf1234
TCPPERFV70040730.086@CHILDRENSPLACE.COM,asdf1234
TCPPERFV70040733.420@CHILDRENSPLACE.COM,asdf1234
TCPPERFV70040736.136@CHILDRENSPLACE.COM,asdf1234
TCPPERFV70040738.685@CHILDRENSPLACE.COM,asdf1234
TCPPERFV70040741.389@CHILDRENSPLACE.COM,asdf1234
TCPPERFV70040744.260@CHILDRENSPLACE.COM,asdf1234
TCPPERFV70040746.855@CHILDRENSPLACE.COM,asdf1234
TCPPERFV70040749.584@CHILDRENSPLACE.COM,asdf1234
TCPPERFV70040752.700@CHILDRENSPLACE.COM,asdf1234
TCPPERFV70040755.489@CHILDRENSPLACE.COM,asdf1234
TCPPERFV70040758.069@CHILDRENSPLACE.COM,asdf1234
TCPPERFV70040800.836@CHILDRENSPLACE.COM,asdf1234
TCPPERFV70040803.606@CHILDRENSPLACE.COM,asdf1234
TCPPERFV70040806.520@CHILDRENSPLACE.COM,asdf1234
TCPPERFV70040809.123@CHILDRENSPLACE.COM,asdf1234
TCPPERFV70040811.879@CHILDRENSPLACE.COM,asdf1234
TCPPERFV70040814.935@CHILDRENSPLACE.COM,asdf1234
TCPPERFV70040817.493@CHILDRENSPLACE.COM,asdf1234
TCPPERFV70040820.258@CHILDRENSPLACE.COM,asdf1234
TCPPERFV70040822.955@CHILDRENSPLACE.COM,asdf1234
TCPPERFV70040825.832@CHILDRENSPLACE.COM,asdf1234
TCPPERFV70040828.794@CHILDRENSPLACE.COM,asdf1234
TCPPERFV70040831.471@CHILDRENSPLACE.COM,asdf1234
TCPPERFV70040834.096@CHILDRENSPLACE.COM,asdf1234
TCPPERFV70040836.809@CHILDRENSPLACE.COM,asdf1234
TCPPERFV70040840.095@CHILDRENSPLACE.COM,asdf1234
TCPPERFV70040842.719@CHILDRENSPLACE.COM,asdf1234
TCPPERFV70040845.762@CHILDRENSPLACE.COM,asdf1234
TCPPERFV70040848.315@CHILDRENSPLACE.COM,asdf1234
TCPPERFV70040851.405@CHILDRENSPLACE.COM,asdf1234
TCPPERFV70040854.111@CHILDRENSPLACE.COM,asdf1234
TCPPERFV70040857.069@CHILDRENSPLACE.COM,asdf1234
TCPPERFV70040859.816@CHILDRENSPLACE.COM,asdf1234
TCPPERFV70040902.585@CHILDRENSPLACE.COM,asdf1234
TCPPERFV70040905.299@CHILDRENSPLACE.COM,asdf1234
TCPPERFV70040907.912@CHILDRENSPLACE.COM,asdf1234
TCPPERFV70040910.589@CHILDRENSPLACE.COM,asdf1234
TCPPERFV70040913.374@CHILDRENSPLACE.COM,asdf1234
TCPPERFV70040916.451@CHILDRENSPLACE.COM,asdf1234
TCPPERFV70040919.254@CHILDRENSPLACE.COM,asdf1234
TCPPERFV70040921.914@CHILDRENSPLACE.COM,asdf1234
TCPPERFV70040924.933@CHILDRENSPLACE.COM,asdf1234
TCPPERFV70040927.569@CHILDRENSPLACE.COM,asdf1234
TCPPERFV70040930.731@CHILDRENSPLACE.COM,asdf1234
TCPPERFV70040933.829@CHILDRENSPLACE.COM,asdf1234
TCPPERFV70040936.646@CHILDRENSPLACE.COM,asdf1234
TCPPERFV70040939.796@CHILDRENSPLACE.COM,asdf1234
TCPPERFV70040942.491@CHILDRENSPLACE.COM,asdf1234
TCPPERFV70040945.749@CHILDRENSPLACE.COM,asdf1234
TCPPERFV70040948.476@CHILDRENSPLACE.COM,asdf1234
TCPPERFV70040951.204@CHILDRENSPLACE.COM,asdf1234
TCPPERFV70040953.816@CHILDRENSPLACE.COM,asdf1234
TCPPERFV70040956.524@CHILDRENSPLACE.COM,asdf1234
TCPPERFV70040959.159@CHILDRENSPLACE.COM,asdf1234
TCPPERFV70041001.977@CHILDRENSPLACE.COM,asdf1234
TCPPERFV70041004.726@CHILDRENSPLACE.COM,asdf1234
TCPPERFV70041007.378@CHILDRENSPLACE.COM,asdf1234
TCPPERFV70041010.053@CHILDRENSPLACE.COM,asdf1234
TCPPERFV70041012.836@CHILDRENSPLACE.COM,asdf1234
TCPPERFV70041015.869@CHILDRENSPLACE.COM,asdf1234
TCPPERFV70041018.953@CHILDRENSPLACE.COM,asdf1234
TCPPERFV70041021.783@CHILDRENSPLACE.COM,asdf1234
TCPPERFV70041024.914@CHILDRENSPLACE.COM,asdf1234
TCPPERFV70041028.301@CHILDRENSPLACE.COM,asdf1234
TCPPERFV70041030.997@CHILDRENSPLACE.COM,asdf1234
TCPPERFV70041033.881@CHILDRENSPLACE.COM,asdf1234
TCPPERFV70041036.679@CHILDRENSPLACE.COM,asdf1234
TCPPERFV70041040.305@CHILDRENSPLACE.COM,asdf1234
TCPPERFV70041043.228@CHILDRENSPLACE.COM,asdf1234
TCPPERFV70041046.095@CHILDRENSPLACE.COM,asdf1234
TCPPERFV70041048.896@CHILDRENSPLACE.COM,asdf1234
TCPPERFV70041052.286@CHILDRENSPLACE.COM,asdf1234
TCPPERFV70041054.992@CHILDRENSPLACE.COM,asdf1234
TCPPERFV70041057.819@CHILDRENSPLACE.COM,asdf1234
TCPPERFV70041100.738@CHILDRENSPLACE.COM,asdf1234
TCPPERFV70041104.751@CHILDRENSPLACE.COM,asdf1234
TCPPERFV70041107.611@CHILDRENSPLACE.COM,asdf1234
TCPPERFV70041110.442@CHILDRENSPLACE.COM,asdf1234
TCPPERFV70041113.618@CHILDRENSPLACE.COM,asdf1234
TCPPERFV70041116.500@CHILDRENSPLACE.COM,asdf1234
TCPPERFV70041120.441@CHILDRENSPLACE.COM,asdf1234
TCPPERFV70041123.172@CHILDRENSPLACE.COM,asdf1234
TCPPERFV70041125.992@CHILDRENSPLACE.COM,asdf1234
TCPPERFV70041128.636@CHILDRENSPLACE.COM,asdf1234
TCPPERFV70041131.443@CHILDRENSPLACE.COM,asdf1234
TCPPERFV70041134.238@CHILDRENSPLACE.COM,asdf1234
TCPPERFV70041136.965@CHILDRENSPLACE.COM,asdf1234
TCPPERFV70041140.377@CHILDRENSPLACE.COM,asdf1234
TCPPERFV70041143.182@CHILDRENSPLACE.COM,asdf1234
TCPPERFV70041145.900@CHILDRENSPLACE.COM,asdf1234
TCPPERFV70041149.074@CHILDRENSPLACE.COM,asdf1234
TCPPERFV70041151.950@CHILDRENSPLACE.COM,asdf1234
TCPPERFV70041155.403@CHILDRENSPLACE.COM,asdf1234
TCPPERFV70041158.201@CHILDRENSPLACE.COM,asdf1234
TCPPERFV70041201.317@CHILDRENSPLACE.COM,asdf1234
TCPPERFV70041204.053@CHILDRENSPLACE.COM,asdf1234
TCPPERFV70041206.946@CHILDRENSPLACE.COM,asdf1234
TCPPERFV70041209.750@CHILDRENSPLACE.COM,asdf1234
TCPPERFV70041212.516@CHILDRENSPLACE.COM,asdf1234
TCPPERFV70041215.302@CHILDRENSPLACE.COM,asdf1234
TCPPERFV70041218.209@CHILDRENSPLACE.COM,asdf1234
TCPPERFV70041221.879@CHILDRENSPLACE.COM,asdf1234
TCPPERFV70041225.730@CHILDRENSPLACE.COM,asdf1234
TCPPERFV70041229.731@CHILDRENSPLACE.COM,asdf1234
TCPPERFV70041232.603@CHILDRENSPLACE.COM,asdf1234
TCPPERFV70041236.030@CHILDRENSPLACE.COM,asdf1234
TCPPERFV70041238.798@CHILDRENSPLACE.COM,asdf1234
TCPPERFV70041242.410@CHILDRENSPLACE.COM,asdf1234
TCPPERFV70041245.305@CHILDRENSPLACE.COM,asdf1234
TCPPERFV70041248.330@CHILDRENSPLACE.COM,asdf1234
TCPPERFV70041251.360@CHILDRENSPLACE.COM,asdf1234
TCPPERFV70041254.869@CHILDRENSPLACE.COM,asdf1234
TCPPERFV70041258.078@CHILDRENSPLACE.COM,asdf1234
TCPPERFV70041301.003@CHILDRENSPLACE.COM,asdf1234
TCPPERFV70041304.470@CHILDRENSPLACE.COM,asdf1234
TCPPERFV70041307.598@CHILDRENSPLACE.COM,asdf1234
TCPPERFV70041310.379@CHILDRENSPLACE.COM,asdf1234
TCPPERFV70041313.300@CHILDRENSPLACE.COM,asdf1234
TCPPERFV70041316.881@CHILDRENSPLACE.COM,asdf1234
TCPPERFV70041319.826@CHILDRENSPLACE.COM,asdf1234
TCPPERFV70041322.649@CHILDRENSPLACE.COM,asdf1234
TCPPERFV70041325.588@CHILDRENSPLACE.COM,asdf1234
TCPPERFV70041328.778@CHILDRENSPLACE.COM,asdf1234
TCPPERFV70041331.675@CHILDRENSPLACE.COM,asdf1234
TCPPERFV70041334.753@CHILDRENSPLACE.COM,asdf1234
TCPPERFV70041337.836@CHILDRENSPLACE.COM,asdf1234
TCPPERFV70041340.827@CHILDRENSPLACE.COM,asdf1234
TCPPERFV70041344.923@CHILDRENSPLACE.COM,asdf1234
TCPPERFV70041347.761@CHILDRENSPLACE.COM,asdf1234
TCPPERFV70041350.614@CHILDRENSPLACE.COM,asdf1234
TCPPERFV70041353.383@CHILDRENSPLACE.COM,asdf1234
TCPPERFV70041356.593@CHILDRENSPLACE.COM,asdf1234
TCPPERFV70041359.459@CHILDRENSPLACE.COM,asdf1234
TCPPERFV70041402.358@CHILDRENSPLACE.COM,asdf1234
TCPPERFV70041405.321@CHILDRENSPLACE.COM,asdf1234
TCPPERFV70041408.096@CHILDRENSPLACE.COM,asdf1234
TCPPERFV70041410.897@CHILDRENSPLACE.COM,asdf1234
TCPPERFV70041413.893@CHILDRENSPLACE.COM,asdf1234
TCPPERFV70041416.698@CHILDRENSPLACE.COM,asdf1234
TCPPERFV70041419.706@CHILDRENSPLACE.COM,asdf1234
TCPPERFV70041423.102@CHILDRENSPLACE.COM,asdf1234
TCPPERFV70041426.688@CHILDRENSPLACE.COM,asdf1234
TCPPERFV70041429.730@CHILDRENSPLACE.COM,asdf1234
TCPPERFV70041432.905@CHILDRENSPLACE.COM,asdf1234
TCPPERFV70041436.117@CHILDRENSPLACE.COM,asdf1234
TCPPERFV70041439.138@CHILDRENSPLACE.COM,asdf1234
TCPPERFV70041442.087@CHILDRENSPLACE.COM,asdf1234
TCPPERFV70041445.043@CHILDRENSPLACE.COM,asdf1234
TCPPERFV70041448.062@CHILDRENSPLACE.COM,asdf1234
TCPPERFV70041451.572@CHILDRENSPLACE.COM,asdf1234
TCPPERFV70041455.172@CHILDRENSPLACE.COM,asdf1234
TCPPERFV70041458.259@CHILDRENSPLACE.COM,asdf1234
TCPPERFV70041501.233@CHILDRENSPLACE.COM,asdf1234
TCPPERFV70041504.220@CHILDRENSPLACE.COM,asdf1234
TCPPERFV70041507.069@CHILDRENSPLACE.COM,asdf1234
TCPPERFV70041510.007@CHILDRENSPLACE.COM,asdf1234
TCPPERFV70041513.655@CHILDRENSPLACE.COM,asdf1234
TCPPERFV70041516.460@CHILDRENSPLACE.COM,asdf1234
TCPPERFV70041519.719@CHILDRENSPLACE.COM,asdf1234
TCPPERFV70041522.617@CHILDRENSPLACE.COM,asdf1234
TCPPERFV70041525.561@CHILDRENSPLACE.COM,asdf1234
TCPPERFV70041528.404@CHILDRENSPLACE.COM,asdf1234
TCPPERFV70041531.801@CHILDRENSPLACE.COM,asdf1234
TCPPERFV70041534.801@CHILDRENSPLACE.COM,asdf1234
TCPPERFV70041537.799@CHILDRENSPLACE.COM,asdf1234
TCPPERFV70041540.734@CHILDRENSPLACE.COM,asdf1234
TCPPERFV70041544.605@CHILDRENSPLACE.COM,asdf1234
TCPPERFV70041547.537@CHILDRENSPLACE.COM,asdf1234
TCPPERFV70041550.384@CHILDRENSPLACE.COM,asdf1234
TCPPERFV70041553.206@CHILDRENSPLACE.COM,asdf1234
TCPPERFV70041556.324@CHILDRENSPLACE.COM,asdf1234
TCPPERFV70041601.871@CHILDRENSPLACE.COM,asdf1234
TCPPERFV70041604.673@CHILDRENSPLACE.COM,asdf1234
TCPPERFV70041608.491@CHILDRENSPLACE.COM,asdf1234
TCPPERFV70041611.281@CHILDRENSPLACE.COM,asdf1234
TCPPERFV70041614.223@CHILDRENSPLACE.COM,asdf1234
TCPPERFV70041617.096@CHILDRENSPLACE.COM,asdf1234
TCPPERFV70041620.618@CHILDRENSPLACE.COM,asdf1234
TCPPERFV70041623.562@CHILDRENSPLACE.COM,asdf1234
TCPPERFV70041626.413@CHILDRENSPLACE.COM,asdf1234
TCPPERFV70041629.262@CHILDRENSPLACE.COM,asdf1234
TCPPERFV70041632.431@CHILDRENSPLACE.COM,asdf1234
TCPPERFV70041635.366@CHILDRENSPLACE.COM,asdf1234
TCPPERFV70041638.222@CHILDRENSPLACE.COM,asdf1234
TCPPERFV70041641.115@CHILDRENSPLACE.COM,asdf1234
TCPPERFV70041644.151@CHILDRENSPLACE.COM,asdf1234
TCPPERFV70041647.054@CHILDRENSPLACE.COM,asdf1234
TCPPERFV70041649.855@CHILDRENSPLACE.COM,asdf1234
TCPPERFV70041652.763@CHILDRENSPLACE.COM,asdf1234
TCPPERFV70041655.687@CHILDRENSPLACE.COM,asdf1234
TCPPERFV70041658.546@CHILDRENSPLACE.COM,asdf1234
TCPPERFV70041701.432@CHILDRENSPLACE.COM,asdf1234
TCPPERFV70041704.353@CHILDRENSPLACE.COM,asdf1234
TCPPERFV70041707.206@CHILDRENSPLACE.COM,asdf1234
TCPPERFV70041710.266@CHILDRENSPLACE.COM,asdf1234
TCPPERFV70041713.267@CHILDRENSPLACE.COM,asdf1234
TCPPERFV70041716.346@CHILDRENSPLACE.COM,asdf1234
TCPPERFV70041719.288@CHILDRENSPLACE.COM,asdf1234
TCPPERFV70041722.338@CHILDRENSPLACE.COM,asdf1234
TCPPERFV70041725.292@CHILDRENSPLACE.COM,asdf1234
TCPPERFV70041728.047@CHILDRENSPLACE.COM,asdf1234
TCPPERFV70041730.971@CHILDRENSPLACE.COM,asdf1234
TCPPERFV70041733.874@CHILDRENSPLACE.COM,asdf1234
TCPPERFV70041736.801@CHILDRENSPLACE.COM,asdf1234
TCPPERFV70041740.409@CHILDRENSPLACE.COM,asdf1234
TCPPERFV70041743.357@CHILDRENSPLACE.COM,asdf1234
TCPPERFV70041746.320@CHILDRENSPLACE.COM,asdf1234
TCPPERFV70041749.257@CHILDRENSPLACE.COM,asdf1234
TCPPERFV70041752.104@CHILDRENSPLACE.COM,asdf1234
TCPPERFV70041755.012@CHILDRENSPLACE.COM,asdf1234
TCPPERFV70041758.199@CHILDRENSPLACE.COM,asdf1234
TCPPERFV70041801.247@CHILDRENSPLACE.COM,asdf1234
TCPPERFV70041804.176@CHILDRENSPLACE.COM,asdf1234
TCPPERFV70041807.580@CHILDRENSPLACE.COM,asdf1234
TCPPERFV70041810.552@CHILDRENSPLACE.COM,asdf1234
TCPPERFV70041813.519@CHILDRENSPLACE.COM,asdf1234
TCPPERFV70041816.848@CHILDRENSPLACE.COM,asdf1234
TCPPERFV70041819.814@CHILDRENSPLACE.COM,asdf1234
TCPPERFV70041822.673@CHILDRENSPLACE.COM,asdf1234
TCPPERFV70041825.857@CHILDRENSPLACE.COM,asdf1234
TCPPERFV70041828.895@CHILDRENSPLACE.COM,asdf1234
TCPPERFV70041831.823@CHILDRENSPLACE.COM,asdf1234
TCPPERFV70041835.005@CHILDRENSPLACE.COM,asdf1234
TCPPERFV70041837.905@CHILDRENSPLACE.COM,asdf1234
TCPPERFV70041840.911@CHILDRENSPLACE.COM,asdf1234
TCPPERFV70041843.959@CHILDRENSPLACE.COM,asdf1234
TCPPERFV70041847.255@CHILDRENSPLACE.COM,asdf1234
TCPPERFV70041850.448@CHILDRENSPLACE.COM,asdf1234
TCPPERFV70041853.468@CHILDRENSPLACE.COM,asdf1234
TCPPERFV70041856.884@CHILDRENSPLACE.COM,asdf1234
TCPPERFV70041859.866@CHILDRENSPLACE.COM,asdf1234
TCPPERFV70041902.850@CHILDRENSPLACE.COM,asdf1234
TCPPERFV70041905.993@CHILDRENSPLACE.COM,asdf1234
TCPPERFV70041909.010@CHILDRENSPLACE.COM,asdf1234
TCPPERFV70041912.090@CHILDRENSPLACE.COM,asdf1234
TCPPERFV70041914.975@CHILDRENSPLACE.COM,asdf1234
TCPPERFV70041917.905@CHILDRENSPLACE.COM,asdf1234
TCPPERFV70041920.794@CHILDRENSPLACE.COM,asdf1234
TCPPERFV70041923.936@CHILDRENSPLACE.COM,asdf1234
TCPPERFV70041926.878@CHILDRENSPLACE.COM,asdf1234
TCPPERFV70041929.824@CHILDRENSPLACE.COM,asdf1234
TCPPERFV70041932.688@CHILDRENSPLACE.COM,asdf1234
TCPPERFV70041935.670@CHILDRENSPLACE.COM,asdf1234
TCPPERFV70041938.705@CHILDRENSPLACE.COM,asdf1234
TCPPERFV70041941.502@CHILDRENSPLACE.COM,asdf1234
TCPPERFV70041944.323@CHILDRENSPLACE.COM,asdf1234
TCPPERFV70041947.386@CHILDRENSPLACE.COM,asdf1234
TCPPERFV70041950.250@CHILDRENSPLACE.COM,asdf1234
TCPPERFV70041953.325@CHILDRENSPLACE.COM,asdf1234
TCPPERFV70041956.126@CHILDRENSPLACE.COM,asdf1234
TCPPERFV70041958.954@CHILDRENSPLACE.COM,asdf1234
TCPPERFV70042001.866@CHILDRENSPLACE.COM,asdf1234
TCPPERFV70042004.815@CHILDRENSPLACE.COM,asdf1234
TCPPERFV70042007.568@CHILDRENSPLACE.COM,asdf1234
TCPPERFV70042010.394@CHILDRENSPLACE.COM,asdf1234
TCPPERFV70042013.319@CHILDRENSPLACE.COM,asdf1234
TCPPERFV70042016.152@CHILDRENSPLACE.COM,asdf1234
TCPPERFV70042018.981@CHILDRENSPLACE.COM,asdf1234
TCPPERFV70042021.869@CHILDRENSPLACE.COM,asdf1234
TCPPERFV70042024.764@CHILDRENSPLACE.COM,asdf1234
TCPPERFV70042027.631@CHILDRENSPLACE.COM,asdf1234
TCPPERFV70042030.515@CHILDRENSPLACE.COM,asdf1234
TCPPERFV70042033.293@CHILDRENSPLACE.COM,asdf1234
TCPPERFV70042036.087@CHILDRENSPLACE.COM,asdf1234
TCPPERFV70042039.062@CHILDRENSPLACE.COM,asdf1234
TCPPERFV70042042.193@CHILDRENSPLACE.COM,asdf1234
TCPPERFV70042045.141@CHILDRENSPLACE.COM,asdf1234
TCPPERFV70042048.153@CHILDRENSPLACE.COM,asdf1234
TCPPERFV70042050.968@CHILDRENSPLACE.COM,asdf1234
TCPPERFV70042053.865@CHILDRENSPLACE.COM,asdf1234
TCPPERFV70042056.691@CHILDRENSPLACE.COM,asdf1234
TCPPERFV70042059.632@CHILDRENSPLACE.COM,asdf1234
TCPPERFV70042102.385@CHILDRENSPLACE.COM,asdf1234
TCPPERFV70042105.313@CHILDRENSPLACE.COM,asdf1234
TCPPERFV70042108.200@CHILDRENSPLACE.COM,asdf1234
TCPPERFV70042111.155@CHILDRENSPLACE.COM,asdf1234
TCPPERFV70042114.004@CHILDRENSPLACE.COM,asdf1234
TCPPERFV70042118.437@CHILDRENSPLACE.COM,asdf1234
TCPPERFV70042121.271@CHILDRENSPLACE.COM,asdf1234
TCPPERFV70042124.188@CHILDRENSPLACE.COM,asdf1234
TCPPERFV70042127.073@CHILDRENSPLACE.COM,asdf1234
TCPPERFV70042130.460@CHILDRENSPLACE.COM,asdf1234
TCPPERFV70042133.429@CHILDRENSPLACE.COM,asdf1234
TCPPERFV70042136.311@CHILDRENSPLACE.COM,asdf1234
TCPPERFV70042139.110@CHILDRENSPLACE.COM,asdf1234
TCPPERFV70042142.079@CHILDRENSPLACE.COM,asdf1234
TCPPERFV70042146.508@CHILDRENSPLACE.COM,asdf1234
TCPPERFV70042149.243@CHILDRENSPLACE.COM,asdf1234
TCPPERFV70042153.870@CHILDRENSPLACE.COM,asdf1234
TCPPERFV70042156.629@CHILDRENSPLACE.COM,asdf1234
TCPPERFV70042159.591@CHILDRENSPLACE.COM,asdf1234
TCPPERFV70042202.494@CHILDRENSPLACE.COM,asdf1234
TCPPERFV70042207.677@CHILDRENSPLACE.COM,asdf1234
TCPPERFV70042211.794@CHILDRENSPLACE.COM,asdf1234
TCPPERFV70042214.621@CHILDRENSPLACE.COM,asdf1234
TCPPERFV70042219.268@CHILDRENSPLACE.COM,asdf1234
TCPPERFV70042224.773@CHILDRENSPLACE.COM,asdf1234
TCPPERFV70042230.187@CHILDRENSPLACE.COM,asdf1234
TCPPERFV70042233.015@CHILDRENSPLACE.COM,asdf1234
TCPPERFV70042235.803@CHILDRENSPLACE.COM,asdf1234
TCPPERFV70042241.597@CHILDRENSPLACE.COM,asdf1234
TCPPERFV70042244.433@CHILDRENSPLACE.COM,asdf1234
TCPPERFV70042249.432@CHILDRENSPLACE.COM,asdf1234
TCPPERFV70042252.363@CHILDRENSPLACE.COM,asdf1234
TCPPERFV70042255.904@CHILDRENSPLACE.COM,asdf1234
TCPPERFV70042258.907@CHILDRENSPLACE.COM,asdf1234
TCPPERFV70042304.054@CHILDRENSPLACE.COM,asdf1234
TCPPERFV70042307.367@CHILDRENSPLACE.COM,asdf1234
TCPPERFV70042310.389@CHILDRENSPLACE.COM,asdf1234
TCPPERFV70042313.267@CHILDRENSPLACE.COM,asdf1234
TCPPERFV70042316.114@CHILDRENSPLACE.COM,asdf1234
TCPPERFV70042318.843@CHILDRENSPLACE.COM,asdf1234
TCPPERFV70042323.706@CHILDRENSPLACE.COM,asdf1234
TCPPERFV70042326.842@CHILDRENSPLACE.COM,asdf1234
TCPPERFV70042331.670@CHILDRENSPLACE.COM,asdf1234
TCPPERFV70042334.421@CHILDRENSPLACE.COM,asdf1234
TCPPERFV70042337.133@CHILDRENSPLACE.COM,asdf1234
TCPPERFV70042342.286@CHILDRENSPLACE.COM,asdf1234
TCPPERFV70042345.307@CHILDRENSPLACE.COM,asdf1234
TCPPERFV70042350.780@CHILDRENSPLACE.COM,asdf1234
TCPPERFV70042353.832@CHILDRENSPLACE.COM,asdf1234
TCPPERFV70042356.654@CHILDRENSPLACE.COM,asdf1234
TCPPERFV70042402.346@CHILDRENSPLACE.COM,asdf1234
TCPPERFV70042407.421@CHILDRENSPLACE.COM,asdf1234
TCPPERFV70042412.709@CHILDRENSPLACE.COM,asdf1234
TCPPERFV70042415.404@CHILDRENSPLACE.COM,asdf1234
TCPPERFV70042418.939@CHILDRENSPLACE.COM,asdf1234
TCPPERFV70042421.815@CHILDRENSPLACE.COM,asdf1234
TCPPERFV70042426.570@CHILDRENSPLACE.COM,asdf1234
TCPPERFV70042431.018@CHILDRENSPLACE.COM,asdf1234
TCPPERFV70042433.619@CHILDRENSPLACE.COM,asdf1234
TCPPERFV70042436.686@CHILDRENSPLACE.COM,asdf1234
TCPPERFV70042439.611@CHILDRENSPLACE.COM,asdf1234
TCPPERFV70042442.401@CHILDRENSPLACE.COM,asdf1234
TCPPERFV70042445.092@CHILDRENSPLACE.COM,asdf1234
TCPPERFV70042447.892@CHILDRENSPLACE.COM,asdf1234
TCPPERFV70042450.660@CHILDRENSPLACE.COM,asdf1234
TCPPERFV70042453.429@CHILDRENSPLACE.COM,asdf1234
TCPPERFV70042456.011@CHILDRENSPLACE.COM,asdf1234
TCPPERFV70042458.656@CHILDRENSPLACE.COM,asdf1234
TCPPERFV70042501.617@CHILDRENSPLACE.COM,asdf1234
TCPPERFV70042504.449@CHILDRENSPLACE.COM,asdf1234
TCPPERFV70042507.711@CHILDRENSPLACE.COM,asdf1234
TCPPERFV70042510.482@CHILDRENSPLACE.COM,asdf1234
TCPPERFV70042513.185@CHILDRENSPLACE.COM,asdf1234
TCPPERFV70042515.836@CHILDRENSPLACE.COM,asdf1234
TCPPERFV70042518.417@CHILDRENSPLACE.COM,asdf1234
TCPPERFV70042521.643@CHILDRENSPLACE.COM,asdf1234
TCPPERFV70042524.484@CHILDRENSPLACE.COM,asdf1234
TCPPERFV70042528.147@CHILDRENSPLACE.COM,asdf1234
TCPPERFV70042530.936@CHILDRENSPLACE.COM,asdf1234
TCPPERFV70042533.734@CHILDRENSPLACE.COM,asdf1234
TCPPERFV70042536.485@CHILDRENSPLACE.COM,asdf1234
TCPPERFV70042539.152@CHILDRENSPLACE.COM,asdf1234
TCPPERFV70042541.786@CHILDRENSPLACE.COM,asdf1234
TCPPERFV70042544.603@CHILDRENSPLACE.COM,asdf1234
TCPPERFV70042547.718@CHILDRENSPLACE.COM,asdf1234
TCPPERFV70042551.834@CHILDRENSPLACE.COM,asdf1234
TCPPERFV70042555.370@CHILDRENSPLACE.COM,asdf1234
TCPPERFV70042558.336@CHILDRENSPLACE.COM,asdf1234
TCPPERFV70042601.176@CHILDRENSPLACE.COM,asdf1234
TCPPERFV70042603.977@CHILDRENSPLACE.COM,asdf1234
TCPPERFV70042606.885@CHILDRENSPLACE.COM,asdf1234
TCPPERFV70042609.552@CHILDRENSPLACE.COM,asdf1234
TCPPERFV70042612.402@CHILDRENSPLACE.COM,asdf1234
TCPPERFV70042615.640@CHILDRENSPLACE.COM,asdf1234
TCPPERFV70042618.334@CHILDRENSPLACE.COM,asdf1234
TCPPERFV70042621.152@CHILDRENSPLACE.COM,asdf1234
TCPPERFV70042624.145@CHILDRENSPLACE.COM,asdf1234
TCPPERFV70042626.918@CHILDRENSPLACE.COM,asdf1234
TCPPERFV70042629.673@CHILDRENSPLACE.COM,asdf1234
TCPPERFV70042632.510@CHILDRENSPLACE.COM,asdf1234
TCPPERFV70042635.237@CHILDRENSPLACE.COM,asdf1234
TCPPERFV70042638.530@CHILDRENSPLACE.COM,asdf1234
TCPPERFV70042641.461@CHILDRENSPLACE.COM,asdf1234
TCPPERFV70042644.321@CHILDRENSPLACE.COM,asdf1234
TCPPERFV70042647.599@CHILDRENSPLACE.COM,asdf1234
TCPPERFV70042650.290@CHILDRENSPLACE.COM,asdf1234
TCPPERFV70042653.136@CHILDRENSPLACE.COM,asdf1234
TCPPERFV70042655.936@CHILDRENSPLACE.COM,asdf1234
TCPPERFV70042658.762@CHILDRENSPLACE.COM,asdf1234
TCPPERFV70042701.636@CHILDRENSPLACE.COM,asdf1234
TCPPERFV70042704.514@CHILDRENSPLACE.COM,asdf1234
TCPPERFV70042707.350@CHILDRENSPLACE.COM,asdf1234
TCPPERFV70042710.158@CHILDRENSPLACE.COM,asdf1234
TCPPERFV70042713.405@CHILDRENSPLACE.COM,asdf1234
TCPPERFV70042716.220@CHILDRENSPLACE.COM,asdf1234
TCPPERFV70042718.938@CHILDRENSPLACE.COM,asdf1234
TCPPERFV70042722.162@CHILDRENSPLACE.COM,asdf1234
TCPPERFV70042725.258@CHILDRENSPLACE.COM,asdf1234
TCPPERFV70042727.990@CHILDRENSPLACE.COM,asdf1234
TCPPERFV70042730.896@CHILDRENSPLACE.COM,asdf1234
TCPPERFV70042733.631@CHILDRENSPLACE.COM,asdf1234
TCPPERFV70042736.499@CHILDRENSPLACE.COM,asdf1234
TCPPERFV70042739.331@CHILDRENSPLACE.COM,asdf1234
TCPPERFV70042742.170@CHILDRENSPLACE.COM,asdf1234
TCPPERFV70042744.920@CHILDRENSPLACE.COM,asdf1234
TCPPERFV70042747.894@CHILDRENSPLACE.COM,asdf1234
TCPPERFV70042750.666@CHILDRENSPLACE.COM,asdf1234
TCPPERFV70042753.438@CHILDRENSPLACE.COM,asdf1234
TCPPERFV70042756.349@CHILDRENSPLACE.COM,asdf1234
TCPPERFV70042759.250@CHILDRENSPLACE.COM,asdf1234
TCPPERFV70042802.128@CHILDRENSPLACE.COM,asdf1234
TCPPERFV70042805.350@CHILDRENSPLACE.COM,asdf1234
TCPPERFV70042808.112@CHILDRENSPLACE.COM,asdf1234
TCPPERFV70042810.782@CHILDRENSPLACE.COM,asdf1234
TCPPERFV70042813.873@CHILDRENSPLACE.COM,asdf1234
TCPPERFV70042816.798@CHILDRENSPLACE.COM,asdf1234
TCPPERFV70042819.552@CHILDRENSPLACE.COM,asdf1234
TCPPERFV70042822.500@CHILDRENSPLACE.COM,asdf1234
TCPPERFV70042825.286@CHILDRENSPLACE.COM,asdf1234
TCPPERFV70042828.606@CHILDRENSPLACE.COM,asdf1234
TCPPERFV70042831.874@CHILDRENSPLACE.COM,asdf1234
TCPPERFV70042834.743@CHILDRENSPLACE.COM,asdf1234
TCPPERFV70042837.520@CHILDRENSPLACE.COM,asdf1234
TCPPERFV70042840.378@CHILDRENSPLACE.COM,asdf1234
TCPPERFV70042843.338@CHILDRENSPLACE.COM,asdf1234
TCPPERFV70042846.231@CHILDRENSPLACE.COM,asdf1234
TCPPERFV70042848.975@CHILDRENSPLACE.COM,asdf1234
TCPPERFV70042851.844@CHILDRENSPLACE.COM,asdf1234
TCPPERFV70042855.619@CHILDRENSPLACE.COM,asdf1234
TCPPERFV70042858.470@CHILDRENSPLACE.COM,asdf1234
TCPPERFV70042901.338@CHILDRENSPLACE.COM,asdf1234
TCPPERFV70042904.271@CHILDRENSPLACE.COM,asdf1234
TCPPERFV70042907.007@CHILDRENSPLACE.COM,asdf1234
TCPPERFV70042909.808@CHILDRENSPLACE.COM,asdf1234
TCPPERFV70042912.527@CHILDRENSPLACE.COM,asdf1234
TCPPERFV70042915.488@CHILDRENSPLACE.COM,asdf1234
TCPPERFV70042918.440@CHILDRENSPLACE.COM,asdf1234
TCPPERFV70042921.188@CHILDRENSPLACE.COM,asdf1234
TCPPERFV70042923.920@CHILDRENSPLACE.COM,asdf1234
TCPPERFV70042926.673@CHILDRENSPLACE.COM,asdf1234
TCPPERFV70042929.566@CHILDRENSPLACE.COM,asdf1234
TCPPERFV70042932.299@CHILDRENSPLACE.COM,asdf1234
TCPPERFV70042935.114@CHILDRENSPLACE.COM,asdf1234
TCPPERFV70042937.916@CHILDRENSPLACE.COM,asdf1234
TCPPERFV70042940.937@CHILDRENSPLACE.COM,asdf1234
TCPPERFV70042943.832@CHILDRENSPLACE.COM,asdf1234
TCPPERFV70042946.588@CHILDRENSPLACE.COM,asdf1234
TCPPERFV70042949.280@CHILDRENSPLACE.COM,asdf1234
TCPPERFV70042952.038@CHILDRENSPLACE.COM,asdf1234
TCPPERFV70042954.849@CHILDRENSPLACE.COM,asdf1234
TCPPERFV70042957.842@CHILDRENSPLACE.COM,asdf1234
TCPPERFV70043000.589@CHILDRENSPLACE.COM,asdf1234
TCPPERFV70043003.706@CHILDRENSPLACE.COM,asdf1234
TCPPERFV70043008.126@CHILDRENSPLACE.COM,asdf1234
TCPPERFV70043011.083@CHILDRENSPLACE.COM,asdf1234
TCPPERFV70043013.966@CHILDRENSPLACE.COM,asdf1234
TCPPERFV70043016.743@CHILDRENSPLACE.COM,asdf1234
TCPPERFV70043019.703@CHILDRENSPLACE.COM,asdf1234
TCPPERFV70043022.537@CHILDRENSPLACE.COM,asdf1234
TCPPERFV70043025.305@CHILDRENSPLACE.COM,asdf1234
TCPPERFV70043028.058@CHILDRENSPLACE.COM,asdf1234
TCPPERFV70043030.806@CHILDRENSPLACE.COM,asdf1234
TCPPERFV70043033.573@CHILDRENSPLACE.COM,asdf1234
TCPPERFV70043036.357@CHILDRENSPLACE.COM,asdf1234
TCPPERFV70043039.073@CHILDRENSPLACE.COM,asdf1234
TCPPERFV70043041.983@CHILDRENSPLACE.COM,asdf1234
TCPPERFV70043044.896@CHILDRENSPLACE.COM,asdf1234
TCPPERFV70043047.780@CHILDRENSPLACE.COM,asdf1234
TCPPERFV70043050.577@CHILDRENSPLACE.COM,asdf1234
TCPPERFV70043053.536@CHILDRENSPLACE.COM,asdf1234
TCPPERFV70043056.555@CHILDRENSPLACE.COM,asdf1234
TCPPERFV70043059.563@CHILDRENSPLACE.COM,asdf1234
TCPPERFV70043102.536@CHILDRENSPLACE.COM,asdf1234
TCPPERFV70043105.365@CHILDRENSPLACE.COM,asdf1234
TCPPERFV70043108.214@CHILDRENSPLACE.COM,asdf1234
TCPPERFV70043111.088@CHILDRENSPLACE.COM,asdf1234
TCPPERFV70043113.945@CHILDRENSPLACE.COM,asdf1234
TCPPERFV70043116.767@CHILDRENSPLACE.COM,asdf1234
TCPPERFV70043119.582@CHILDRENSPLACE.COM,asdf1234
TCPPERFV70043122.819@CHILDRENSPLACE.COM,asdf1234
TCPPERFV70043125.743@CHILDRENSPLACE.COM,asdf1234
TCPPERFV70043130.386@CHILDRENSPLACE.COM,asdf1234
TCPPERFV70043133.142@CHILDRENSPLACE.COM,asdf1234
TCPPERFV70043135.949@CHILDRENSPLACE.COM,asdf1234
TCPPERFV70043138.768@CHILDRENSPLACE.COM,asdf1234
TCPPERFV70043141.603@CHILDRENSPLACE.COM,asdf1234
TCPPERFV70043144.391@CHILDRENSPLACE.COM,asdf1234
TCPPERFV70043147.297@CHILDRENSPLACE.COM,asdf1234
TCPPERFV70043150.159@CHILDRENSPLACE.COM,asdf1234
TCPPERFV70043153.011@CHILDRENSPLACE.COM,asdf1234
TCPPERFV70043156.027@CHILDRENSPLACE.COM,asdf1234
TCPPERFV70043158.721@CHILDRENSPLACE.COM,asdf1234
TCPPERFV70043201.809@CHILDRENSPLACE.COM,asdf1234
TCPPERFV70043204.736@CHILDRENSPLACE.COM,asdf1234
TCPPERFV70043207.756@CHILDRENSPLACE.COM,asdf1234
TCPPERFV70043210.630@CHILDRENSPLACE.COM,asdf1234
TCPPERFV70043213.399@CHILDRENSPLACE.COM,asdf1234
TCPPERFV70043216.341@CHILDRENSPLACE.COM,asdf1234
TCPPERFV70043219.483@CHILDRENSPLACE.COM,asdf1234
TCPPERFV70043222.391@CHILDRENSPLACE.COM,asdf1234
TCPPERFV70043225.365@CHILDRENSPLACE.COM,asdf1234
TCPPERFV70043228.217@CHILDRENSPLACE.COM,asdf1234
TCPPERFV70043231.004@CHILDRENSPLACE.COM,asdf1234
TCPPERFV70043233.861@CHILDRENSPLACE.COM,asdf1234
TCPPERFV70043236.817@CHILDRENSPLACE.COM,asdf1234
TCPPERFV70043239.753@CHILDRENSPLACE.COM,asdf1234
TCPPERFV70043242.660@CHILDRENSPLACE.COM,asdf1234
TCPPERFV70043245.510@CHILDRENSPLACE.COM,asdf1234
TCPPERFV70043248.337@CHILDRENSPLACE.COM,asdf1234
TCPPERFV70043251.067@CHILDRENSPLACE.COM,asdf1234
TCPPERFV70043253.976@CHILDRENSPLACE.COM,asdf1234
TCPPERFV70043257.131@CHILDRENSPLACE.COM,asdf1234
TCPPERFV70043259.998@CHILDRENSPLACE.COM,asdf1234
TCPPERFV70043302.814@CHILDRENSPLACE.COM,asdf1234
TCPPERFV70043305.588@CHILDRENSPLACE.COM,asdf1234
TCPPERFV70043308.374@CHILDRENSPLACE.COM,asdf1234
TCPPERFV70043311.104@CHILDRENSPLACE.COM,asdf1234
TCPPERFV70043313.983@CHILDRENSPLACE.COM,asdf1234
TCPPERFV70043317.001@CHILDRENSPLACE.COM,asdf1234
TCPPERFV70043319.893@CHILDRENSPLACE.COM,asdf1234
TCPPERFV70043322.852@CHILDRENSPLACE.COM,asdf1234
TCPPERFV70043325.692@CHILDRENSPLACE.COM,asdf1234
TCPPERFV70043328.557@CHILDRENSPLACE.COM,asdf1234
TCPPERFV70043331.428@CHILDRENSPLACE.COM,asdf1234
TCPPERFV70043334.164@CHILDRENSPLACE.COM,asdf1234
TCPPERFV70043337.026@CHILDRENSPLACE.COM,asdf1234
TCPPERFV70043339.909@CHILDRENSPLACE.COM,asdf1234
TCPPERFV70043342.628@CHILDRENSPLACE.COM,asdf1234
TCPPERFV70043345.569@CHILDRENSPLACE.COM,asdf1234
TCPPERFV70043348.336@CHILDRENSPLACE.COM,asdf1234
TCPPERFV70043351.246@CHILDRENSPLACE.COM,asdf1234
TCPPERFV70043354.098@CHILDRENSPLACE.COM,asdf1234
TCPPERFV70043356.785@CHILDRENSPLACE.COM,asdf1234
TCPPERFV70043359.703@CHILDRENSPLACE.COM,asdf1234
TCPPERFV70043402.401@CHILDRENSPLACE.COM,asdf1234
TCPPERFV70043405.298@CHILDRENSPLACE.COM,asdf1234
TCPPERFV70043408.296@CHILDRENSPLACE.COM,asdf1234
TCPPERFV70043411.133@CHILDRENSPLACE.COM,asdf1234
TCPPERFV70043414.044@CHILDRENSPLACE.COM,asdf1234
TCPPERFV70043416.957@CHILDRENSPLACE.COM,asdf1234
TCPPERFV70043419.784@CHILDRENSPLACE.COM,asdf1234
TCPPERFV70043422.692@CHILDRENSPLACE.COM,asdf1234
TCPPERFV70043425.520@CHILDRENSPLACE.COM,asdf1234
TCPPERFV70043428.346@CHILDRENSPLACE.COM,asdf1234
TCPPERFV70043431.094@CHILDRENSPLACE.COM,asdf1234
TCPPERFV70043433.844@CHILDRENSPLACE.COM,asdf1234
TCPPERFV70043436.672@CHILDRENSPLACE.COM,asdf1234
TCPPERFV70043439.291@CHILDRENSPLACE.COM,asdf1234
TCPPERFV70043442.038@CHILDRENSPLACE.COM,asdf1234
TCPPERFV70043444.865@CHILDRENSPLACE.COM,asdf1234
TCPPERFV70043447.525@CHILDRENSPLACE.COM,asdf1234
TCPPERFV70043450.231@CHILDRENSPLACE.COM,asdf1234
TCPPERFV70043452.891@CHILDRENSPLACE.COM,asdf1234
TCPPERFV70043455.503@CHILDRENSPLACE.COM,asdf1234
TCPPERFV70043458.115@CHILDRENSPLACE.COM,asdf1234
TCPPERFV70043500.659@CHILDRENSPLACE.COM,asdf1234
TCPPERFV70043503.366@CHILDRENSPLACE.COM,asdf1234
TCPPERFV70043505.932@CHILDRENSPLACE.COM,asdf1234
TCPPERFV70043508.544@CHILDRENSPLACE.COM,asdf1234
TCPPERFV70043511.154@CHILDRENSPLACE.COM,asdf1234
TCPPERFV70043514.143@CHILDRENSPLACE.COM,asdf1234
TCPPERFV70043516.802@CHILDRENSPLACE.COM,asdf1234
TCPPERFV70043519.540@CHILDRENSPLACE.COM,asdf1234
TCPPERFV70043522.284@CHILDRENSPLACE.COM,asdf1234
TCPPERFV70043524.955@CHILDRENSPLACE.COM,asdf1234
TCPPERFV70043527.673@CHILDRENSPLACE.COM,asdf1234
TCPPERFV70043530.399@CHILDRENSPLACE.COM,asdf1234
TCPPERFV70043533.563@CHILDRENSPLACE.COM,asdf1234
TCPPERFV70043538.648@CHILDRENSPLACE.COM,asdf1234
TCPPERFV70043541.662@CHILDRENSPLACE.COM,asdf1234
TCPPERFV70043544.409@CHILDRENSPLACE.COM,asdf1234
TCPPERFV70043547.009@CHILDRENSPLACE.COM,asdf1234
TCPPERFV70043549.765@CHILDRENSPLACE.COM,asdf1234
TCPPERFV70043552.990@CHILDRENSPLACE.COM,asdf1234
TCPPERFV70043555.590@CHILDRENSPLACE.COM,asdf1234
TCPPERFV70043558.343@CHILDRENSPLACE.COM,asdf1234
TCPPERFV70043601.127@CHILDRENSPLACE.COM,asdf1234
TCPPERFV70043603.835@CHILDRENSPLACE.COM,asdf1234
TCPPERFV70043606.550@CHILDRENSPLACE.COM,asdf1234
TCPPERFV70043609.195@CHILDRENSPLACE.COM,asdf1234
TCPPERFV70043611.789@CHILDRENSPLACE.COM,asdf1234
TCPPERFV70043614.468@CHILDRENSPLACE.COM,asdf1234
TCPPERFV70043617.263@CHILDRENSPLACE.COM,asdf1234
TCPPERFV70043619.876@CHILDRENSPLACE.COM,asdf1234
TCPPERFV70043622.535@CHILDRENSPLACE.COM,asdf1234
TCPPERFV70043625.225@CHILDRENSPLACE.COM,asdf1234
TCPPERFV70043627.918@CHILDRENSPLACE.COM,asdf1234
TCPPERFV70043637.364@CHILDRENSPLACE.COM,asdf1234
TCPPERFV70043639.988@CHILDRENSPLACE.COM,asdf1234
TCPPERFV70043642.712@CHILDRENSPLACE.COM,asdf1234
TCPPERFV70043645.527@CHILDRENSPLACE.COM,asdf1234
TCPPERFV70043648.101@CHILDRENSPLACE.COM,asdf1234
TCPPERFV70043650.535@CHILDRENSPLACE.COM,asdf1234
TCPPERFV70043653.138@CHILDRENSPLACE.COM,asdf1234
TCPPERFV70043655.913@CHILDRENSPLACE.COM,asdf1234
TCPPERFV70043658.554@CHILDRENSPLACE.COM,asdf1234
TCPPERFV70043701.348@CHILDRENSPLACE.COM,asdf1234
TCPPERFV70043703.959@CHILDRENSPLACE.COM,asdf1234
TCPPERFV70043706.509@CHILDRENSPLACE.COM,asdf1234
TCPPERFV70043709.285@CHILDRENSPLACE.COM,asdf1234
TCPPERFV70043711.987@CHILDRENSPLACE.COM,asdf1234
TCPPERFV70043714.883@CHILDRENSPLACE.COM,asdf1234
TCPPERFV70043717.516@CHILDRENSPLACE.COM,asdf1234
TCPPERFV70043720.004@CHILDRENSPLACE.COM,asdf1234
TCPPERFV70043722.574@CHILDRENSPLACE.COM,asdf1234
TCPPERFV70043725.474@CHILDRENSPLACE.COM,asdf1234
TCPPERFV70043728.016@CHILDRENSPLACE.COM,asdf1234
TCPPERFV70043730.650@CHILDRENSPLACE.COM,asdf1234
TCPPERFV70043733.869@CHILDRENSPLACE.COM,asdf1234
TCPPERFV70043736.528@CHILDRENSPLACE.COM,asdf1234
TCPPERFV70043739.028@CHILDRENSPLACE.COM,asdf1234
TCPPERFV70043741.604@CHILDRENSPLACE.COM,asdf1234
TCPPERFV70043744.366@CHILDRENSPLACE.COM,asdf1234
TCPPERFV70043747.172@CHILDRENSPLACE.COM,asdf1234
TCPPERFV70043749.795@CHILDRENSPLACE.COM,asdf1234
TCPPERFV70043752.476@CHILDRENSPLACE.COM,asdf1234
TCPPERFV70043755.042@CHILDRENSPLACE.COM,asdf1234
TCPPERFV70043757.662@CHILDRENSPLACE.COM,asdf1234
TCPPERFV70043800.138@CHILDRENSPLACE.COM,asdf1234
TCPPERFV70043802.837@CHILDRENSPLACE.COM,asdf1234
TCPPERFV70043805.440@CHILDRENSPLACE.COM,asdf1234
TCPPERFV70043807.986@CHILDRENSPLACE.COM,asdf1234
TCPPERFV70043810.555@CHILDRENSPLACE.COM,asdf1234
TCPPERFV70043813.111@CHILDRENSPLACE.COM,asdf1234
TCPPERFV70043816.156@CHILDRENSPLACE.COM,asdf1234
TCPPERFV70043818.872@CHILDRENSPLACE.COM,asdf1234
TCPPERFV70043821.349@CHILDRENSPLACE.COM,asdf1234
TCPPERFV70043823.875@CHILDRENSPLACE.COM,asdf1234
TCPPERFV70043826.487@CHILDRENSPLACE.COM,asdf1234
TCPPERFV70043829.244@CHILDRENSPLACE.COM,asdf1234
TCPPERFV70043831.824@CHILDRENSPLACE.COM,asdf1234
TCPPERFV70043834.396@CHILDRENSPLACE.COM,asdf1234
TCPPERFV70043837.062@CHILDRENSPLACE.COM,asdf1234
TCPPERFV70043839.572@CHILDRENSPLACE.COM,asdf1234
TCPPERFV70043842.174@CHILDRENSPLACE.COM,asdf1234
TCPPERFV70043844.885@CHILDRENSPLACE.COM,asdf1234
TCPPERFV70043847.665@CHILDRENSPLACE.COM,asdf1234
TCPPERFV70043850.188@CHILDRENSPLACE.COM,asdf1234
TCPPERFV70043852.888@CHILDRENSPLACE.COM,asdf1234
TCPPERFV70043855.430@CHILDRENSPLACE.COM,asdf1234
TCPPERFV70043858.071@CHILDRENSPLACE.COM,asdf1234
TCPPERFV70043900.562@CHILDRENSPLACE.COM,asdf1234
TCPPERFV70043903.172@CHILDRENSPLACE.COM,asdf1234
TCPPERFV70043905.761@CHILDRENSPLACE.COM,asdf1234
TCPPERFV70043909.859@CHILDRENSPLACE.COM,asdf1234
TCPPERFV70043912.371@CHILDRENSPLACE.COM,asdf1234
TCPPERFV70043915.171@CHILDRENSPLACE.COM,asdf1234
TCPPERFV70043917.875@CHILDRENSPLACE.COM,asdf1234
TCPPERFV70043920.708@CHILDRENSPLACE.COM,asdf1234
TCPPERFV70043923.279@CHILDRENSPLACE.COM,asdf1234
TCPPERFV70043925.865@CHILDRENSPLACE.COM,asdf1234
TCPPERFV70043928.302@CHILDRENSPLACE.COM,asdf1234
TCPPERFV70043931.352@CHILDRENSPLACE.COM,asdf1234
TCPPERFV70043933.939@CHILDRENSPLACE.COM,asdf1234
TCPPERFV70043936.475@CHILDRENSPLACE.COM,asdf1234
TCPPERFV70043939.133@CHILDRENSPLACE.COM,asdf1234
TCPPERFV70043941.629@CHILDRENSPLACE.COM,asdf1234
TCPPERFV70043944.291@CHILDRENSPLACE.COM,asdf1234
TCPPERFV70043946.929@CHILDRENSPLACE.COM,asdf1234
TCPPERFV70043949.459@CHILDRENSPLACE.COM,asdf1234
TCPPERFV70043952.083@CHILDRENSPLACE.COM,asdf1234
TCPPERFV70043954.818@CHILDRENSPLACE.COM,asdf1234
TCPPERFV70043957.461@CHILDRENSPLACE.COM,asdf1234
TCPPERFV70044000.080@CHILDRENSPLACE.COM,asdf1234
TCPPERFV70044002.831@CHILDRENSPLACE.COM,asdf1234
TCPPERFV70044005.502@CHILDRENSPLACE.COM,asdf1234
TCPPERFV70044008.134@CHILDRENSPLACE.COM,asdf1234
TCPPERFV70044010.690@CHILDRENSPLACE.COM,asdf1234
TCPPERFV70044013.179@CHILDRENSPLACE.COM,asdf1234
TCPPERFV70044015.876@CHILDRENSPLACE.COM,asdf1234
TCPPERFV70044019.092@CHILDRENSPLACE.COM,asdf1234
TCPPERFV70044021.787@CHILDRENSPLACE.COM,asdf1234
TCPPERFV70044024.352@CHILDRENSPLACE.COM,asdf1234
TCPPERFV70044026.957@CHILDRENSPLACE.COM,asdf1234
TCPPERFV70044029.602@CHILDRENSPLACE.COM,asdf1234
TCPPERFV70044032.215@CHILDRENSPLACE.COM,asdf1234
TCPPERFV70044035.140@CHILDRENSPLACE.COM,asdf1234
TCPPERFV70044037.740@CHILDRENSPLACE.COM,asdf1234
TCPPERFV70044041.385@CHILDRENSPLACE.COM,asdf1234
TCPPERFV70044044.224@CHILDRENSPLACE.COM,asdf1234
TCPPERFV70044046.920@CHILDRENSPLACE.COM,asdf1234
TCPPERFV70044049.728@CHILDRENSPLACE.COM,asdf1234
TCPPERFV70044052.639@CHILDRENSPLACE.COM,asdf1234
TCPPERFV70044055.337@CHILDRENSPLACE.COM,asdf1234
TCPPERFV70044058.128@CHILDRENSPLACE.COM,asdf1234
TCPPERFV70044100.859@CHILDRENSPLACE.COM,asdf1234
TCPPERFV70044103.653@CHILDRENSPLACE.COM,asdf1234
TCPPERFV70044106.450@CHILDRENSPLACE.COM,asdf1234
TCPPERFV70044109.057@CHILDRENSPLACE.COM,asdf1234
TCPPERFV70044111.665@CHILDRENSPLACE.COM,asdf1234
TCPPERFV70044114.290@CHILDRENSPLACE.COM,asdf1234
TCPPERFV70044116.881@CHILDRENSPLACE.COM,asdf1234
TCPPERFV70044119.490@CHILDRENSPLACE.COM,asdf1234
TCPPERFV70044122.116@CHILDRENSPLACE.COM,asdf1234
TCPPERFV70044124.879@CHILDRENSPLACE.COM,asdf1234
TCPPERFV70044127.414@CHILDRENSPLACE.COM,asdf1234
TCPPERFV70044130.443@CHILDRENSPLACE.COM,asdf1234
TCPPERFV70044133.046@CHILDRENSPLACE.COM,asdf1234
TCPPERFV70044135.792@CHILDRENSPLACE.COM,asdf1234
TCPPERFV70044138.374@CHILDRENSPLACE.COM,asdf1234
TCPPERFV70044140.901@CHILDRENSPLACE.COM,asdf1234
TCPPERFV70044143.550@CHILDRENSPLACE.COM,asdf1234
TCPPERFV70044146.184@CHILDRENSPLACE.COM,asdf1234
TCPPERFV70044148.727@CHILDRENSPLACE.COM,asdf1234
TCPPERFV70044151.696@CHILDRENSPLACE.COM,asdf1234
TCPPERFV70044154.306@CHILDRENSPLACE.COM,asdf1234
TCPPERFV70044156.835@CHILDRENSPLACE.COM,asdf1234
TCPPERFV70044159.473@CHILDRENSPLACE.COM,asdf1234
TCPPERFV70044202.116@CHILDRENSPLACE.COM,asdf1234
TCPPERFV70044204.893@CHILDRENSPLACE.COM,asdf1234
TCPPERFV70044207.432@CHILDRENSPLACE.COM,asdf1234
TCPPERFV70044210.119@CHILDRENSPLACE.COM,asdf1234
TCPPERFV70044212.807@CHILDRENSPLACE.COM,asdf1234
TCPPERFV70044216.048@CHILDRENSPLACE.COM,asdf1234
TCPPERFV70044218.723@CHILDRENSPLACE.COM,asdf1234
TCPPERFV70044221.241@CHILDRENSPLACE.COM,asdf1234
TCPPERFV70044224.060@CHILDRENSPLACE.COM,asdf1234
TCPPERFV70044226.620@CHILDRENSPLACE.COM,asdf1234
TCPPERFV70044229.360@CHILDRENSPLACE.COM,asdf1234
TCPPERFV70044232.230@CHILDRENSPLACE.COM,asdf1234
TCPPERFV70044235.296@CHILDRENSPLACE.COM,asdf1234
TCPPERFV70044237.806@CHILDRENSPLACE.COM,asdf1234
TCPPERFV70044240.343@CHILDRENSPLACE.COM,asdf1234
TCPPERFV70044242.822@CHILDRENSPLACE.COM,asdf1234
TCPPERFV70044245.479@CHILDRENSPLACE.COM,asdf1234
TCPPERFV70044248.270@CHILDRENSPLACE.COM,asdf1234
TCPPERFV70044251.496@CHILDRENSPLACE.COM,asdf1234
TCPPERFV70044254.087@CHILDRENSPLACE.COM,asdf1234
TCPPERFV70044256.608@CHILDRENSPLACE.COM,asdf1234
TCPPERFV70044259.238@CHILDRENSPLACE.COM,asdf1234
TCPPERFV70044301.910@CHILDRENSPLACE.COM,asdf1234
TCPPERFV70044304.463@CHILDRENSPLACE.COM,asdf1234
TCPPERFV70044307.010@CHILDRENSPLACE.COM,asdf1234
TCPPERFV70044309.564@CHILDRENSPLACE.COM,asdf1234
TCPPERFV70044312.156@CHILDRENSPLACE.COM,asdf1234
TCPPERFV70044314.854@CHILDRENSPLACE.COM,asdf1234
TCPPERFV70044317.409@CHILDRENSPLACE.COM,asdf1234
TCPPERFV70044319.941@CHILDRENSPLACE.COM,asdf1234
TCPPERFV70044322.501@CHILDRENSPLACE.COM,asdf1234
TCPPERFV70044324.944@CHILDRENSPLACE.COM,asdf1234
TCPPERFV70044327.487@CHILDRENSPLACE.COM,asdf1234
TCPPERFV70044329.967@CHILDRENSPLACE.COM,asdf1234
TCPPERFV70044332.634@CHILDRENSPLACE.COM,asdf1234
TCPPERFV70044335.280@CHILDRENSPLACE.COM,asdf1234
TCPPERFV70044337.920@CHILDRENSPLACE.COM,asdf1234
TCPPERFV70044340.441@CHILDRENSPLACE.COM,asdf1234
TCPPERFV70044342.895@CHILDRENSPLACE.COM,asdf1234
TCPPERFV70044345.506@CHILDRENSPLACE.COM,asdf1234
TCPPERFV70044348.046@CHILDRENSPLACE.COM,asdf1234
TCPPERFV70044350.525@CHILDRENSPLACE.COM,asdf1234
TCPPERFV70044353.051@CHILDRENSPLACE.COM,asdf1234
TCPPERFV70044355.585@CHILDRENSPLACE.COM,asdf1234
TCPPERFV70044358.117@CHILDRENSPLACE.COM,asdf1234
TCPPERFV70044400.619@CHILDRENSPLACE.COM,asdf1234
TCPPERFV70044403.109@CHILDRENSPLACE.COM,asdf1234
TCPPERFV70044405.571@CHILDRENSPLACE.COM,asdf1234
TCPPERFV70044408.069@CHILDRENSPLACE.COM,asdf1234
TCPPERFV70044411.064@CHILDRENSPLACE.COM,asdf1234
TCPPERFV70044413.727@CHILDRENSPLACE.COM,asdf1234
TCPPERFV70044416.178@CHILDRENSPLACE.COM,asdf1234
TCPPERFV70044418.686@CHILDRENSPLACE.COM,asdf1234
TCPPERFV70044421.262@CHILDRENSPLACE.COM,asdf1234
TCPPERFV70044423.885@CHILDRENSPLACE.COM,asdf1234
TCPPERFV70044426.495@CHILDRENSPLACE.COM,asdf1234
TCPPERFV70044429.000@CHILDRENSPLACE.COM,asdf1234
TCPPERFV70044432.084@CHILDRENSPLACE.COM,asdf1234
TCPPERFV70044434.840@CHILDRENSPLACE.COM,asdf1234
TCPPERFV70044437.351@CHILDRENSPLACE.COM,asdf1234
TCPPERFV70044439.945@CHILDRENSPLACE.COM,asdf1234
TCPPERFV70044443.202@CHILDRENSPLACE.COM,asdf1234
TCPPERFV70044445.715@CHILDRENSPLACE.COM,asdf1234
TCPPERFV70044448.259@CHILDRENSPLACE.COM,asdf1234
TCPPERFV70044451.030@CHILDRENSPLACE.COM,asdf1234
TCPPERFV70044453.715@CHILDRENSPLACE.COM,asdf1234
TCPPERFV70044456.252@CHILDRENSPLACE.COM,asdf1234
TCPPERFV70044458.764@CHILDRENSPLACE.COM,asdf1234
TCPPERFV70044501.279@CHILDRENSPLACE.COM,asdf1234
TCPPERFV70044504.011@CHILDRENSPLACE.COM,asdf1234
TCPPERFV70044506.615@CHILDRENSPLACE.COM,asdf1234
TCPPERFV70044509.191@CHILDRENSPLACE.COM,asdf1234
TCPPERFV70044511.791@CHILDRENSPLACE.COM,asdf1234
TCPPERFV70044514.424@CHILDRENSPLACE.COM,asdf1234
TCPPERFV70044517.073@CHILDRENSPLACE.COM,asdf1234
TCPPERFV70044520.292@CHILDRENSPLACE.COM,asdf1234
TCPPERFV70044523.131@CHILDRENSPLACE.COM,asdf1234
TCPPERFV70044525.835@CHILDRENSPLACE.COM,asdf1234
TCPPERFV70044528.420@CHILDRENSPLACE.COM,asdf1234
TCPPERFV70044531.150@CHILDRENSPLACE.COM,asdf1234
TCPPERFV70044533.813@CHILDRENSPLACE.COM,asdf1234
TCPPERFV70044537.015@CHILDRENSPLACE.COM,asdf1234
TCPPERFV70044539.682@CHILDRENSPLACE.COM,asdf1234
TCPPERFV70044542.285@CHILDRENSPLACE.COM,asdf1234
TCPPERFV70044544.753@CHILDRENSPLACE.COM,asdf1234
TCPPERFV70044547.315@CHILDRENSPLACE.COM,asdf1234
TCPPERFV70044549.938@CHILDRENSPLACE.COM,asdf1234
TCPPERFV70044552.777@CHILDRENSPLACE.COM,asdf1234
TCPPERFV70044555.440@CHILDRENSPLACE.COM,asdf1234
TCPPERFV70044558.102@CHILDRENSPLACE.COM,asdf1234
TCPPERFV70044600.665@CHILDRENSPLACE.COM,asdf1234
TCPPERFV70044604.022@CHILDRENSPLACE.COM,asdf1234
TCPPERFV70044606.796@CHILDRENSPLACE.COM,asdf1234
TCPPERFV70044609.496@CHILDRENSPLACE.COM,asdf1234
TCPPERFV70044612.121@CHILDRENSPLACE.COM,asdf1234
TCPPERFV70044617.425@CHILDRENSPLACE.COM,asdf1234
TCPPERFV70044620.015@CHILDRENSPLACE.COM,asdf1234
TCPPERFV70044622.712@CHILDRENSPLACE.COM,asdf1234
TCPPERFV70044625.335@CHILDRENSPLACE.COM,asdf1234
TCPPERFV70044628.199@CHILDRENSPLACE.COM,asdf1234
TCPPERFV70044631.218@CHILDRENSPLACE.COM,asdf1234
TCPPERFV70044633.891@CHILDRENSPLACE.COM,asdf1234
TCPPERFV70044636.529@CHILDRENSPLACE.COM,asdf1234
TCPPERFV70044639.179@CHILDRENSPLACE.COM,asdf1234
TCPPERFV70044641.792@CHILDRENSPLACE.COM,asdf1234
TCPPERFV70044644.445@CHILDRENSPLACE.COM,asdf1234
TCPPERFV70044647.063@CHILDRENSPLACE.COM,asdf1234
TCPPERFV70044649.688@CHILDRENSPLACE.COM,asdf1234
TCPPERFV70044652.361@CHILDRENSPLACE.COM,asdf1234
TCPPERFV70044654.943@CHILDRENSPLACE.COM,asdf1234
TCPPERFV70044657.654@CHILDRENSPLACE.COM,asdf1234
TCPPERFV70044700.278@CHILDRENSPLACE.COM,asdf1234
TCPPERFV70044702.825@CHILDRENSPLACE.COM,asdf1234
TCPPERFV70044705.380@CHILDRENSPLACE.COM,asdf1234
TCPPERFV70044707.922@CHILDRENSPLACE.COM,asdf1234
TCPPERFV70044710.482@CHILDRENSPLACE.COM,asdf1234
TCPPERFV70044713.052@CHILDRENSPLACE.COM,asdf1234
TCPPERFV70044715.700@CHILDRENSPLACE.COM,asdf1234
TCPPERFV70044718.217@CHILDRENSPLACE.COM,asdf1234
TCPPERFV70044720.773@CHILDRENSPLACE.COM,asdf1234
TCPPERFV70044723.262@CHILDRENSPLACE.COM,asdf1234
TCPPERFV70044725.846@CHILDRENSPLACE.COM,asdf1234
TCPPERFV70044728.435@CHILDRENSPLACE.COM,asdf1234
TCPPERFV70044731.107@CHILDRENSPLACE.COM,asdf1234
TCPPERFV70044733.756@CHILDRENSPLACE.COM,asdf1234
TCPPERFV70044736.573@CHILDRENSPLACE.COM,asdf1234
TCPPERFV70044739.234@CHILDRENSPLACE.COM,asdf1234
TCPPERFV70044741.859@CHILDRENSPLACE.COM,asdf1234
TCPPERFV70044744.639@CHILDRENSPLACE.COM,asdf1234
TCPPERFV70044747.212@CHILDRENSPLACE.COM,asdf1234
TCPPERFV70044749.756@CHILDRENSPLACE.COM,asdf1234
TCPPERFV70044752.640@CHILDRENSPLACE.COM,asdf1234
TCPPERFV70044755.274@CHILDRENSPLACE.COM,asdf1234
TCPPERFV70044757.890@CHILDRENSPLACE.COM,asdf1234
TCPPERFV70044800.701@CHILDRENSPLACE.COM,asdf1234
TCPPERFV70044803.395@CHILDRENSPLACE.COM,asdf1234
TCPPERFV70044806.090@CHILDRENSPLACE.COM,asdf1234
TCPPERFV70044808.687@CHILDRENSPLACE.COM,asdf1234
TCPPERFV70044811.306@CHILDRENSPLACE.COM,asdf1234
TCPPERFV70044813.784@CHILDRENSPLACE.COM,asdf1234
TCPPERFV70044816.327@CHILDRENSPLACE.COM,asdf1234
TCPPERFV70044819.124@CHILDRENSPLACE.COM,asdf1234
TCPPERFV70044821.891@CHILDRENSPLACE.COM,asdf1234
TCPPERFV70044824.465@CHILDRENSPLACE.COM,asdf1234
TCPPERFV70044827.009@CHILDRENSPLACE.COM,asdf1234
TCPPERFV70044829.534@CHILDRENSPLACE.COM,asdf1234
TCPPERFV70044832.138@CHILDRENSPLACE.COM,asdf1234
TCPPERFV70044834.743@CHILDRENSPLACE.COM,asdf1234
TCPPERFV70044837.418@CHILDRENSPLACE.COM,asdf1234
TCPPERFV70044839.955@CHILDRENSPLACE.COM,asdf1234
TCPPERFV70044842.607@CHILDRENSPLACE.COM,asdf1234
TCPPERFV70044845.192@CHILDRENSPLACE.COM,asdf1234
TCPPERFV70044847.679@CHILDRENSPLACE.COM,asdf1234
TCPPERFV70044850.285@CHILDRENSPLACE.COM,asdf1234
TCPPERFV70044854.121@CHILDRENSPLACE.COM,asdf1234
TCPPERFV70044856.680@CHILDRENSPLACE.COM,asdf1234
TCPPERFV70044859.211@CHILDRENSPLACE.COM,asdf1234
TCPPERFV70044901.744@CHILDRENSPLACE.COM,asdf1234
TCPPERFV70044904.304@CHILDRENSPLACE.COM,asdf1234
TCPPERFV70044906.823@CHILDRENSPLACE.COM,asdf1234
TCPPERFV70044909.433@CHILDRENSPLACE.COM,asdf1234
TCPPERFV70044912.301@CHILDRENSPLACE.COM,asdf1234
TCPPERFV70044914.955@CHILDRENSPLACE.COM,asdf1234
TCPPERFV70044917.541@CHILDRENSPLACE.COM,asdf1234
TCPPERFV70044920.380@CHILDRENSPLACE.COM,asdf1234
TCPPERFV70044922.993@CHILDRENSPLACE.COM,asdf1234
TCPPERFV70044925.620@CHILDRENSPLACE.COM,asdf1234
TCPPERFV70044928.215@CHILDRENSPLACE.COM,asdf1234
TCPPERFV70044930.880@CHILDRENSPLACE.COM,asdf1234
TCPPERFV70044933.470@CHILDRENSPLACE.COM,asdf1234
TCPPERFV70044936.266@CHILDRENSPLACE.COM,asdf1234
TCPPERFV70044938.898@CHILDRENSPLACE.COM,asdf1234
TCPPERFV70044941.455@CHILDRENSPLACE.COM,asdf1234
TCPPERFV70044943.985@CHILDRENSPLACE.COM,asdf1234
TCPPERFV70044946.595@CHILDRENSPLACE.COM,asdf1234
TCPPERFV70044949.079@CHILDRENSPLACE.COM,asdf1234
TCPPERFV70044951.523@CHILDRENSPLACE.COM,asdf1234
TCPPERFV70044953.967@CHILDRENSPLACE.COM,asdf1234
TCPPERFV70044956.435@CHILDRENSPLACE.COM,asdf1234
TCPPERFV70044958.950@CHILDRENSPLACE.COM,asdf1234
TCPPERFV70045001.344@CHILDRENSPLACE.COM,asdf1234
TCPPERFV70045003.846@CHILDRENSPLACE.COM,asdf1234
TCPPERFV70045006.405@CHILDRENSPLACE.COM,asdf1234
TCPPERFV70045008.903@CHILDRENSPLACE.COM,asdf1234
TCPPERFV70045011.497@CHILDRENSPLACE.COM,asdf1234
TCPPERFV70045014.059@CHILDRENSPLACE.COM,asdf1234
TCPPERFV70045016.686@CHILDRENSPLACE.COM,asdf1234
TCPPERFV70045019.287@CHILDRENSPLACE.COM,asdf1234
TCPPERFV70045021.822@CHILDRENSPLACE.COM,asdf1234
TCPPERFV70045024.392@CHILDRENSPLACE.COM,asdf1234
TCPPERFV70045026.888@CHILDRENSPLACE.COM,asdf1234
TCPPERFV70045029.391@CHILDRENSPLACE.COM,asdf1234
TCPPERFV70045031.992@CHILDRENSPLACE.COM,asdf1234
TCPPERFV70045034.638@CHILDRENSPLACE.COM,asdf1234
TCPPERFV70045037.160@CHILDRENSPLACE.COM,asdf1234
TCPPERFV70045039.743@CHILDRENSPLACE.COM,asdf1234
TCPPERFV70045042.397@CHILDRENSPLACE.COM,asdf1234
TCPPERFV70045044.975@CHILDRENSPLACE.COM,asdf1234
TCPPERFV70045047.572@CHILDRENSPLACE.COM,asdf1234
TCPPERFV70045050.208@CHILDRENSPLACE.COM,asdf1234
TCPPERFV70045053.027@CHILDRENSPLACE.COM,asdf1234
TCPPERFV70045055.682@CHILDRENSPLACE.COM,asdf1234
TCPPERFV70045058.162@CHILDRENSPLACE.COM,asdf1234
TCPPERFV70045100.690@CHILDRENSPLACE.COM,asdf1234
TCPPERFV70045103.188@CHILDRENSPLACE.COM,asdf1234
TCPPERFV70045105.788@CHILDRENSPLACE.COM,asdf1234
TCPPERFV70045108.553@CHILDRENSPLACE.COM,asdf1234
TCPPERFV70045111.182@CHILDRENSPLACE.COM,asdf1234
TCPPERFV70045113.780@CHILDRENSPLACE.COM,asdf1234
TCPPERFV70045116.290@CHILDRENSPLACE.COM,asdf1234
TCPPERFV70045118.877@CHILDRENSPLACE.COM,asdf1234
TCPPERFV70045121.437@CHILDRENSPLACE.COM,asdf1234
TCPPERFV70045123.946@CHILDRENSPLACE.COM,asdf1234
TCPPERFV70045126.484@CHILDRENSPLACE.COM,asdf1234
TCPPERFV70045129.007@CHILDRENSPLACE.COM,asdf1234
TCPPERFV70045131.882@CHILDRENSPLACE.COM,asdf1234
TCPPERFV70045134.455@CHILDRENSPLACE.COM,asdf1234
TCPPERFV70045136.995@CHILDRENSPLACE.COM,asdf1234
TCPPERFV70045139.667@CHILDRENSPLACE.COM,asdf1234
TCPPERFV70045142.304@CHILDRENSPLACE.COM,asdf1234
TCPPERFV70045144.856@CHILDRENSPLACE.COM,asdf1234
TCPPERFV70045148.001@CHILDRENSPLACE.COM,asdf1234
TCPPERFV70045150.623@CHILDRENSPLACE.COM,asdf1234
TCPPERFV70045153.227@CHILDRENSPLACE.COM,asdf1234
TCPPERFV70045155.844@CHILDRENSPLACE.COM,asdf1234
TCPPERFV70045159.290@CHILDRENSPLACE.COM,asdf1234
TCPPERFV70045201.843@CHILDRENSPLACE.COM,asdf1234
TCPPERFV70045204.412@CHILDRENSPLACE.COM,asdf1234
TCPPERFV70045207.179@CHILDRENSPLACE.COM,asdf1234
TCPPERFV70045210.336@CHILDRENSPLACE.COM,asdf1234
TCPPERFV70045212.876@CHILDRENSPLACE.COM,asdf1234
TCPPERFV70045215.445@CHILDRENSPLACE.COM,asdf1234
TCPPERFV70045218.038@CHILDRENSPLACE.COM,asdf1234
TCPPERFV70045220.717@CHILDRENSPLACE.COM,asdf1234
TCPPERFV70045223.382@CHILDRENSPLACE.COM,asdf1234
TCPPERFV70045226.212@CHILDRENSPLACE.COM,asdf1234
TCPPERFV70045229.437@CHILDRENSPLACE.COM,asdf1234
TCPPERFV70045232.388@CHILDRENSPLACE.COM,asdf1234
TCPPERFV70045235.046@CHILDRENSPLACE.COM,asdf1234
TCPPERFV70045237.504@CHILDRENSPLACE.COM,asdf1234
TCPPERFV70045239.971@CHILDRENSPLACE.COM,asdf1234
TCPPERFV70045242.513@CHILDRENSPLACE.COM,asdf1234
TCPPERFV70045245.027@CHILDRENSPLACE.COM,asdf1234
TCPPERFV70045247.596@CHILDRENSPLACE.COM,asdf1234
TCPPERFV70045250.151@CHILDRENSPLACE.COM,asdf1234
TCPPERFV70045252.736@CHILDRENSPLACE.COM,asdf1234
TCPPERFV70045255.344@CHILDRENSPLACE.COM,asdf1234
TCPPERFV70045257.949@CHILDRENSPLACE.COM,asdf1234
TCPPERFV70045300.535@CHILDRENSPLACE.COM,asdf1234
TCPPERFV70045303.074@CHILDRENSPLACE.COM,asdf1234
TCPPERFV70045305.546@CHILDRENSPLACE.COM,asdf1234
TCPPERFV70045308.037@CHILDRENSPLACE.COM,asdf1234
TCPPERFV70045311.009@CHILDRENSPLACE.COM,asdf1234
TCPPERFV70045313.503@CHILDRENSPLACE.COM,asdf1234
TCPPERFV70045316.072@CHILDRENSPLACE.COM,asdf1234
TCPPERFV70045318.639@CHILDRENSPLACE.COM,asdf1234
TCPPERFV70045321.802@CHILDRENSPLACE.COM,asdf1234
TCPPERFV70045324.468@CHILDRENSPLACE.COM,asdf1234
TCPPERFV70045327.016@CHILDRENSPLACE.COM,asdf1234
TCPPERFV70045329.666@CHILDRENSPLACE.COM,asdf1234
TCPPERFV70045332.879@CHILDRENSPLACE.COM,asdf1234
TCPPERFV70045335.336@CHILDRENSPLACE.COM,asdf1234
TCPPERFV70045337.928@CHILDRENSPLACE.COM,asdf1234
TCPPERFV70045340.409@CHILDRENSPLACE.COM,asdf1234
TCPPERFV70045342.911@CHILDRENSPLACE.COM,asdf1234
TCPPERFV70045346.007@CHILDRENSPLACE.COM,asdf1234
TCPPERFV70045348.530@CHILDRENSPLACE.COM,asdf1234
TCPPERFV70045351.249@CHILDRENSPLACE.COM,asdf1234
TCPPERFV70045354.237@CHILDRENSPLACE.COM,asdf1234
TCPPERFV70045356.813@CHILDRENSPLACE.COM,asdf1234
TCPPERFV70045359.412@CHILDRENSPLACE.COM,asdf1234
TCPPERFV70045401.933@CHILDRENSPLACE.COM,asdf1234
TCPPERFV70045404.434@CHILDRENSPLACE.COM,asdf1234
TCPPERFV70045407.028@CHILDRENSPLACE.COM,asdf1234
TCPPERFV70045410.208@CHILDRENSPLACE.COM,asdf1234
TCPPERFV70045413.526@CHILDRENSPLACE.COM,asdf1234
TCPPERFV70045416.084@CHILDRENSPLACE.COM,asdf1234
TCPPERFV70045418.713@CHILDRENSPLACE.COM,asdf1234
TCPPERFV70045421.315@CHILDRENSPLACE.COM,asdf1234
TCPPERFV70045423.819@CHILDRENSPLACE.COM,asdf1234
TCPPERFV70045426.289@CHILDRENSPLACE.COM,asdf1234
TCPPERFV70045429.024@CHILDRENSPLACE.COM,asdf1234
TCPPERFV70045432.269@CHILDRENSPLACE.COM,asdf1234
TCPPERFV70045435.350@CHILDRENSPLACE.COM,asdf1234
TCPPERFV70045437.969@CHILDRENSPLACE.COM,asdf1234
TCPPERFV70045440.645@CHILDRENSPLACE.COM,asdf1234
TCPPERFV70045443.240@CHILDRENSPLACE.COM,asdf1234
TCPPERFV70045445.763@CHILDRENSPLACE.COM,asdf1234
TCPPERFV70045448.398@CHILDRENSPLACE.COM,asdf1234
TCPPERFV70045450.877@CHILDRENSPLACE.COM,asdf1234
TCPPERFV70045453.322@CHILDRENSPLACE.COM,asdf1234
TCPPERFV70045455.876@CHILDRENSPLACE.COM,asdf1234
TCPPERFV70045458.897@CHILDRENSPLACE.COM,asdf1234
TCPPERFV70045501.732@CHILDRENSPLACE.COM,asdf1234
TCPPERFV70045504.230@CHILDRENSPLACE.COM,asdf1234
TCPPERFV70045506.690@CHILDRENSPLACE.COM,asdf1234
TCPPERFV70045509.302@CHILDRENSPLACE.COM,asdf1234
TCPPERFV70010347.277@CHILDRENSPLACE.COM,asdf1234
TCPPERFV70010349.951@CHILDRENSPLACE.COM,asdf1234
TCPPERFV70010352.592@CHILDRENSPLACE.COM,asdf1234
TCPPERFV70010355.278@CHILDRENSPLACE.COM,asdf1234
TCPPERFV70010358.011@CHILDRENSPLACE.COM,asdf1234
TCPPERFV70010400.601@CHILDRENSPLACE.COM,asdf1234
TCPPERFV70010403.314@CHILDRENSPLACE.COM,asdf1234
TCPPERFV70010406.118@CHILDRENSPLACE.COM,asdf1234
TCPPERFV70010409.081@CHILDRENSPLACE.COM,asdf1234
TCPPERFV70010411.780@CHILDRENSPLACE.COM,asdf1234
TCPPERFV70010414.564@CHILDRENSPLACE.COM,asdf1234
TCPPERFV70010417.162@CHILDRENSPLACE.COM,asdf1234
TCPPERFV70010419.896@CHILDRENSPLACE.COM,asdf1234
TCPPERFV70010422.618@CHILDRENSPLACE.COM,asdf1234
TCPPERFV70010425.298@CHILDRENSPLACE.COM,asdf1234
TCPPERFV70010427.998@CHILDRENSPLACE.COM,asdf1234
TCPPERFV70010430.670@CHILDRENSPLACE.COM,asdf1234
TCPPERFV70010433.491@CHILDRENSPLACE.COM,asdf1234
TCPPERFV70010436.334@CHILDRENSPLACE.COM,asdf1234
TCPPERFV70010439.305@CHILDRENSPLACE.COM,asdf1234
TCPPERFV70010442.074@CHILDRENSPLACE.COM,asdf1234
TCPPERFV70010444.709@CHILDRENSPLACE.COM,asdf1234
TCPPERFV70010447.524@CHILDRENSPLACE.COM,asdf1234
TCPPERFV70010450.343@CHILDRENSPLACE.COM,asdf1234
TCPPERFV70010452.987@CHILDRENSPLACE.COM,asdf1234
TCPPERFV70010455.690@CHILDRENSPLACE.COM,asdf1234
TCPPERFV70010458.266@CHILDRENSPLACE.COM,asdf1234
TCPPERFV70010500.844@CHILDRENSPLACE.COM,asdf1234
TCPPERFV70010503.468@CHILDRENSPLACE.COM,asdf1234
TCPPERFV70010506.173@CHILDRENSPLACE.COM,asdf1234
TCPPERFV70010508.770@CHILDRENSPLACE.COM,asdf1234
TCPPERFV70010511.414@CHILDRENSPLACE.COM,asdf1234
TCPPERFV70010514.512@CHILDRENSPLACE.COM,asdf1234
TCPPERFV70010519.132@CHILDRENSPLACE.COM,asdf1234
TCPPERFV70010522.334@CHILDRENSPLACE.COM,asdf1234
TCPPERFV70010524.936@CHILDRENSPLACE.COM,asdf1234
TCPPERFV70010527.741@CHILDRENSPLACE.COM,asdf1234
TCPPERFV70010530.491@CHILDRENSPLACE.COM,asdf1234
TCPPERFV70010533.238@CHILDRENSPLACE.COM,asdf1234
TCPPERFV70010535.964@CHILDRENSPLACE.COM,asdf1234
TCPPERFV70010538.686@CHILDRENSPLACE.COM,asdf1234
TCPPERFV70010541.398@CHILDRENSPLACE.COM,asdf1234
TCPPERFV70010544.151@CHILDRENSPLACE.COM,asdf1234
TCPPERFV70010547.543@CHILDRENSPLACE.COM,asdf1234
TCPPERFV70010551.038@CHILDRENSPLACE.COM,asdf1234
TCPPERFV70010554.926@CHILDRENSPLACE.COM,asdf1234
TCPPERFV70010558.837@CHILDRENSPLACE.COM,asdf1234
TCPPERFV70010601.969@CHILDRENSPLACE.COM,asdf1234
TCPPERFV70010605.609@CHILDRENSPLACE.COM,asdf1234
TCPPERFV70010608.585@CHILDRENSPLACE.COM,asdf1234
TCPPERFV70010611.441@CHILDRENSPLACE.COM,asdf1234
TCPPERFV70010614.261@CHILDRENSPLACE.COM,asdf1234
TCPPERFV70010617.407@CHILDRENSPLACE.COM,asdf1234
TCPPERFV70010620.199@CHILDRENSPLACE.COM,asdf1234
TCPPERFV70010623.215@CHILDRENSPLACE.COM,asdf1234
TCPPERFV70010625.959@CHILDRENSPLACE.COM,asdf1234
TCPPERFV70010628.813@CHILDRENSPLACE.COM,asdf1234
TCPPERFV70010631.646@CHILDRENSPLACE.COM,asdf1234
TCPPERFV70010634.458@CHILDRENSPLACE.COM,asdf1234
TCPPERFV70010637.217@CHILDRENSPLACE.COM,asdf1234
TCPPERFV70010639.920@CHILDRENSPLACE.COM,asdf1234
TCPPERFV70010642.678@CHILDRENSPLACE.COM,asdf1234
TCPPERFV70010645.786@CHILDRENSPLACE.COM,asdf1234
TCPPERFV70010648.562@CHILDRENSPLACE.COM,asdf1234
TCPPERFV70010651.328@CHILDRENSPLACE.COM,asdf1234
TCPPERFV70010654.321@CHILDRENSPLACE.COM,asdf1234
TCPPERFV70010657.025@CHILDRENSPLACE.COM,asdf1234
TCPPERFV70010659.688@CHILDRENSPLACE.COM,asdf1234
TCPPERFV70010702.400@CHILDRENSPLACE.COM,asdf1234
TCPPERFV70010705.867@CHILDRENSPLACE.COM,asdf1234
TCPPERFV70010708.879@CHILDRENSPLACE.COM,asdf1234
TCPPERFV70010711.878@CHILDRENSPLACE.COM,asdf1234
TCPPERFV70010714.742@CHILDRENSPLACE.COM,asdf1234
TCPPERFV70010717.624@CHILDRENSPLACE.COM,asdf1234
TCPPERFV70010720.984@CHILDRENSPLACE.COM,asdf1234
TCPPERFV70010724.357@CHILDRENSPLACE.COM,asdf1234
TCPPERFV70010727.204@CHILDRENSPLACE.COM,asdf1234
TCPPERFV70010730.166@CHILDRENSPLACE.COM,asdf1234
TCPPERFV70010733.428@CHILDRENSPLACE.COM,asdf1234
TCPPERFV70010736.122@CHILDRENSPLACE.COM,asdf1234
TCPPERFV70010738.817@CHILDRENSPLACE.COM,asdf1234
TCPPERFV70010741.401@CHILDRENSPLACE.COM,asdf1234
TCPPERFV70010744.270@CHILDRENSPLACE.COM,asdf1234
TCPPERFV70010747.142@CHILDRENSPLACE.COM,asdf1234
TCPPERFV70010749.946@CHILDRENSPLACE.COM,asdf1234
TCPPERFV70010752.899@CHILDRENSPLACE.COM,asdf1234
TCPPERFV70010755.692@CHILDRENSPLACE.COM,asdf1234
TCPPERFV70010758.416@CHILDRENSPLACE.COM,asdf1234
TCPPERFV70010801.110@CHILDRENSPLACE.COM,asdf1234
TCPPERFV70010804.152@CHILDRENSPLACE.COM,asdf1234
TCPPERFV70010806.834@CHILDRENSPLACE.COM,asdf1234
TCPPERFV70010809.510@CHILDRENSPLACE.COM,asdf1234
TCPPERFV70010812.151@CHILDRENSPLACE.COM,asdf1234
TCPPERFV70010814.912@CHILDRENSPLACE.COM,asdf1234
TCPPERFV70010817.582@CHILDRENSPLACE.COM,asdf1234
TCPPERFV70010820.572@CHILDRENSPLACE.COM,asdf1234
TCPPERFV70010823.301@CHILDRENSPLACE.COM,asdf1234
TCPPERFV70010825.868@CHILDRENSPLACE.COM,asdf1234
TCPPERFV70010828.790@CHILDRENSPLACE.COM,asdf1234
TCPPERFV70010831.595@CHILDRENSPLACE.COM,asdf1234
TCPPERFV70010834.134@CHILDRENSPLACE.COM,asdf1234
TCPPERFV70010837.361@CHILDRENSPLACE.COM,asdf1234
TCPPERFV70010840.071@CHILDRENSPLACE.COM,asdf1234
TCPPERFV70010842.807@CHILDRENSPLACE.COM,asdf1234
TCPPERFV70010845.643@CHILDRENSPLACE.COM,asdf1234
TCPPERFV70010848.372@CHILDRENSPLACE.COM,asdf1234
TCPPERFV70010851.404@CHILDRENSPLACE.COM,asdf1234
TCPPERFV70010854.338@CHILDRENSPLACE.COM,asdf1234
TCPPERFV70010857.401@CHILDRENSPLACE.COM,asdf1234
TCPPERFV70010900.068@CHILDRENSPLACE.COM,asdf1234
TCPPERFV70010902.801@CHILDRENSPLACE.COM,asdf1234
TCPPERFV70010905.547@CHILDRENSPLACE.COM,asdf1234
TCPPERFV70010908.295@CHILDRENSPLACE.COM,asdf1234
TCPPERFV70010911.352@CHILDRENSPLACE.COM,asdf1234
TCPPERFV70010914.100@CHILDRENSPLACE.COM,asdf1234
TCPPERFV70010916.777@CHILDRENSPLACE.COM,asdf1234
TCPPERFV70010919.581@CHILDRENSPLACE.COM,asdf1234
TCPPERFV70010922.258@CHILDRENSPLACE.COM,asdf1234
TCPPERFV70010925.385@CHILDRENSPLACE.COM,asdf1234
TCPPERFV70010928.011@CHILDRENSPLACE.COM,asdf1234
TCPPERFV70010930.806@CHILDRENSPLACE.COM,asdf1234
TCPPERFV70010933.789@CHILDRENSPLACE.COM,asdf1234
TCPPERFV70010936.572@CHILDRENSPLACE.COM,asdf1234
TCPPERFV70010939.354@CHILDRENSPLACE.COM,asdf1234
TCPPERFV70010941.988@CHILDRENSPLACE.COM,asdf1234
TCPPERFV70010944.959@CHILDRENSPLACE.COM,asdf1234
TCPPERFV70010947.695@CHILDRENSPLACE.COM,asdf1234
TCPPERFV70010950.859@CHILDRENSPLACE.COM,asdf1234
TCPPERFV70010953.535@CHILDRENSPLACE.COM,asdf1234
TCPPERFV70010956.295@CHILDRENSPLACE.COM,asdf1234
TCPPERFV70010959.133@CHILDRENSPLACE.COM,asdf1234
TCPPERFV70011001.976@CHILDRENSPLACE.COM,asdf1234
TCPPERFV70011004.733@CHILDRENSPLACE.COM,asdf1234
TCPPERFV70011007.399@CHILDRENSPLACE.COM,asdf1234
TCPPERFV70011009.964@CHILDRENSPLACE.COM,asdf1234
TCPPERFV70011012.822@CHILDRENSPLACE.COM,asdf1234
TCPPERFV70011015.877@CHILDRENSPLACE.COM,asdf1234
TCPPERFV70011018.568@CHILDRENSPLACE.COM,asdf1234
TCPPERFV70011021.453@CHILDRENSPLACE.COM,asdf1234
TCPPERFV70011024.246@CHILDRENSPLACE.COM,asdf1234
TCPPERFV70011026.814@CHILDRENSPLACE.COM,asdf1234
TCPPERFV70011029.963@CHILDRENSPLACE.COM,asdf1234
TCPPERFV70011032.680@CHILDRENSPLACE.COM,asdf1234
TCPPERFV70011035.619@CHILDRENSPLACE.COM,asdf1234
TCPPERFV70011038.815@CHILDRENSPLACE.COM,asdf1234
TCPPERFV70011041.863@CHILDRENSPLACE.COM,asdf1234
TCPPERFV70011045.041@CHILDRENSPLACE.COM,asdf1234
TCPPERFV70011047.982@CHILDRENSPLACE.COM,asdf1234
TCPPERFV70011050.869@CHILDRENSPLACE.COM,asdf1234
TCPPERFV70011054.580@CHILDRENSPLACE.COM,asdf1234
TCPPERFV70011057.267@CHILDRENSPLACE.COM,asdf1234
TCPPERFV70011100.000@CHILDRENSPLACE.COM,asdf1234
TCPPERFV70011103.850@CHILDRENSPLACE.COM,asdf1234
TCPPERFV70011106.517@CHILDRENSPLACE.COM,asdf1234
TCPPERFV70011109.270@CHILDRENSPLACE.COM,asdf1234
TCPPERFV70011112.464@CHILDRENSPLACE.COM,asdf1234
TCPPERFV70011116.368@CHILDRENSPLACE.COM,asdf1234
TCPPERFV70011120.451@CHILDRENSPLACE.COM,asdf1234
TCPPERFV70011123.187@CHILDRENSPLACE.COM,asdf1234
TCPPERFV70011125.962@CHILDRENSPLACE.COM,asdf1234
TCPPERFV70011128.710@CHILDRENSPLACE.COM,asdf1234
TCPPERFV70011131.601@CHILDRENSPLACE.COM,asdf1234
TCPPERFV70011134.248@CHILDRENSPLACE.COM,asdf1234
TCPPERFV70011137.682@CHILDRENSPLACE.COM,asdf1234
TCPPERFV70011140.273@CHILDRENSPLACE.COM,asdf1234
TCPPERFV70011143.204@CHILDRENSPLACE.COM,asdf1234
TCPPERFV70011146.141@CHILDRENSPLACE.COM,asdf1234
TCPPERFV70011148.834@CHILDRENSPLACE.COM,asdf1234
TCPPERFV70011151.646@CHILDRENSPLACE.COM,asdf1234
TCPPERFV70011154.575@CHILDRENSPLACE.COM,asdf1234
TCPPERFV70011157.327@CHILDRENSPLACE.COM,asdf1234
TCPPERFV70011200.144@CHILDRENSPLACE.COM,asdf1234
TCPPERFV70011203.062@CHILDRENSPLACE.COM,asdf1234
TCPPERFV70011206.037@CHILDRENSPLACE.COM,asdf1234
TCPPERFV70011208.942@CHILDRENSPLACE.COM,asdf1234
TCPPERFV70011211.872@CHILDRENSPLACE.COM,asdf1234
TCPPERFV70011214.744@CHILDRENSPLACE.COM,asdf1234
TCPPERFV70011218.339@CHILDRENSPLACE.COM,asdf1234
TCPPERFV70011221.359@CHILDRENSPLACE.COM,asdf1234
TCPPERFV70011224.307@CHILDRENSPLACE.COM,asdf1234
TCPPERFV70011228.025@CHILDRENSPLACE.COM,asdf1234
TCPPERFV70011230.941@CHILDRENSPLACE.COM,asdf1234
TCPPERFV70011234.110@CHILDRENSPLACE.COM,asdf1234
TCPPERFV70011236.870@CHILDRENSPLACE.COM,asdf1234
TCPPERFV70011239.848@CHILDRENSPLACE.COM,asdf1234
TCPPERFV70011243.177@CHILDRENSPLACE.COM,asdf1234
TCPPERFV70011246.366@CHILDRENSPLACE.COM,asdf1234
TCPPERFV70011249.230@CHILDRENSPLACE.COM,asdf1234
TCPPERFV70011252.274@CHILDRENSPLACE.COM,asdf1234
TCPPERFV70011255.188@CHILDRENSPLACE.COM,asdf1234
TCPPERFV70011258.049@CHILDRENSPLACE.COM,asdf1234
TCPPERFV70011301.014@CHILDRENSPLACE.COM,asdf1234
TCPPERFV70011304.396@CHILDRENSPLACE.COM,asdf1234
TCPPERFV70011307.323@CHILDRENSPLACE.COM,asdf1234
TCPPERFV70011310.284@CHILDRENSPLACE.COM,asdf1234
TCPPERFV70011313.126@CHILDRENSPLACE.COM,asdf1234
TCPPERFV70011316.641@CHILDRENSPLACE.COM,asdf1234
TCPPERFV70011319.578@CHILDRENSPLACE.COM,asdf1234
TCPPERFV70011322.513@CHILDRENSPLACE.COM,asdf1234
TCPPERFV70011325.333@CHILDRENSPLACE.COM,asdf1234
TCPPERFV70011328.262@CHILDRENSPLACE.COM,asdf1234
TCPPERFV70011331.033@CHILDRENSPLACE.COM,asdf1234
TCPPERFV70011334.040@CHILDRENSPLACE.COM,asdf1234
TCPPERFV70011336.943@CHILDRENSPLACE.COM,asdf1234
TCPPERFV70011339.820@CHILDRENSPLACE.COM,asdf1234
TCPPERFV70011343.511@CHILDRENSPLACE.COM,asdf1234
TCPPERFV70011346.560@CHILDRENSPLACE.COM,asdf1234
TCPPERFV70011349.766@CHILDRENSPLACE.COM,asdf1234
TCPPERFV70011352.634@CHILDRENSPLACE.COM,asdf1234
TCPPERFV70011355.624@CHILDRENSPLACE.COM,asdf1234
TCPPERFV70011358.662@CHILDRENSPLACE.COM,asdf1234
TCPPERFV70011401.548@CHILDRENSPLACE.COM,asdf1234
TCPPERFV70011404.527@CHILDRENSPLACE.COM,asdf1234
TCPPERFV70011408.286@CHILDRENSPLACE.COM,asdf1234
TCPPERFV70011411.183@CHILDRENSPLACE.COM,asdf1234
TCPPERFV70011414.470@CHILDRENSPLACE.COM,asdf1234
TCPPERFV70011417.296@CHILDRENSPLACE.COM,asdf1234
TCPPERFV70010004.509@CHILDRENSPLACE.COM,asdf1234
TCPPERFV70010007.455@CHILDRENSPLACE.COM,asdf1234
TCPPERFV70010011.992@CHILDRENSPLACE.COM,asdf1234
TCPPERFV70010014.983@CHILDRENSPLACE.COM,asdf1234
TCPPERFV70010017.770@CHILDRENSPLACE.COM,asdf1234
TCPPERFV70010020.400@CHILDRENSPLACE.COM,asdf1234
TCPPERFV70010023.157@CHILDRENSPLACE.COM,asdf1234
TCPPERFV70010025.798@CHILDRENSPLACE.COM,asdf1234
TCPPERFV70010028.507@CHILDRENSPLACE.COM,asdf1234
TCPPERFV70010031.258@CHILDRENSPLACE.COM,asdf1234
TCPPERFV70010033.969@CHILDRENSPLACE.COM,asdf1234
TCPPERFV70010036.653@CHILDRENSPLACE.COM,asdf1234
TCPPERFV70010039.485@CHILDRENSPLACE.COM,asdf1234
TCPPERFV70010042.092@CHILDRENSPLACE.COM,asdf1234
TCPPERFV70010044.689@CHILDRENSPLACE.COM,asdf1234
TCPPERFV70010047.650@CHILDRENSPLACE.COM,asdf1234
TCPPERFV70010050.345@CHILDRENSPLACE.COM,asdf1234
TCPPERFV70010052.829@CHILDRENSPLACE.COM,asdf1234
TCPPERFV70010055.630@CHILDRENSPLACE.COM,asdf1234
TCPPERFV70010058.042@CHILDRENSPLACE.COM,asdf1234
TCPPERFV70010100.680@CHILDRENSPLACE.COM,asdf1234
TCPPERFV70010103.604@CHILDRENSPLACE.COM,asdf1234
TCPPERFV70010106.431@CHILDRENSPLACE.COM,asdf1234
TCPPERFV70010109.368@CHILDRENSPLACE.COM,asdf1234
TCPPERFV70010111.873@CHILDRENSPLACE.COM,asdf1234
TCPPERFV70010114.397@CHILDRENSPLACE.COM,asdf1234
TCPPERFV70010116.881@CHILDRENSPLACE.COM,asdf1234
TCPPERFV70010119.544@CHILDRENSPLACE.COM,asdf1234
TCPPERFV70010122.114@CHILDRENSPLACE.COM,asdf1234
TCPPERFV70010124.601@CHILDRENSPLACE.COM,asdf1234
TCPPERFV70010127.310@CHILDRENSPLACE.COM,asdf1234
TCPPERFV70010129.967@CHILDRENSPLACE.COM,asdf1234
TCPPERFV70010132.881@CHILDRENSPLACE.COM,asdf1234
TCPPERFV70010347.277@CHILDRENSPLACE.COM,asdf1234
TCPPERFV70010349.951@CHILDRENSPLACE.COM,asdf1234
TCPPERFV70010352.592@CHILDRENSPLACE.COM,asdf1234
TCPPERFV70010355.278@CHILDRENSPLACE.COM,asdf1234
TCPPERFV70010358.011@CHILDRENSPLACE.COM,asdf1234
TCPPERFV70010400.601@CHILDRENSPLACE.COM,asdf1234
TCPPERFV70010403.314@CHILDRENSPLACE.COM,asdf1234
TCPPERFV70010406.118@CHILDRENSPLACE.COM,asdf1234
TCPPERFV70010409.081@CHILDRENSPLACE.COM,asdf1234
TCPPERFV70010411.780@CHILDRENSPLACE.COM,asdf1234
TCPPERFV70010414.564@CHILDRENSPLACE.COM,asdf1234
TCPPERFV70010417.162@CHILDRENSPLACE.COM,asdf1234
TCPPERFV70010419.896@CHILDRENSPLACE.COM,asdf1234
TCPPERFV70010422.618@CHILDRENSPLACE.COM,asdf1234
TCPPERFV70010425.298@CHILDRENSPLACE.COM,asdf1234
TCPPERFV70010427.998@CHILDRENSPLACE.COM,asdf1234
TCPPERFV70010430.670@CHILDRENSPLACE.COM,asdf1234
TCPPERFV70010433.491@CHILDRENSPLACE.COM,asdf1234
TCPPERFV70010436.334@CHILDRENSPLACE.COM,asdf1234
TCPPERFV70010439.305@CHILDRENSPLACE.COM,asdf1234
TCPPERFV70010442.074@CHILDRENSPLACE.COM,asdf1234
TCPPERFV70010444.709@CHILDRENSPLACE.COM,asdf1234
TCPPERFV70010447.524@CHILDRENSPLACE.COM,asdf1234
TCPPERFV70010450.343@CHILDRENSPLACE.COM,asdf1234
TCPPERFV70010452.987@CHILDRENSPLACE.COM,asdf1234
TCPPERFV70010455.690@CHILDRENSPLACE.COM,asdf1234
TCPPERFV70010458.266@CHILDRENSPLACE.COM,asdf1234
TCPPERFV70010500.844@CHILDRENSPLACE.COM,asdf1234
TCPPERFV70010503.468@CHILDRENSPLACE.COM,asdf1234
TCPPERFV70010506.173@CHILDRENSPLACE.COM,asdf1234
TCPPERFV70010508.770@CHILDRENSPLACE.COM,asdf1234
TCPPERFV70010511.414@CHILDRENSPLACE.COM,asdf1234
TCPPERFV70010514.512@CHILDRENSPLACE.COM,asdf1234
TCPPERFV70010519.132@CHILDRENSPLACE.COM,asdf1234
TCPPERFV70010522.334@CHILDRENSPLACE.COM,asdf1234
TCPPERFV70010524.936@CHILDRENSPLACE.COM,asdf1234
TCPPERFV70010527.741@CHILDRENSPLACE.COM,asdf1234
TCPPERFV70010530.491@CHILDRENSPLACE.COM,asdf1234
TCPPERFV70010533.238@CHILDRENSPLACE.COM,asdf1234
TCPPERFV70010535.964@CHILDRENSPLACE.COM,asdf1234
TCPPERFV70010538.686@CHILDRENSPLACE.COM,asdf1234
TCPPERFV70010541.398@CHILDRENSPLACE.COM,asdf1234
TCPPERFV70010544.151@CHILDRENSPLACE.COM,asdf1234
TCPPERFV70010547.543@CHILDRENSPLACE.COM,asdf1234
TCPPERFV70010551.038@CHILDRENSPLACE.COM,asdf1234
TCPPERFV70010554.926@CHILDRENSPLACE.COM,asdf1234
TCPPERFV70010558.837@CHILDRENSPLACE.COM,asdf1234
TCPPERFV70010601.969@CHILDRENSPLACE.COM,asdf1234
TCPPERFV70010605.609@CHILDRENSPLACE.COM,asdf1234
TCPPERFV70010608.585@CHILDRENSPLACE.COM,asdf1234
TCPPERFV70010611.441@CHILDRENSPLACE.COM,asdf1234
TCPPERFV70010614.261@CHILDRENSPLACE.COM,asdf1234
TCPPERFV70010617.407@CHILDRENSPLACE.COM,asdf1234
TCPPERFV70010620.199@CHILDRENSPLACE.COM,asdf1234
TCPPERFV70010623.215@CHILDRENSPLACE.COM,asdf1234
TCPPERFV70010625.959@CHILDRENSPLACE.COM,asdf1234
TCPPERFV70010628.813@CHILDRENSPLACE.COM,asdf1234
TCPPERFV70010631.646@CHILDRENSPLACE.COM,asdf1234
TCPPERFV70010634.458@CHILDRENSPLACE.COM,asdf1234
TCPPERFV70010637.217@CHILDRENSPLACE.COM,asdf1234
TCPPERFV70010639.920@CHILDRENSPLACE.COM,asdf1234
TCPPERFV70010642.678@CHILDRENSPLACE.COM,asdf1234
TCPPERFV70010645.786@CHILDRENSPLACE.COM,asdf1234
TCPPERFV70010648.562@CHILDRENSPLACE.COM,asdf1234
TCPPERFV70010651.328@CHILDRENSPLACE.COM,asdf1234
TCPPERFV70010654.321@CHILDRENSPLACE.COM,asdf1234
TCPPERFV70010657.025@CHILDRENSPLACE.COM,asdf1234
TCPPERFV70010659.688@CHILDRENSPLACE.COM,asdf1234
TCPPERFV70010702.400@CHILDRENSPLACE.COM,asdf1234
TCPPERFV70010705.867@CHILDRENSPLACE.COM,asdf1234
TCPPERFV70010708.879@CHILDRENSPLACE.COM,asdf1234
TCPPERFV70010711.878@CHILDRENSPLACE.COM,asdf1234
TCPPERFV70010714.742@CHILDRENSPLACE.COM,asdf1234
TCPPERFV70010717.624@CHILDRENSPLACE.COM,asdf1234
TCPPERFV70010720.984@CHILDRENSPLACE.COM,asdf1234
TCPPERFV70010724.357@CHILDRENSPLACE.COM,asdf1234
TCPPERFV70010727.204@CHILDRENSPLACE.COM,asdf1234
TCPPERFV70010730.166@CHILDRENSPLACE.COM,asdf1234
TCPPERFV70010733.428@CHILDRENSPLACE.COM,asdf1234
TCPPERFV70010736.122@CHILDRENSPLACE.COM,asdf1234
TCPPERFV70010738.817@CHILDRENSPLACE.COM,asdf1234
TCPPERFV70010741.401@CHILDRENSPLACE.COM,asdf1234
TCPPERFV70010744.270@CHILDRENSPLACE.COM,asdf1234
TCPPERFV70010747.142@CHILDRENSPLACE.COM,asdf1234
TCPPERFV70010749.946@CHILDRENSPLACE.COM,asdf1234
TCPPERFV70010752.899@CHILDRENSPLACE.COM,asdf1234
TCPPERFV70010755.692@CHILDRENSPLACE.COM,asdf1234
TCPPERFV70010758.416@CHILDRENSPLACE.COM,asdf1234
TCPPERFV70010801.110@CHILDRENSPLACE.COM,asdf1234
TCPPERFV70010804.152@CHILDRENSPLACE.COM,asdf1234
TCPPERFV70010806.834@CHILDRENSPLACE.COM,asdf1234
TCPPERFV70010809.510@CHILDRENSPLACE.COM,asdf1234
TCPPERFV70010812.151@CHILDRENSPLACE.COM,asdf1234
TCPPERFV70010814.912@CHILDRENSPLACE.COM,asdf1234
TCPPERFV70010817.582@CHILDRENSPLACE.COM,asdf1234
TCPPERFV70010820.572@CHILDRENSPLACE.COM,asdf1234
TCPPERFV70010823.301@CHILDRENSPLACE.COM,asdf1234
TCPPERFV70010825.868@CHILDRENSPLACE.COM,asdf1234
TCPPERFV70010828.790@CHILDRENSPLACE.COM,asdf1234
TCPPERFV70010831.595@CHILDRENSPLACE.COM,asdf1234
TCPPERFV70010834.134@CHILDRENSPLACE.COM,asdf1234
TCPPERFV70010837.361@CHILDRENSPLACE.COM,asdf1234
TCPPERFV70010840.071@CHILDRENSPLACE.COM,asdf1234
TCPPERFV70010842.807@CHILDRENSPLACE.COM,asdf1234
TCPPERFV70010845.643@CHILDRENSPLACE.COM,asdf1234
TCPPERFV70010848.372@CHILDRENSPLACE.COM,asdf1234
TCPPERFV70010851.404@CHILDRENSPLACE.COM,asdf1234
TCPPERFV70010854.338@CHILDRENSPLACE.COM,asdf1234
TCPPERFV70010857.401@CHILDRENSPLACE.COM,asdf1234
TCPPERFV70010900.068@CHILDRENSPLACE.COM,asdf1234
TCPPERFV70010902.801@CHILDRENSPLACE.COM,asdf1234
TCPPERFV70010905.547@CHILDRENSPLACE.COM,asdf1234
TCPPERFV70010908.295@CHILDRENSPLACE.COM,asdf1234
TCPPERFV70010911.352@CHILDRENSPLACE.COM,asdf1234
TCPPERFV70010914.100@CHILDRENSPLACE.COM,asdf1234
TCPPERFV70010916.777@CHILDRENSPLACE.COM,asdf1234
TCPPERFV70010919.581@CHILDRENSPLACE.COM,asdf1234
TCPPERFV70010922.258@CHILDRENSPLACE.COM,asdf1234
TCPPERFV70010925.385@CHILDRENSPLACE.COM,asdf1234
TCPPERFV70010928.011@CHILDRENSPLACE.COM,asdf1234
TCPPERFV70010930.806@CHILDRENSPLACE.COM,asdf1234
TCPPERFV70010933.789@CHILDRENSPLACE.COM,asdf1234
TCPPERFV70010936.572@CHILDRENSPLACE.COM,asdf1234
TCPPERFV70010939.354@CHILDRENSPLACE.COM,asdf1234
TCPPERFV70010941.988@CHILDRENSPLACE.COM,asdf1234
TCPPERFV70010944.959@CHILDRENSPLACE.COM,asdf1234
TCPPERFV70010947.695@CHILDRENSPLACE.COM,asdf1234
TCPPERFV70010950.859@CHILDRENSPLACE.COM,asdf1234
TCPPERFV70010953.535@CHILDRENSPLACE.COM,asdf1234
TCPPERFV70010956.295@CHILDRENSPLACE.COM,asdf1234
TCPPERFV70010959.133@CHILDRENSPLACE.COM,asdf1234
TCPPERFV70011001.976@CHILDRENSPLACE.COM,asdf1234
TCPPERFV70011004.733@CHILDRENSPLACE.COM,asdf1234
TCPPERFV70011007.399@CHILDRENSPLACE.COM,asdf1234
TCPPERFV70011009.964@CHILDRENSPLACE.COM,asdf1234
TCPPERFV70011012.822@CHILDRENSPLACE.COM,asdf1234
TCPPERFV70011015.877@CHILDRENSPLACE.COM,asdf1234
TCPPERFV70011018.568@CHILDRENSPLACE.COM,asdf1234
TCPPERFV70011021.453@CHILDRENSPLACE.COM,asdf1234
TCPPERFV70011024.246@CHILDRENSPLACE.COM,asdf1234
TCPPERFV70011026.814@CHILDRENSPLACE.COM,asdf1234
TCPPERFV70011029.963@CHILDRENSPLACE.COM,asdf1234
TCPPERFV70011032.680@CHILDRENSPLACE.COM,asdf1234
TCPPERFV70011035.619@CHILDRENSPLACE.COM,asdf1234
TCPPERFV70011038.815@CHILDRENSPLACE.COM,asdf1234
TCPPERFV70011041.863@CHILDRENSPLACE.COM,asdf1234
TCPPERFV70011045.041@CHILDRENSPLACE.COM,asdf1234
TCPPERFV70011047.982@CHILDRENSPLACE.COM,asdf1234
TCPPERFV70011050.869@CHILDRENSPLACE.COM,asdf1234
TCPPERFV70011054.580@CHILDRENSPLACE.COM,asdf1234
TCPPERFV70011057.267@CHILDRENSPLACE.COM,asdf1234
TCPPERFV70011100.000@CHILDRENSPLACE.COM,asdf1234
TCPPERFV70011103.850@CHILDRENSPLACE.COM,asdf1234
TCPPERFV70011106.517@CHILDRENSPLACE.COM,asdf1234
TCPPERFV70011109.270@CHILDRENSPLACE.COM,asdf1234
TCPPERFV70011112.464@CHILDRENSPLACE.COM,asdf1234
TCPPERFV70011116.368@CHILDRENSPLACE.COM,asdf1234
TCPPERFV70011120.451@CHILDRENSPLACE.COM,asdf1234
TCPPERFV70011123.187@CHILDRENSPLACE.COM,asdf1234
TCPPERFV70011125.962@CHILDRENSPLACE.COM,asdf1234
TCPPERFV70011128.710@CHILDRENSPLACE.COM,asdf1234
TCPPERFV70011131.601@CHILDRENSPLACE.COM,asdf1234
TCPPERFV70011134.248@CHILDRENSPLACE.COM,asdf1234
TCPPERFV70011137.682@CHILDRENSPLACE.COM,asdf1234
TCPPERFV70011140.273@CHILDRENSPLACE.COM,asdf1234
TCPPERFV70011143.204@CHILDRENSPLACE.COM,asdf1234
TCPPERFV70011146.141@CHILDRENSPLACE.COM,asdf1234
TCPPERFV70011148.834@CHILDRENSPLACE.COM,asdf1234
TCPPERFV70011151.646@CHILDRENSPLACE.COM,asdf1234
TCPPERFV70011154.575@CHILDRENSPLACE.COM,asdf1234
TCPPERFV70011157.327@CHILDRENSPLACE.COM,asdf1234
TCPPERFV70011200.144@CHILDRENSPLACE.COM,asdf1234
TCPPERFV70011203.062@CHILDRENSPLACE.COM,asdf1234
TCPPERFV70011206.037@CHILDRENSPLACE.COM,asdf1234
TCPPERFV70011208.942@CHILDRENSPLACE.COM,asdf1234
TCPPERFV70011211.872@CHILDRENSPLACE.COM,asdf1234
TCPPERFV70011214.744@CHILDRENSPLACE.COM,asdf1234
TCPPERFV70011218.339@CHILDRENSPLACE.COM,asdf1234
TCPPERFV70011221.359@CHILDRENSPLACE.COM,asdf1234
TCPPERFV70011224.307@CHILDRENSPLACE.COM,asdf1234
TCPPERFV70011228.025@CHILDRENSPLACE.COM,asdf1234
TCPPERFV70011230.941@CHILDRENSPLACE.COM,asdf1234
TCPPERFV70011234.110@CHILDRENSPLACE.COM,asdf1234
TCPPERFV70011236.870@CHILDRENSPLACE.COM,asdf1234
TCPPERFV70011239.848@CHILDRENSPLACE.COM,asdf1234
TCPPERFV70011243.177@CHILDRENSPLACE.COM,asdf1234
TCPPERFV70011246.366@CHILDRENSPLACE.COM,asdf1234
TCPPERFV70011249.230@CHILDRENSPLACE.COM,asdf1234
TCPPERFV70011252.274@CHILDRENSPLACE.COM,asdf1234
TCPPERFV70011255.188@CHILDRENSPLACE.COM,asdf1234
TCPPERFV70011258.049@CHILDRENSPLACE.COM,asdf1234
TCPPERFV70011301.014@CHILDRENSPLACE.COM,asdf1234
TCPPERFV70011304.396@CHILDRENSPLACE.COM,asdf1234
TCPPERFV70011307.323@CHILDRENSPLACE.COM,asdf1234
TCPPERFV70011310.284@CHILDRENSPLACE.COM,asdf1234
TCPPERFV70011313.126@CHILDRENSPLACE.COM,asdf1234
TCPPERFV70011316.641@CHILDRENSPLACE.COM,asdf1234
TCPPERFV70011319.578@CHILDRENSPLACE.COM,asdf1234
TCPPERFV70011322.513@CHILDRENSPLACE.COM,asdf1234
TCPPERFV70011325.333@CHILDRENSPLACE.COM,asdf1234
TCPPERFV70011328.262@CHILDRENSPLACE.COM,asdf1234
TCPPERFV70011331.033@CHILDRENSPLACE.COM,asdf1234
TCPPERFV70011334.040@CHILDRENSPLACE.COM,asdf1234
TCPPERFV70011336.943@CHILDRENSPLACE.COM,asdf1234
TCPPERFV70011339.820@CHILDRENSPLACE.COM,asdf1234
TCPPERFV70011343.511@CHILDRENSPLACE.COM,asdf1234
TCPPERFV70011346.560@CHILDRENSPLACE.COM,asdf1234
TCPPERFV70011349.766@CHILDRENSPLACE.COM,asdf1234
TCPPERFV70011352.634@CHILDRENSPLACE.COM,asdf1234
TCPPERFV70011355.624@CHILDRENSPLACE.COM,asdf1234
TCPPERFV70011358.662@CHILDRENSPLACE.COM,asdf1234
TCPPERFV70011401.548@CHILDRENSPLACE.COM,asdf1234
TCPPERFV70011404.527@CHILDRENSPLACE.COM,asdf1234
TCPPERFV70011408.286@CHILDRENSPLACE.COM,asdf1234
TCPPERFV70011411.183@CHILDRENSPLACE.COM,asdf1234
TCPPERFV70011414.470@CHILDRENSPLACE.COM,asdf1234
TCPPERFV70011417.296@CHILDRENSPLACE.COM,asdf1234
TCPPERFV70010004.509@CHILDRENSPLACE.COM,asdf1234
TCPPERFV70010007.455@CHILDRENSPLACE.COM,asdf1234
TCPPERFV70010011.992@CHILDRENSPLACE.COM,asdf1234
TCPPERFV70010014.983@CHILDRENSPLACE.COM,asdf1234
TCPPERFV70010017.770@CHILDRENSPLACE.COM,asdf1234
TCPPERFV70010020.400@CHILDRENSPLACE.COM,asdf1234
TCPPERFV70010023.157@CHILDRENSPLACE.COM,asdf1234
TCPPERFV70010025.798@CHILDRENSPLACE.COM,asdf1234
TCPPERFV70010028.507@CHILDRENSPLACE.COM,asdf1234
TCPPERFV70010031.258@CHILDRENSPLACE.COM,asdf1234
TCPPERFV70010033.969@CHILDRENSPLACE.COM,asdf1234
TCPPERFV70010036.653@CHILDRENSPLACE.COM,asdf1234
TCPPERFV70010039.485@CHILDRENSPLACE.COM,asdf1234
TCPPERFV70010042.092@CHILDRENSPLACE.COM,asdf1234
TCPPERFV70010044.689@CHILDRENSPLACE.COM,asdf1234
TCPPERFV70010047.650@CHILDRENSPLACE.COM,asdf1234
TCPPERFV70010050.345@CHILDRENSPLACE.COM,asdf1234
TCPPERFV70010052.829@CHILDRENSPLACE.COM,asdf1234
TCPPERFV70010055.630@CHILDRENSPLACE.COM,asdf1234
TCPPERFV70010058.042@CHILDRENSPLACE.COM,asdf1234
TCPPERFV70010100.680@CHILDRENSPLACE.COM,asdf1234
TCPPERFV70010103.604@CHILDRENSPLACE.COM,asdf1234
TCPPERFV70010106.431@CHILDRENSPLACE.COM,asdf1234
TCPPERFV70010109.368@CHILDRENSPLACE.COM,asdf1234
TCPPERFV70010111.873@CHILDRENSPLACE.COM,asdf1234
TCPPERFV70010114.397@CHILDRENSPLACE.COM,asdf1234
TCPPERFV70010116.881@CHILDRENSPLACE.COM,asdf1234
TCPPERFV70010119.544@CHILDRENSPLACE.COM,asdf1234
TCPPERFV70010122.114@CHILDRENSPLACE.COM,asdf1234
TCPPERFV70010124.601@CHILDRENSPLACE.COM,asdf1234
TCPPERFV70010127.310@CHILDRENSPLACE.COM,asdf1234
TCPPERFV70010129.967@CHILDRENSPLACE.COM,asdf1234
TCPPERFV70010132.881@CHILDRENSPLACE.COM,asdf1234
