GET /action/0?ti=403381&Ver=2&mid=26d57c7f-fd67-355f-ec55-65c6746a59ea&evt=pageLoad&lt=35772&pi=-1898162245&lg=en-US&sw=1276&sh=681&sc=24&r=http%3A%2F%2Ftcp-perf.childrensplace.com%2Fshop%2Fus%2Fhome&tl=Childrens%20Clothing%20|%20Kids%20Clothing%20|%20Kids%20Apparel%20|%20Boys%20Clothing%20|%20Girls%20Clothing%20|%20Toddler%20Clothing%20|%20Baby%20Clothing%20|%20The%20Children%27s%20Place%20US&kw=Childrens%20Clothing%20|%20Kids%20Clothing%20|%20Kids%20Apparel%20|%20Boys%20Clothing%20|%20Girls%20Clothing%20|%20Toddler%20Clothing%20|%20Baby%20Clothing%20|%20The%20Children& HTTP/1.1
Host: bat.bing.com
Connection: keep-alive
User-Agent: Mozilla/5.0 (Windows NT 6.1; Win64; x64) AppleWebKit/537.36 (KHTML, like Gecko) Chrome/56.0.2924.87 Safari/537.36
Accept: image/webp,image/*,*/*;q=0.8
Referer: https://tcp-perf.childrensplace.com/shop/LogonForm?new=Y&catalogId=10551&myAcctMain=&langId=-1&storeId=10151
Accept-Encoding: gzip, deflate, sdch, br
Accept-Language: en-US,en;q=0.8
Cookie: MUID=3FF04CDC61266CEB34D646F865266F70; MR=0

