"goog-malware-shavar;a:246755-259086:s:242130-242151,242153-242157,242159-242280,242282-242288,"
"242290-242393,242395-242758,242761-242834,242836-242880,242882-242921,242923-243136,243138-243"
"307,243309-243506,243508-244511,244513-244663,244665-244754,244756-244965,244967-244980,244982"
"-246807,246809-249034,249036-254405\n"
"goog-phish-shavar;a:463054-471770:s:295034-295048,295050-295051,295054-295068,295070-295092,29"
"5094-295096,295098-295113,295115-295162,295164-295185,295187-295198,295200,295202-295248,29525"
"0-295280,295282-295294,295296-295304,295306-295312,295314-295326,295329-295347,295349-295367,2"
"95369-295370,295372-295375,295377-295413,295415-295418,295420-295434,295436-295447,295450-2954"
"66,295468-295472,295474-295483,295485-295487,295490-295493,295495-295521,295523-295524,295527-"
"295557,295559-295587,295589-295619,295621-295629,295631-295638,295640-295653,295656-295673,295"
"675-295705,295707-295790,295792-295804,295806-295832,295834-295840,295842-295865,295867-295881"
",295883-295889,295891-295965,295967-295979,295981-296002,296005-296041,296043-296055,296057-29"
"6071,296073-296131,296134-296140,296143-296279,296281-296300,296302-296364,296366-296376,29637"
"8-296412,296414-296461,296463-296484,296486-296712,296714-296868,296870-296936,296938-296948,2"
"96950-297065,297067-297079,297081-297089,297095-297096,297102-297211,297213-297215,297217,2972"
"19-297225,297229-297245,297247,297249,297251,297253-297503,297505-297562,297564-297568,297570,"
"297572,297574-297575,297577-297578,297583-297586,297588,297590-297593,297595-297665,297667-297"
"672,297674,297676-297709,297711-297844,297847,297849-297918,297920-297977,297980-298481,298484"
"-298613,298616-298617,298622,298625-298833,298835-298846,298848-298905,298907-299146,299148-29"
"9151,299153-299276,299278-299294,299296-299396,299398-299906,299908-299950,299952-299963,29996"
"5-300038,300040-300467,300469-300721,300723-300745,300747-300756,300758-300916,300918-301649,3"
"01651-301858,301860-301956,301958-302984,302986-303321,303323-303331,303333-303429,303431-3039"
"30,303932-304187,304189-304264,304266-304499,304501-304966,304968-305107,305109-305167,305169-"
"305394,305396-305636,305638-305658,305660-306152,306154-306492,306494-306672,306674-307091\n"
"goog-badbinurl-shavar;a:118995-121470:s:121775-121776,121778,121780-121781,121783-121814,12181"
"6-121912,121914-121919,121921,121923-121939,121941-121943,121946-121950,121952-122390,122392-1"
"22429,122431,122433-122533,122535-122874,122876-124188\n"
"goog-csdwhite-sha256;a:3-85:s:1-5\n"
"goog-downloadwhite-digest256;a:5-84:s:2-7,10-58\n"
"goog-badcrxids-digestvar;a:2-1470:s:1,3-140\n"
"goog-badip-digest256;a:2837\n"
"goog-unwanted-shavar;a:71385-87236:s:65295-65297,65299-65333,65335-65338,65341-65343,65345,653"
"48-65351,65353,65355-65357,65360-65362,65364-65370,65372-65373,65375-65381,65383-65402,65405-6"
"5406,65408-65410,65412,65414-65416,65418-65421,65425,65427-65429,65438,65440,65444-65455,65457"
"-65463,65465,65467-65473,65476-65478,65480-65487,65489-65502,65504,65507-65512,65514-65521,655"
"23-65530,65532-65534,65537-65550,65552,65554-65555,65557-65562,65565-65569,65572-65573,65575-6"
"5576,65578-65584,65586-65601,65603-65606,65608,65612-65617,65619-65621,65624,65627-65630,65632"
"-65636,65639-65640,65643-65644,65646,65648,65651-65653,65655-65656,65659,65663-65669,65671,656"
"73,65675-65684,65686-65688,65692-65693,65695-65696,65699-65700,65702,65706,65712-65718,65720-6"
"5753,65757,65759,65761-65763,65766,65770-65773,65776,65779,65781,65783-65784,65786,65794,65809"
"-65810,65812-65814,65816-65819,65824,65826-65827,65829-65831,65842,65844-65845,65847-65850,658"
"52-65853,65855-65856,65859-65860,65863,65865-65874,65876-65877,65880-65881,65883-65887,65889-6"
"5893,65895-65899,65901-65906,65908-65920,65923-65924,65927-65935,65943-65951,65953-65957,65959"
"-65960,65962-65963,65965,65967-65975,65977,65981-65985,65987-65993,65995-66004,66006-66009,660"
"12,66016,66019-66021,66023-66024,66027-66030,66032,66034-66038,66042-66044,66047-66050,66052-6"
"6055,66058-66059,66061-66064,66067-66068,66070,66072-66073,66076,66079,66081-66084,66088,66090"
"-66092,66094-66103,66107-66112,66115-66116,66118-66124,66128,66130-66133,66135,66137,66140,661"
"43,66145-66146,66148,66150-66156,66158-66163,66165-66166,66168-66173,66175-66176,66178,66180-6"
"6185,66187-66188,66190-66194,66197-66218,66220-66222,66224,66226,66228,66230-66233,66235-66250"
",66252,66254-66262,66265-66266,66268-66275,66279-66283,66285-66289,66291-66292,66294-66301,663"
"03-66305,66307-66317,66319-66320,66322-66328,66331,66333-66336,66339-66340,66342-66347,66350,6"
"6352-66354,66356,66358-66362,66364-66366,66368-66372,66375-66379,66382,66384-66389,66391-66394"
",66396-66398,66401-66404,66406-66407,66411-66417,66419,66421-66423,66425,66427-66431,66433-664"
"34,66436-66441,66443-66448,66450-66453,66455,66460-66465,66468-66481,66485-66489,66493-66495,6"
"6497-66507,66509-66513,66515-66519,66522,66527-66528,66531,66541,66546-66547,66549-66550,66556"
",66558-66559,66561,66563,66566-66568,66573-66574,66578,66580,66585-66587,66589,66597-66598,666"
"00,66602,66605-66607,66613,66618,66627,66632-66634,66637,66639,66641,66649,66652,66656-66662,6"
"6667-66676,66678,66680,66682,66686-66688,66690,66693,66695-66696,66698-66704,66707-66708,66710"
"-66712,66714-66715,66719-66721,66723-66725,66727,66732-66736,66739-66741,66743-66751,66753-667"
"70,66772-66773,66775-66790,66793-66794,66796-66799,66801-66820,66822-66824,66826-66832,66834-6"
"6848,66850-66851,66854-66865,66867-66870,66872-66875,66877,66879-66888,66890-66893,66895,66898"
"-66921,66923-66937,66939,66942-66948,66950-66956,66958-66959,66962-66964,66966-66993,66995-669"
"97,66999-67004,67006,67008-67016,67019-67042,67045-67050,67052-67059,67061-67066,67068-67070,6"
"7072-67075,67077-67087,67089-67091,67093-67095,67099-67102,67105-67106,67108-67110,67112-67115"
",67117-67129,67131-67147,67149-67153,67155-67158,67160,67163-67166,67168-67173,67176,67179-671"
"88,67190-67191,67193-67194,67205,67213,67215,67222,67229-67230,67235,67237-67238,67246,67251-6"
"7252,67255,67257,67261,67264,67268-67269,67272-67274,67280,67283,67285,67287-67289,67291-67298"
",67300-67301,67304-67317,67321-67322,67324,67329,67331,67333,67337,67339,67343-67344,67351,673"
"54-67355,67357-67359,67362-67371,67375-67377,67380,67385,67387-67389,67391-67397,67399-67401,6"
"7405,67407-67408,67410-67417,67419,67421-67431,67433-67441,67443-67448,67450-67453,67455-67458"
",67460-67461,67463-67464,67468-67471,67473-67484,67487-67491,67493-67496,67500-67503,67505-675"
"06,67508-67509,67513-67518,67520,67522-67523,67525-67526,67528-67532,67534-67535,67538,67540-6"
"7546,67548-67564,67566-67568,67570-67574,67576-67577,67579-67581,67583-67585,67587-67607,67609"
",67611,67613-67637,67639-67643,67645-67650,67652-67655,67658-67664,67666,67668-67689,67691-676"
"92,67694-67702,67704-67709,67712-67713,67715-67719,67721,67723-67733,67736-67745,67747-67751,6"
"7753-67757,67759-67770,67772,67774-67775,67777-67778,67780-67792,67794-67813,67815-67817,67819"
"-67828,67830-67832,67834-67836,67838-67843,67846-67855,67858-67869,67871-67880,67882-67900,679"
"02-67909,67911-67922,67925-67926,67928,67931,67933,67935,67937-67946,67948-67955,67958-67960,6"
"7962-67964,67968-67983,67985-67986,67988-67990,67993-67995,67997-67998,68002-68004,68006-68008"
",68011,68014-68015,68019-68020,68027,68030-68033,68036-68038,68040-68046,68048-68056,68058-680"
"64,68066-68071,68073-68090,68092-68094,68096-68097,68100-68106,68108-68110,68113-68116,68118,6"
"8120-68132,68135-68137,68139,68143-68145,68147-68149,68151-68160,68162,68164-68165,68167-68176"
",68178-68183,68185,68187,68189-68203,68205-68208,68210-68211,68213-68219,68222-68243,68245-682"
"59,68261-68262,68264-68269,68271-68279,68281-68321,68324-68353,68355-68365,68367,68369-68378,6"
"8380-68390,68392-68398,68401-68405,68407,68409-68410,68413-68414,68419,68421-68423,68425-68426"
",68428-68429,68432,68434-68437,68440,68442,68444-68445,68450-68451,68455-68457,68460-68461,684"
"63-68464,68466-68467,68469-68498,68500-68514,68516-68522,68524-68537,68539-68541,68543,68545,6"
"8547-68550,68553-68560,68562-68570,68572,68574,68576-68584,68586-68603,68605-68614,68616-68618"
",68620-68625,68627-68633,68635-68640,68643,68646,68648-68663,68665-68674,68677-68683,68685-687"
"22,68724-68729,68731-68733,68736-68746,68748-68750,68753-68755,68757,68760-68779,68781-68788,6"
"8790-68797,68799,68801-68809,68811-68813,68815-68830,68832-68842,68844-68856,68858-68862,68864"
"-68869,68871-68905,68907-68913,68915-68917,68919-68920,68922-68944,68946-68961,68963-68973,689"
"75-68978,68980-68981,68983-68984,68986,68988-68999,69001,69003-69007,69010-69037,69039-69040,6"
"9042-69084,69086-69095,69097-69132,69134-69143,69145-69157,69159-69160,69162-69183,69185-69224"
",69226-69227,69230-69266,69269-69272,69275-69277,69279-69284,69287-69307,69309-69317,69319-693"
"28,69330-69338,69340,69342-69344,69346-69363,69366-69375,69377,69379-69383,69385-69432,69434-6"
"9444,69446-69453,69455-69457,69459-69468,69470-69494,69497-69531,69533-69541,69544,69546-69553"
",69555,69557-69572,69575-69598,69600-69651,69653,69655-69663,69665-69682,69684-69711,69713-697"
"28,69730-69739,69743,69745-69747,69750-69752,69754,69756-69760,69762-69768,69770-69787,69790,6"
"9792-69809,69811-69821,69823-69838,69840-69860,69862-69863,69865-69874,69876-69894,69896-69907"
",69909-69963,69965-69968,69970-69981,69983-70030,70032,70034-70061,70063-70079,70081-70083,700"
"85-70151,70153-70182,70185-70233,70236,70238-70240,70242-70250,70253-70263,70265-70280,70282-7"
"0285,70287-70317,70320-70322,70324-70329,70331-70332,70334-70362,70364-70382,70384,70387-70398"
",70400-70407,70409,70411,70413-70415,70417-70419,70421-70427,70429-70458,70461-70469,70471-704"
"87,70489-70500,70502-70506,70508-70520,70523-70526,70528-70535,70537-70548,70550-70555,70557-7"
"0561,70563-70592,70594-70597,70599-70640,70642-70646,70648-70649,70651-70689,70691,70693-70694"
",70696,70698-70770,70772-70788,70790-70798,70800-70801,70803-70827,70829-70846,70848-70856,708"
"58-70922,70924-70929,70931-70974,70976-70978,70980-70985,70987,70989-70996,70998-71053,71055-7"
"1065,71067-71088,71090-71093,71095,71097-71111,71113-71114,71116-71117,71119-71139,71141-71145"
",71149-71153,71155-71158,71160-71164,71166-71171,71173-71211,71213-71218,71220-71225,71227-712"
"31,71233,71236-71253,71255-71256,71258,71260-71261,71263-71279,71281-71305,71307-71312,71315-7"
"1335,71337-71349,71351-71354,71358-71366,71369-71377,71379,71381-71391,71393-71395,71397-71398"
",71400-71403,71405-71406,71408-71416,71419-71420,71422-71423,71425-71485,71487-71494,71496-714"
"97,71499-71560,71562-71572,71574-71591,71593-71596,71598-71608,71610-71666,71668-71717,71719-7"
"1742,71744-71769,71771-71811,71813-71817,71819-71868,71870-71904,71906-71908,71910-72007,72009"
"-72012,72014-72015,72017-72029,72031-72037,72041-72043,72046-72068,72070-72091,72094-72100,721"
"02-72120,72122-72160,72162-72193,72196-72199,72201-72221,72223-72251,72253-72257,72259-72299,7"
"2301-72306,72308-72311,72313-72315,72317-72380,72382-72398,72400-72402,72404-72405,72407-72454"
",72457-72459,72461-72494,72496-72512,72514-72550,72552-72617,72619-72631,72633-72671,72674-726"
"76,72678-72681,72683-72727,72729-72755,72757-72817,72819,72821-72877,72879-72905,72907-72936,7"
"2938-72939,72941-72995,72997-73019,73021-73047,73049-73061,73063-73064,73066-73089,73091-73112"
",73114,73116-73129,73131-73235,73237-73286,73288-73316,73318-73369,73371-73397,73399-73473,734"
"75-73504,73506-73541,73543-73792,73794-73796,73798-73826,73828-73855,73857-73865,73867-73899,7"
"3901-73902,73904-73916,73918,73921-74008,74010-74110,74113-74139,74141-74267,74269-74342,74344"
",74346-74349,74351-74373,74375-74480,74483-74523,74525-74585,74587-74592,74594-74635,74637-747"
"50,74752-74792,74794-74803,74805-74814,74816-74853,74855-74869,74871-74896,74898-74941,74943-7"
"5074,75076-75107,75109-75122,75124-75161,75163,75165-75229,75232-75255,75257-75262,75264-75380"
",75382-75430,75432-75449,75451-75490,75492-75522,75524-75534,75536-75563,75565-75609,75611-756"
"52,75655-75730,75732-75765,75768-75796,75798-75856,75858-75884,75887-75961,75963-76018,76020-7"
"6053,76055-76071,76073-76163,76165-76188,76190-76191,76193-76259,76261-76289,76291-76297,76299"
"-76313,76316-76370,76372-76413,76416-76450,76452-76468,76470-76494,76496-76577,76579-76590,765"
"92-76610,76612-76663,76665-76755,76757-76764,76766-76795,76797-77002,77004-77048,77050-77088,7"
"7090-77324,77326-77383,77385-77460,77462-77475,77477-77493,77495-77546,77548-77596,77598-77629"
",77631-77727,77729-77836,77838-77949,77951-77983,77985-78047,78049-78068,78070-78119,78121-781"
"28,78130-78238,78240-78248,78250-78300,78302-78373,78375-78441,78443-78458,78460-78480,78482-7"
"8535,78537-78545,78547-78783,78785-78794,78796-78827,78829-79076,79078-79218,79220-79222,79224"
"-79258,79260-79274,79276-79308,79310-79312,79314-79329,79331-79394,79396-79547,79549-79616,796"
"18-79683,79685-79863,79865-80004,80006-80077,80079-80082,80084-80110,80112-80211,80213-80304,8"
"0306-80333,80335-80342,80344-80362,80365-80366,80368-80633,80635-80640,80642-80645,80647-80728"
",80730-80941,80943-81018,81020-81098,81100-81351,81353-81542,81544-81753,81755-82390,82392-824"
"56,82458-84023\n"
"goog-whitemodule-digest256;a:1-67\n"
"goog-badresource-shavar;a:1-10\n"
