POST /webapp/wcs/stores/servlet/TCPAjaxEmailVerificationCmd HTTP/1.1
Host: tcp-perf.childrensplace.com
Connection: keep-alive
Content-Length: 81
Origin: https://tcp-perf.childrensplace.com
X-Requested-With: XMLHttpRequest
User-Agent: Mozilla/5.0 (Windows NT 6.1; Win64; x64) AppleWebKit/537.36 (KHTML, like Gecko) Chrome/56.0.2924.87 Safari/537.36
Content-Type: application/x-www-form-urlencoded
Accept: */*
Referer: https://tcp-perf.childrensplace.com/shop/LogonForm?new=Y&catalogId=10551&myAcctMain=&langId=-1&storeId=10151
Accept-Encoding: gzip, deflate, br
Accept-Language: en-US,en;q=0.8
Cookie: BIGipServer~TCP-RD1~vip-206.24.3.65_web1=rd1o00000000000000000000ffff0a381c07o80; JSESSIONID=0000zmsEufw2P7ySOoH3kMPld_Q:19ivs1mnm; AMCVS_9A0A1C8B5329646E0A490D4D%40AdobeOrg=1; iShippingCookie=US|en_US|USD|1.0|1.0; s_vi=[CS]v1|2C4E68818507EE95-4000010DA0000753[CE]; AMCV_9A0A1C8B5329646E0A490D4D%40AdobeOrg=-1176276602%7CMCIDTS%7C17207%7CMCMID%7C19768006287662953370298756180292457633%7CMCAAMLH-1487276931%7C7%7CMCAAMB-1487276932%7CNRX38WO0n5BH8Th-nqAG_A%7CMCOPTOUT-1486679331s%7CNONE%7CMCAID%7C2C4E68818507EE95-4000010DA0000753; IRMS_la3971=1486672133317; tcp_email_signup_modal_persistent=Thu, 09 Feb 2017 20:28:53 GMT; shopping_cart=new; s_cm=undefinedTyped%2FBookmarkedTyped%2FBookmarkedundefined; s_ev43=%5B%5B%27Direct%2520Load%27%2C%271486672134289%27%5D%5D; icxid=1486672135540-1933089361097342; icxid=1486672135540-1933089361097342; tcpState=CO; tcpGeoLoc=39.7393|-104.9844; ipe_s=363930cc-93fc-59db-d2aa-e6e304142499; s_sq=%5B%5BB%5D%5D; ipe.30858.pageViewedCount=1; WC_SESSION_ESTABLISHED=true; WC_PERSISTENT=%2BjzGrgyQTExgTzigxsTsYv0Ynac%3D%0A%3B2017-02-09+15%3A29%3A00.2_1486672128917-11435_10151_-1002%2C-1%2CUSD_10151; WC_AUTHENTICATION_-1002=-1002%2CCREcKdTsmfbwLmtJ7pHI4XznA4E%3D; WC_ACTIVEPOINTER=-1%2C10151; WC_USERACTIVITY_-1002=-1002%2C10151%2Cnull%2Cnull%2Cnull%2Cnull%2Cnull%2Cnull%2Cnull%2Cnull%2Clt4CEilJ%2BcWqROsb8zXyi34YESq%2Fz94b%2FxBf49rwrzd1pQWq9op%2B%2F3aeIT4HUfxnKtL%2Bf39ptCdoFvbRfoXwtXWaNZTGo%2BOO9Hdk2d9Y4fqXKhBuH%2Bns9BTxaqs2oPNvUoI9SUOmI4YU5XLs6OK64A5fnA1N1cu5L3xnndxCOKFAgdaHbggemdPWAXW4CVsqTtW5Ix7FI0P86BB3TcT%2B9w%3D%3D; WC_GENERIC_ACTIVITYDATA=[1433708185%3Atrue%3Afalse%3A0%3A%2F76B5dD9I2hCuSO47oN7x3sG2Gs%3D][com.ibm.commerce.context.audit.AuditContext|1486672128917-11435][com.ibm.commerce.store.facade.server.context.StoreGeoCodeContext|null%26null%26null%26null%26null%26null][CTXSETNAME|Store][com.ibm.commerce.context.globalization.GlobalizationContext|-1%26USD%26-1%26USD][com.ibm.commerce.catalog.businesscontext.CatalogContext|10551%26null%26false%26false%26false][com.ibm.commerce.context.ExternalCartContext|null][com.ibm.commerce.context.base.BaseContext|10151%26-1002%26-1002%26-1][com.ibm.commerce.context.experiment.ExperimentContext|null][com.ibm.commerce.context.entitlement.EntitlementContext|4000000000000000003%264000000000000000003%26null%26-2000%26null%26null%26null][com.ibm.commerce.giftcenter.context.GiftCenterContext|null%26null%26null]; BIGipServer~TCP-RD1~vip-206.24.3.65_web1-443=rd1o00000000000000000000ffff0a381c05o443; mbox=check#true#1486672204|session#1486672130564-94838#1486674004|PC#1486672130564-94838.20_15#1487881744; utag_main=v_id:015a24907aac001cd8065cf7329e04071002f069007bd$_sn:1$_ss:0$_pn:2%3Bexp-session$_st:1486673945195$ses_id:1486672132780%3Bexp-session$previous_refinements:%3Bexp-session$_prevpage:gl%3A%20my%20place%3A%20register%3Bexp-1486675745709; s_cpc=0; s_cc=true; MP_COUNTRY=us; MP_LANG=en; __cq_uuid=61b2d150-ef06-11e6-a1e9-0535dd1ca0f4; __cq_seg=; gpv_v28=gl%3A%20my%20place%3A%20register; s_vs=1; s_nr=1486672359211-New; undefined_s=First%20Visit; s_direct=1

