{
  "checkoutProfileUrl": "http://s619635dn1vl101.uslttn1.savvis.net/wcs/resources/store/10152/person/@self/checkoutProfile",
  "contactUrl": "http://s619635dn1vl101.uslttn1.savvis.net/wcs/resources/store/10152/person/@self/contact",
  "organizationDistinguishedName": "o=default organization,o=root organization",
  "orgizationId": "-2000",
  "resourceId": "http://s619635dn1vl101.uslttn1.savvis.net/wcs/resources/store/10152/person/@self",
  "resourceName": "person",
  "userId": "-1002",
  "x_airMilesAccount": "",
  "x_associateId": "",
  "x_country": "",
  "x_currency": "",
  "x_hasPLCC": "false",
  "x_isAllowedCheckout": "false",
  "x_isBOPISEnabled": "false",
  "x_isExpress": "false",
  "x_isROPISEnabled": "false",
  "x_isRegistered": "false",
  "x_isRememberedUser": "false",
  "x_language": "en_US",
  "x_myPlaceAcctNumber": "",
  "x_pointsAvailable": "0",
  "x_userState": "NG",
  "x_wicAddressDetails": "{}",
  "x_wicPlccCardNo": "",
  "x_wicPlccId": ""
}