..\\..\\browseFunctions.c(89): Continuing after Error -27778: [GENERAL_MSG_CAT_SSL_ERROR]connect to host "api-perf.childrensplace.com" failed: [10054] Connection reset by peer  	[MsgId: MERR-27778]
..\\..\\browseFunctions.c(100): Error: T01_Home Page_getESpot Failed with Error Code: "ERR_ESPOT_NOT_FOUND", Error Message: "This espot is not available"	[MsgId: MERR-17999]
..\\..\\browseFunctions.c(100): Error: T01_Home Page_getESpot Failed with Error Code: "ERR_ESPOT_NOT_FOUND", Error Message: "This espot is not available"	[MsgId: MERR-17999]
..\\..\\browseFunctions.c(100): Error: T01_Home Page_getESpot Failed with Error Code: "ERR_ESPOT_NOT_FOUND", Error Message: "This espot is not available"	[MsgId: MERR-17999]
..\\..\\browseFunctions.c(100): Error: T01_Home Page_getESpot Failed with Error Code: "ERR_ESPOT_NOT_FOUND", Error Message: "This espot is not available"	[MsgId: MERR-17999]
..\\..\\browseFunctions.c(100): Error: T01_Home Page_getESpot Failed with Error Code: "ERR_ESPOT_NOT_FOUND", Error Message: "This espot is not available"	[MsgId: MERR-17999]
..\\..\\browseFunctions.c(100): Error: T01_Home Page_getESpot Failed with Error Code: "ERR_ESPOT_NOT_FOUND", Error Message: "This espot is not available"	[MsgId: MERR-17999]
..\\..\\browseFunctions.c(100): Error: T01_Home Page_getESpot Failed with Error Code: "ERR_ESPOT_NOT_FOUND", Error Message: "This espot is not available"	[MsgId: MERR-17999]
..\\..\\browseFunctions.c(100): Error: T01_Home Page_getESpot Failed with Error Code: "ERR_ESPOT_NOT_FOUND", Error Message: "This espot is not available"	[MsgId: MERR-17999]
..\\..\\browseFunctions.c(100): Error: T01_Home Page_getESpot Failed with Error Code: "ERR_ESPOT_NOT_FOUND", Error Message: "This espot is not available"	[MsgId: MERR-17999]
..\\..\\browseFunctions.c(100): Error: T01_Home Page_getESpot Failed with Error Code: "ERR_ESPOT_NOT_FOUND", Error Message: "This espot is not available"	[MsgId: MERR-17999]
..\\..\\browseFunctions.c(100): Error: T02_Category Display_getESpot Failed with Error Code: "ERR_ESPOT_NOT_FOUND", Error Message: "This espot is not available"	[MsgId: MERR-17999]
..\\..\\browseFunctions.c(100): Error: T02_Category Display_getESpot Failed with Error Code: "ERR_ESPOT_NOT_FOUND", Error Message: "This espot is not available"	[MsgId: MERR-17999]
..\\..\\browseFunctions.c(100): Error: T02_Category Display_getESpot Failed with Error Code: "ERR_ESPOT_NOT_FOUND", Error Message: "This espot is not available"	[MsgId: MERR-17999]
