HTTP/1.1 200 OK
Date: Wed, 22 Feb 2017 16:51:20 GMT
Last-Modified: Thu, 29 Nov 2012 20:08:05 GMT
ETag: "7704-4cfa7d745b340"
Accept-Ranges: bytes
Content-Length: 30468
Cache-Control: max-age=3600
Expires: Wed, 22 Feb 2017 17:51:20 GMT
Keep-Alive: timeout=15, max=100
Connection: Keep-Alive
Content-Type: application/x-javascript

