HTTP/1.1 200 OK
Date: Wed, 22 Feb 2017 16:51:21 GMT
Last-Modified: Thu, 29 Nov 2012 20:08:05 GMT
ETag: "8f9-4cfa7d745b340"
Accept-Ranges: bytes
Content-Length: 2297
Cache-Control: max-age=3600
Expires: Wed, 22 Feb 2017 17:51:21 GMT
Keep-Alive: timeout=15, max=98
Connection: Keep-Alive
Content-Type: application/x-javascript

