HTTP/1.1 200 OK
Server: Apache
ETag: "5725e9934c89c8936ba3490ba0eab88b:1476813892"
Last-Modified: Tue, 18 Oct 2016 18:04:52 GMT
Accept-Ranges: bytes
Content-Length: 375
Content-Type: application/x-javascript
Expires: Wed, 22 Feb 2017 16:51:22 GMT
Cache-Control: max-age=0, no-cache, no-store
Pragma: no-cache
Date: Wed, 22 Feb 2017 16:51:22 GMT
Connection: keep-alive
Timing-Allow-Origin: *

