HTTP/1.1 200 OK
Date: Thu, 09 Feb 2017 20:29:03 GMT
Last-Modified: Thu, 10 Nov 2016 06:28:21 GMT
ETag: "5190-540ec7ad82b40"
Accept-Ranges: bytes
Cache-Control: max-age=3600
Expires: Thu, 09 Feb 2017 21:29:03 GMT
Vary: Accept-Encoding
Content-Encoding: gzip
Content-Length: 20883
Keep-Alive: timeout=10, max=96
Connection: Keep-Alive
Content-Type: text/html

