"\n"
"Y\n"
"\x06\n"
"\x04\x08\x03\x10\x02\x12%\n"
"\x06\n"
"\x04\x08\x03\x10\x01\x12\x12\t^<q\xD5K\xBD\xEC\xBD\x11\x0FL.\x8B\x03\x18W\xCC\x1A\x07\x08\x86\x18"
"\x10\x03\x18\x01\x1A\x18\x08\x19\x12\x14CQF\xCB\x089b\xAC\x18Rd\x91\xFF=/f\x8D\xCC\x17\xEF \xBB"
"\x91\x9E\xAA\x95\xFE\x02(\x002\x0128\x9F\x082\x93\x01\n"
"\x8E\x01\n"
"\x07\x08\x03\x10\xAC\xA1\xCD\t\x12qMozilla/5.0 (Windows NT 6.1; Win64; x64) AppleWebKit/537.36"
" (KHTML, like Gecko) Chrome/56.0.2924.87 Safari/537.36\x1A\x03C++\"\x0Bchrome-sync \x01"
