HTTP/1.1 204 No Content
Cache-Control: no-cache, must-revalidate
Pragma: no-cache
Content-Length: 0
Expires: Fri, 01 Jan 1990 00:00:00 GMT
Server: Microsoft-IIS/8.5
Access-Control-Allow-Origin: *
X-MSEdge-Ref: Ref A: 09E2CA41BB31494B8424A1E06F6958E2 Ref B: CHGEDGE0708 Ref C: Thu Feb  9 12:36:34 2017 PST
Date: Thu, 09 Feb 2017 20:36:34 GMT

