GET /v3/payment/getCoupon HTTP/1.1
storeId: 10152
catalogId: 10552
langId: -1
User-Agent: Mozilla/5.0 (Windows NT 6.1; Win64; x64) AppleWebKit/537.36 (KHTML, like Gecko) Chrome/56.0.2924.87 Safari/537.36
Accept-Encoding: gzip, deflate, sdch
Accept-Language: en-US,en;q=0.8
Accept: */*
Connection: Keep-Alive
Host: api-perf.childrensplace.com
Cookie: tcp_isregistered=true; tcp_firstname=Joe; WC_PERSISTENT=htthEzknjnqCjwPJjOwn3H%2BoGQ8%3D%0A%3B2017-05-17+11%3A25%3A42.546_1495034742142-241028_10152; BIGipServer~TCP-RD1~vip-10.56.26.209_web2-443=rd1o00000000000000000000ffff0a381c04o443; WC_AUTHENTICATION_268021635=268021635%2CH6y6MJPTwzjjcbAnW3cc02cz8ws%3D; JSESSIONID=0000NW2Sfr-TL4LKrrRLgkNpXKI:19ivs1rkj; WC_USERACTIVITY_268021635=268021635%2C10152%2C0%2Cnull%2Cnull%2Cnull%2Cnull%2Cnull%2Cnull%2Cnull%2CJzvVg5WRcNKRif0n5GznlEe1OZVG89AOQpi7PmZnaYivPxTgkLdxeoWrhjUMrHcCCTkBBT3UOMSMnyWTH6w7kkJWt3ap%2Fzw6PX8O63U%2F%2Bn3AgPT9sR9dQ7xoQFuGg%2F1dkWv84CDMqDWyiR%2FCSAxh8alm%2FKH0S37NzXL%2BdcaHmddri2lZDcUyA0I9vCVFnSu9lsZYQh58gLoVnVQjvhsU9w%3D%3D; WC_SESSION_ESTABLISHED=true; tcp_email_signup_modal_persistent=17 May 2017 15:25:42 GMT; WC_ACTIVEPOINTER=-1%2C10152; BIGipServer~TCP-RD1~PERF-API-Pool-10.56.32.130_8443=rd1o00000000000000000000ffff0a381c0eo8443; BIGipServer~TCP-RD1~vip-10.56.26.209_web2=rd1o00000000000000000000ffff0a381c07o80; acctId=""; acctStatus=active; tier=1; pntsAvail=0

