HTTP/1.1 200 OK
Date: Fri, 12 May 2017 17:13:34 GMT
CACHED_RESPONSE: true
Pragma: no-cache
Cache-Control: no-store, no-cache
Expires: now
Set-Cookie: JSESSIONID=0000tJBW3T96mcTfOz7ZoP_uH_G:19ivs1qlt; Path=/
Set-Cookie: WC_PERSISTENT=c1HaGU3Ivzu9Z%2B%2FIxWUt51fiIjc%3D%0A%3B2017-05-12+13%3A13%3A34.284_1494609214284-280967_0; Expires=Mon, 22-May-17 17:13:34 GMT; Path=/; Domain=.childrensplace.com
Vary: Accept-Encoding
Content-Encoding: gzip
Keep-Alive: timeout=10, max=100
Connection: Keep-Alive
Transfer-Encoding: chunked
Content-Type: text/html;charset=UTF-8
Content-Language: en-US
Set-Cookie: BIGipServer~TCP-RD1~vip-10.56.26.209_web2-443=rd1o00000000000000000000ffff0a381c06o443; path=/

