HTTP/1.1 200 OK
Date: Fri, 12 May 2017 17:08:55 GMT
CACHED_RESPONSE: true
Pragma: no-cache
Cache-Control: no-store, no-cache
Expires: now
TCP_Akamai_CacheId: 350015
Set-Cookie: JSESSIONID=00002yvEU-bMDR12YXq52pzWWEM:19ivs1mnm; Path=/
Set-Cookie: WC_PERSISTENT=rk4VcEcJpNyzVZKVelNb0QG35h8%3D%0A%3B2017-05-12+13%3A08%3A55.991_1494608935991-277579_0; Expires=Mon, 22-May-17 17:08:55 GMT; Path=/; Domain=.childrensplace.com
Vary: Accept-Encoding
Content-Encoding: gzip
Keep-Alive: timeout=10, max=100
Connection: Keep-Alive
Transfer-Encoding: chunked
Content-Type: text/html;charset=UTF-8
Content-Language: en-US
Set-Cookie: BIGipServer~TCP-RD1~vip-10.56.26.209_web2-443=rd1o00000000000000000000ffff0a381c07o443; path=/

