"<?xml version=\"1.0\" encoding=\"UTF-8\"?><request protocol=\"3.0\" version=\"chrome-56.0.2924"
".87\" prodversion=\"56.0.2924.87\" requestid=\"{0079b1f0-af83-478c-8f98-77931beadca6}\" lang=\""
"en-US\" updaterchannel=\"\" prodchannel=\"\" os=\"win\" arch=\"x64\" nacl_arch=\"x86-64\" doma"
"injoined=\"1\"><hw physmemory=\"8\"/><os platform=\"Windows\" arch=\"x86_64\" version=\"6.1.76"
"01.23642\" sp=\"Service Pack 1\"/><updater autoupdatecheckenabled=\"1\" lastchecked=\"0\" last"
"started=\"0\" name=\"Omaha\" updatepolicy=\"-1\" version=\"1.3.32.7\"/><app appid=\"gcmjkmgdlg"
"nkkcocmoeiminaijmmjnii\" version=\"4\" brand=\"GGLS\" cohort=\"1:bm1:gc3@0.01,gdx@0.09\" cohor"
"tname=\"M54AndAbove\"><updatecheck/><ping rd=\"3692\" ping_freshness=\"{82c08010-c45b-458f-935"
"1-697c61d85fb4}\"/><packages><package fp=\"1.21d48f3bdf5a64793af850a78585948829d07fb981be4965d"
"41f19bc6dd4e58b\"/></packages></app><app appid=\"gkmgaooipdjhmangpemjhigmamcehddo\" version=\""
"16.90.0\" brand=\"GGLS\" cohort=\"1:gcf:\" cohortname=\"Stable\"><updatecheck/><ping rd=\"3692"
"\" ping_freshness=\"{fec03f47-76dc-4048-8452-c1bbf0168df4}\"/><packages><package fp=\"1.12d54f"
"2bc39803b0d4743aa8c3c22adf2c377f83e714723b6f31a26fcaca4f49\"/></packages></app><app appid=\"hf"
"nkpimlhhgieaddgfemjhofmfblmnib\" version=\"3542\" brand=\"GGLS\"><updatecheck/><ping rd=\"3692"
"\" ping_freshness=\"{2920d21b-367c-4ccd-8a5e-9e5bc4f645e2}\"/></app><app appid=\"hnimpnehoodhe"
"edghdeeijklkeaacbdc\" version=\"0.57.44.2492\" brand=\"GGLS\"><updatecheck/><ping rd=\"3692\" "
"ping_freshness=\"{02c9648b-f714-49bd-9d39-242a3b01af0b}\"/><packages><package fp=\"1.1cd7dc205"
"6afaa0f6a705c9a17d22bba6578b33f5dae9e2d6518a0bfcced2396\"/></packages></app><app appid=\"kfokl"
"mclfodeliojeaekpoflbkkhojea\" version=\"0.0.0.0\" brand=\"GGLS\"><updatecheck/><ping rd=\"3692"
"\" ping_freshness=\"{aaade637-dd58-4fc6-9a8e-16c1b8d4d7b5}\"/></app><app appid=\"khaoiebndkojl"
"mppeemjhbpbandiljpe\" version=\"8\" brand=\"GGLS\" cohort=\"1:cux:\" cohortname=\"Auto\"><upda"
"techeck/><ping rd=\"3692\" ping_freshness=\"{662630e5-22c0-42e2-8f80-6ba5e2743a3b}\"/><package"
"s><package fp=\"1.b88038478ece1e1edb9bfc0d8e5920cf84b2b2a8f8bf5f71f4183e0788e9ff5d\"/></packag"
"es></app><app appid=\"mimojjlkmoijpicakmndhoigimigcmbb\" version=\"24.0.0.194\" brand=\"GGLS\""
" cohort=\"1:d0j:\" cohortname=\"Chrome [M50... M59]\"><updatecheck/><ping rd=\"3692\" ping_fre"
"shness=\"{ac01586d-fd12-4bf1-9ca6-798bb4aa1c1c}\"/><packages><package fp=\"1.b264dce8d3ef2c68b"
"b8c8f6e08054f082fa8b97c99d495e79aa304b030fb7c36\"/></packages></app><app appid=\"npdjjkjlcidkj"
"lamlmmdelcjbcpdjocm\" version=\"0.0.0.0\" brand=\"GGLS\"><updatecheck/><ping rd=\"3692\" ping_"
"freshness=\"{ce2ed354-a76e-43a8-8554-eab7687b1762}\"/></app><app appid=\"oafdbfcohdcjandcenmcc"
"fopbeklnicp\" version=\"7\" brand=\"GGLS\"><updatecheck/><ping rd=\"3692\" ping_freshness=\"{b"
"49d8158-8b9a-4584-a970-4acf057c6527}\"/><packages><package fp=\"1.1d358758a4bc326dadea05039ccb"
"e0f26f6cc478b796f6a967f74c8fadf73d8a\"/></packages></app><app appid=\"oimompecagnajdejgnnjijob"
"ebaeigek\" version=\"1.4.8.962\" brand=\"GGLS\"><updatecheck/><ping rd=\"3692\" ping_freshness"
"=\"{adeb9f9c-75c0-4d29-9057-e0d9c4dc8581}\"/></app><app appid=\"ojjgnpkioondelmggbekfhllhdaimn"
"ho\" version=\"299\" brand=\"GGLS\" cohort=\"1:0:\" cohortname=\"Auto\"><updatecheck/><ping rd"
"=\"3692\" ping_freshness=\"{43a61663-e444-408e-909b-6a02ad03d9ee}\"/><packages><package fp=\"1"
".b0ffcc0985c50512bf6bb4f0033063a0aa700e773cfcc2d6940df4dcfc2bcc34\"/></packages></app></reques"
"t>"
