HTTP/1.1 200 OK
Cache-Control: no-cache, no-store, max-age=0, must-revalidate
Pragma: no-cache
Expires: Mon, 01 Jan 1990 00:00:00 GMT
Date: Thu, 09 Feb 2017 20:36:34 GMT
X-Cup-Server-Proof: 304502210088a7054dd7db6672d5f1dbdff2e94e8d9a39ba05dafc6fe913c294b0c0b3816e02205d7061cc2f6b4dcd05699febb70d3cc95ea2ac6472727497d242cd9c9300aff4:37a48eac6b112ace0315cad52e882d60845e74ee085670e27b432961ba72b777
ETag: W/"304502210088a7054dd7db6672d5f1dbdff2e94e8d9a39ba05dafc6fe913c294b0c0b3816e02205d7061cc2f6b4dcd05699febb70d3cc95ea2ac6472727497d242cd9c9300aff4:37a48eac6b112ace0315cad52e882d60845e74ee085670e27b432961ba72b777"
Content-Type: text/xml; charset=UTF-8
X-Daynum: 3692
X-Daystart: 45394
Content-Encoding: gzip
X-Content-Type-Options: nosniff
X-Frame-Options: SAMEORIGIN
X-XSS-Protection: 1; mode=block
Server: GSE
Alt-Svc: quic=":443"; ma=2592000; v="35,34"
Transfer-Encoding: chunked

