GET /v3/tcporder/getUnqualifiedItems HTTP/1.1
Referer: https://api-perf.childrensplace.com/v3/tcporder/getUnqualifiedItems
storeId: 10151
catalogId: 10551
langId: -1
User-Agent: Mozilla/4.0 (compatible; MSIE 6.0; Windows NT)
Accept: */*
Connection: Keep-Alive
Host: api-perf.childrensplace.com
Cookie: WC_PERSISTENT=B0yCK%2Bu0cES6skMCio%2BAkk9Gqro%3D%0A%3B2017-08-09+16%3A47%3A43.256_1502311656419-46088_10151_274610020%2C-1%2CUSD_10151; BIGipServer~TCP-RD1~vip-10.56.26.209_web2-443=rd1o00000000000000000000ffff0a381c05o443; JSESSIONID=0000CgZkEDiWM6wqWJZ9jteu-7l:19ivs1ngk; BIGipServer~TCP-RD1~PERF-API-Pool-10.56.32.130_8443=rd1o00000000000000000000ffff0a381c0eo8443; WC_SESSION_ESTABLISHED=true; WC_ACTIVEPOINTER=-1%2C10151; BIGipServer~TCP-RD1~vip-10.56.26.209_web2=rd1o00000000000000000000ffff0a381c04o80; hasPLCC=false; WC_AUTHENTICATION_274610020=274610020%2Cg6%2Bjplbgr5m5pJXWr5QfLxUB%2F8s%3D; WC_USERACTIVITY_274610020=274610020%2C10151%2Cnull%2Cnull%2Cnull%2Cnull%2Cnull%2Cnull%2Cnull%2Cnull%2C2%2FxfdLrp91GUqwe0uDe0m478Ei02%2B4aJUJfzi6CoLQIYd9WZeeGZZeBTpUhHKFQDhhf26x7cpXa17b7XDzXZtmzzI1XkxQ%2FGGkIhkFKFb6T4gg4mxrdXln%2BYrwBJTy8f3s%2FtE3fA%2F8gHPQy%2BtpVxNUldu967QJT0G%2BP4QNxO5ED8Zrsm9xFscGtwYdVL2m477KzGR%2F4fHeW759AMS6av%2Bg%3D%3D; minicartcookie=4|USD57.41|false; numOfItems=4; orderItemsQtyList=1,1,1,1

