<!DOCTYPE HTML PUBLIC "-//IETF//DTD HTML 2.0//EN">
<html><head>
<title>301 Moved Permanently</title>
</head><body>
<h1>Moved Permanently</h1>
<p>The document has moved <a href="http://tcp-perf.childrensplace.com/shop/us/home">here</a>.</p>
<hr>
<address>IBM_HTTP_Server at tcp-perf.childrensplace.com Port 80</address>
</body></html>
