PUT /v3/resetpassword HTTP/1.1
Content-Type: application/json
Referer: https://tcp-perf.childrensplace.com/webapp/wcs/stores/servlet/TCPReservationSubmitCmd
storeId: 10151
catalogId: 10551
langId: -1
User-Agent: Mozilla/4.0 (compatible; MSIE 6.0; Windows NT)
Accept-Encoding: gzip, deflate
Accept: */*
Connection: Keep-Alive
Host: api-perf.childrensplace.com
Cookie: WC_PERSISTENT=NU2cp46tJ8viI9cQ00tOrEf91uQ%3D%0A%3B2017-04-24+14%3A35%3A02.832_1493058781066-2820_10151_264940051%2C-1%2CUSD_10151; BIGipServer~TCP-RD1~vip-10.56.26.209_web2-443=rd1o00000000000000000000ffff0a381c06o443; WC_SESSION_ESTABLISHED=true; JSESSIONID=00001coeHSlGXH5R8gngIWnfiqN:19ivs1rkj; WC_ACTIVEPOINTER=-1%2C10151; BIGipServer~TCP-RD1~PERF-API-Pool-10.56.32.130_8443=rd1o00000000000000000000ffff0a381c0eo8443; BIGipServer~TCP-RD1~vip-10.56.26.209_web2=rd1o00000000000000000000ffff0a381c06o80; tcp_email_signup_modal_persistent=24 Apr 2017 18:35:02 GMT; WC_AUTHENTICATION_264940051=264940051%2C0nSiZKFZ2VDzrYp0p8%2B13UeT5IA%3D; WC_USERACTIVITY_264940051=264940051%2C10151%2Cnull%2Cnull%2Cnull%2Cnull%2Cnull%2Cnull%2Cnull%2Cnull%2CBvUWHGBdTD1kO9UZc26dGo0vrL1dxZWu0wMGAs8HouNC1R%2BLsJ%2B2JmfPsYQMs8roDyO2pq8uJZ%2Fzjzucci1QRO%2BRzLyXbx81%2BUG0ngUupPXsCOHuy8KgH78j8%2FovRkFy0yZdUzvMFrgW9CWwGgheL80JdbKsYYHr8nZ2DbkIkzG8YDEEfQNckJZmqjhvOSM3oZlJmU%2BlVyVWu%2FFzX%2FbPAA%3D%3D
Content-Length: 162

