LOGON_ID,LOGON_PASSWORD
TCPPERFV70033322.622@CHILDRENSPLACE.COM,asdf1234
TCPPERFV70033325.467@CHILDRENSPLACE.COM,asdf1234
TCPPERFV70033328.234@CHILDRENSPLACE.COM,asdf1234
TCPPERFV70033331.202@CHILDRENSPLACE.COM,asdf1234
TCPPERFV70033333.973@CHILDRENSPLACE.COM,asdf1234
TCPPERFV70033336.841@CHILDRENSPLACE.COM,asdf1234
TCPPERFV70033339.630@CHILDRENSPLACE.COM,asdf1234
TCPPERFV70033342.340@CHILDRENSPLACE.COM,asdf1234
TCPPERFV70033345.663@CHILDRENSPLACE.COM,asdf1234
TCPPERFV70033348.537@CHILDRENSPLACE.COM,asdf1234
TCPPERFV70033351.337@CHILDRENSPLACE.COM,asdf1234
TCPPERFV70033354.514@CHILDRENSPLACE.COM,asdf1234
TCPPERFV70033357.369@CHILDRENSPLACE.COM,asdf1234
TCPPERFV70033400.270@CHILDRENSPLACE.COM,asdf1234
TCPPERFV70033403.067@CHILDRENSPLACE.COM,asdf1234
TCPPERFV70033405.949@CHILDRENSPLACE.COM,asdf1234
TCPPERFV70033408.799@CHILDRENSPLACE.COM,asdf1234
TCPPERFV70033412.010@CHILDRENSPLACE.COM,asdf1234
TCPPERFV70033414.796@CHILDRENSPLACE.COM,asdf1234
TCPPERFV70033417.718@CHILDRENSPLACE.COM,asdf1234
TCPPERFV70033420.475@CHILDRENSPLACE.COM,asdf1234
TCPPERFV70033423.239@CHILDRENSPLACE.COM,asdf1234
TCPPERFV70033426.091@CHILDRENSPLACE.COM,asdf1234
TCPPERFV70033428.928@CHILDRENSPLACE.COM,asdf1234
TCPPERFV70033431.794@CHILDRENSPLACE.COM,asdf1234
TCPPERFV70033434.584@CHILDRENSPLACE.COM,asdf1234
TCPPERFV70033437.359@CHILDRENSPLACE.COM,asdf1234
TCPPERFV70033440.059@CHILDRENSPLACE.COM,asdf1234
TCPPERFV70033443.134@CHILDRENSPLACE.COM,asdf1234
TCPPERFV70033445.895@CHILDRENSPLACE.COM,asdf1234
TCPPERFV70033448.592@CHILDRENSPLACE.COM,asdf1234
TCPPERFV70033451.441@CHILDRENSPLACE.COM,asdf1234
TCPPERFV70033454.149@CHILDRENSPLACE.COM,asdf1234
TCPPERFV70033456.753@CHILDRENSPLACE.COM,asdf1234
TCPPERFV70033459.354@CHILDRENSPLACE.COM,asdf1234
TCPPERFV70033501.973@CHILDRENSPLACE.COM,asdf1234
TCPPERFV70033504.557@CHILDRENSPLACE.COM,asdf1234
TCPPERFV70033508.147@CHILDRENSPLACE.COM,asdf1234
TCPPERFV70033510.709@CHILDRENSPLACE.COM,asdf1234
TCPPERFV70033513.394@CHILDRENSPLACE.COM,asdf1234
TCPPERFV70033516.069@CHILDRENSPLACE.COM,asdf1234
TCPPERFV70033518.739@CHILDRENSPLACE.COM,asdf1234
TCPPERFV70033521.459@CHILDRENSPLACE.COM,asdf1234
TCPPERFV70033524.042@CHILDRENSPLACE.COM,asdf1234
TCPPERFV70033526.796@CHILDRENSPLACE.COM,asdf1234
TCPPERFV70033537.841@CHILDRENSPLACE.COM,asdf1234
TCPPERFV70033540.863@CHILDRENSPLACE.COM,asdf1234
TCPPERFV70033543.501@CHILDRENSPLACE.COM,asdf1234
TCPPERFV70033546.314@CHILDRENSPLACE.COM,asdf1234
TCPPERFV70033549.131@CHILDRENSPLACE.COM,asdf1234
TCPPERFV70033552.210@CHILDRENSPLACE.COM,asdf1234
TCPPERFV70033554.979@CHILDRENSPLACE.COM,asdf1234
TCPPERFV70033557.720@CHILDRENSPLACE.COM,asdf1234
TCPPERFV70033601.684@CHILDRENSPLACE.COM,asdf1234
TCPPERFV70033604.383@CHILDRENSPLACE.COM,asdf1234
TCPPERFV70033607.178@CHILDRENSPLACE.COM,asdf1234
TCPPERFV70033609.873@CHILDRENSPLACE.COM,asdf1234
TCPPERFV70033612.652@CHILDRENSPLACE.COM,asdf1234
TCPPERFV70033615.549@CHILDRENSPLACE.COM,asdf1234
TCPPERFV70033618.147@CHILDRENSPLACE.COM,asdf1234
TCPPERFV70033620.848@CHILDRENSPLACE.COM,asdf1234
TCPPERFV70033623.491@CHILDRENSPLACE.COM,asdf1234
TCPPERFV70033626.435@CHILDRENSPLACE.COM,asdf1234
TCPPERFV70033629.260@CHILDRENSPLACE.COM,asdf1234
TCPPERFV70033631.896@CHILDRENSPLACE.COM,asdf1234
TCPPERFV70033634.480@CHILDRENSPLACE.COM,asdf1234
TCPPERFV70033638.103@CHILDRENSPLACE.COM,asdf1234
TCPPERFV70033640.827@CHILDRENSPLACE.COM,asdf1234
TCPPERFV70033643.482@CHILDRENSPLACE.COM,asdf1234
TCPPERFV70033646.149@CHILDRENSPLACE.COM,asdf1234
TCPPERFV70033648.764@CHILDRENSPLACE.COM,asdf1234
TCPPERFV70033651.345@CHILDRENSPLACE.COM,asdf1234
TCPPERFV70033654.091@CHILDRENSPLACE.COM,asdf1234
TCPPERFV70033656.777@CHILDRENSPLACE.COM,asdf1234
TCPPERFV70033659.477@CHILDRENSPLACE.COM,asdf1234
TCPPERFV70033702.404@CHILDRENSPLACE.COM,asdf1234
TCPPERFV70033705.028@CHILDRENSPLACE.COM,asdf1234
TCPPERFV70033707.679@CHILDRENSPLACE.COM,asdf1234
TCPPERFV70033710.347@CHILDRENSPLACE.COM,asdf1234
TCPPERFV70033712.900@CHILDRENSPLACE.COM,asdf1234
TCPPERFV70033715.613@CHILDRENSPLACE.COM,asdf1234
TCPPERFV70033718.282@CHILDRENSPLACE.COM,asdf1234
TCPPERFV70033720.957@CHILDRENSPLACE.COM,asdf1234
TCPPERFV70033723.511@CHILDRENSPLACE.COM,asdf1234
TCPPERFV70033726.271@CHILDRENSPLACE.COM,asdf1234
TCPPERFV70033728.882@CHILDRENSPLACE.COM,asdf1234
TCPPERFV70033731.489@CHILDRENSPLACE.COM,asdf1234
TCPPERFV70033734.620@CHILDRENSPLACE.COM,asdf1234
TCPPERFV70033737.280@CHILDRENSPLACE.COM,asdf1234
TCPPERFV70033740.298@CHILDRENSPLACE.COM,asdf1234
TCPPERFV70033744.739@CHILDRENSPLACE.COM,asdf1234
TCPPERFV70033747.334@CHILDRENSPLACE.COM,asdf1234
TCPPERFV70033750.093@CHILDRENSPLACE.COM,asdf1234
TCPPERFV70033752.717@CHILDRENSPLACE.COM,asdf1234
TCPPERFV70033755.503@CHILDRENSPLACE.COM,asdf1234
TCPPERFV70033758.093@CHILDRENSPLACE.COM,asdf1234
TCPPERFV70033800.733@CHILDRENSPLACE.COM,asdf1234
TCPPERFV70033803.487@CHILDRENSPLACE.COM,asdf1234
TCPPERFV70033806.097@CHILDRENSPLACE.COM,asdf1234
TCPPERFV70033808.850@CHILDRENSPLACE.COM,asdf1234
TCPPERFV70033811.576@CHILDRENSPLACE.COM,asdf1234
TCPPERFV70033814.160@CHILDRENSPLACE.COM,asdf1234
TCPPERFV70033816.771@CHILDRENSPLACE.COM,asdf1234
TCPPERFV70033819.453@CHILDRENSPLACE.COM,asdf1234
TCPPERFV70033822.283@CHILDRENSPLACE.COM,asdf1234
TCPPERFV70033824.888@CHILDRENSPLACE.COM,asdf1234
TCPPERFV70033827.549@CHILDRENSPLACE.COM,asdf1234
TCPPERFV70033830.233@CHILDRENSPLACE.COM,asdf1234
TCPPERFV70033832.860@CHILDRENSPLACE.COM,asdf1234
TCPPERFV70033835.473@CHILDRENSPLACE.COM,asdf1234
TCPPERFV70033838.097@CHILDRENSPLACE.COM,asdf1234
TCPPERFV70033840.875@CHILDRENSPLACE.COM,asdf1234
TCPPERFV70033843.485@CHILDRENSPLACE.COM,asdf1234
TCPPERFV70033846.321@CHILDRENSPLACE.COM,asdf1234
TCPPERFV70033848.889@CHILDRENSPLACE.COM,asdf1234
TCPPERFV70033851.526@CHILDRENSPLACE.COM,asdf1234
TCPPERFV70033854.132@CHILDRENSPLACE.COM,asdf1234
TCPPERFV70033856.851@CHILDRENSPLACE.COM,asdf1234
TCPPERFV70033859.392@CHILDRENSPLACE.COM,asdf1234
TCPPERFV70033902.045@CHILDRENSPLACE.COM,asdf1234
TCPPERFV70033904.696@CHILDRENSPLACE.COM,asdf1234
TCPPERFV70033907.146@CHILDRENSPLACE.COM,asdf1234
TCPPERFV70033909.861@CHILDRENSPLACE.COM,asdf1234
TCPPERFV70033912.599@CHILDRENSPLACE.COM,asdf1234
TCPPERFV70033915.202@CHILDRENSPLACE.COM,asdf1234
TCPPERFV70033917.895@CHILDRENSPLACE.COM,asdf1234
TCPPERFV70033920.404@CHILDRENSPLACE.COM,asdf1234
TCPPERFV70033923.002@CHILDRENSPLACE.COM,asdf1234
TCPPERFV70033925.544@CHILDRENSPLACE.COM,asdf1234
TCPPERFV70033928.187@CHILDRENSPLACE.COM,asdf1234
TCPPERFV70033931.128@CHILDRENSPLACE.COM,asdf1234
TCPPERFV70033933.639@CHILDRENSPLACE.COM,asdf1234
TCPPERFV70033936.459@CHILDRENSPLACE.COM,asdf1234
TCPPERFV70033939.125@CHILDRENSPLACE.COM,asdf1234
TCPPERFV70033942.366@CHILDRENSPLACE.COM,asdf1234
TCPPERFV70033944.937@CHILDRENSPLACE.COM,asdf1234
TCPPERFV70033947.560@CHILDRENSPLACE.COM,asdf1234
TCPPERFV70033950.184@CHILDRENSPLACE.COM,asdf1234
TCPPERFV70033952.826@CHILDRENSPLACE.COM,asdf1234
TCPPERFV70033955.412@CHILDRENSPLACE.COM,asdf1234
TCPPERFV70033958.138@CHILDRENSPLACE.COM,asdf1234
TCPPERFV70034000.710@CHILDRENSPLACE.COM,asdf1234
TCPPERFV70034003.496@CHILDRENSPLACE.COM,asdf1234
TCPPERFV70034006.211@CHILDRENSPLACE.COM,asdf1234
TCPPERFV70034008.809@CHILDRENSPLACE.COM,asdf1234
TCPPERFV70034011.563@CHILDRENSPLACE.COM,asdf1234
TCPPERFV70034014.122@CHILDRENSPLACE.COM,asdf1234
TCPPERFV70034016.796@CHILDRENSPLACE.COM,asdf1234
TCPPERFV70034019.421@CHILDRENSPLACE.COM,asdf1234
TCPPERFV70034022.270@CHILDRENSPLACE.COM,asdf1234
TCPPERFV70034024.911@CHILDRENSPLACE.COM,asdf1234
TCPPERFV70034027.512@CHILDRENSPLACE.COM,asdf1234
TCPPERFV70034030.111@CHILDRENSPLACE.COM,asdf1234
TCPPERFV70034032.778@CHILDRENSPLACE.COM,asdf1234
TCPPERFV70034035.438@CHILDRENSPLACE.COM,asdf1234
TCPPERFV70034038.007@CHILDRENSPLACE.COM,asdf1234
TCPPERFV70034040.495@CHILDRENSPLACE.COM,asdf1234
TCPPERFV70034043.100@CHILDRENSPLACE.COM,asdf1234
TCPPERFV70034046.728@CHILDRENSPLACE.COM,asdf1234
TCPPERFV70034049.482@CHILDRENSPLACE.COM,asdf1234
TCPPERFV70034052.499@CHILDRENSPLACE.COM,asdf1234
TCPPERFV70034055.236@CHILDRENSPLACE.COM,asdf1234
TCPPERFV70034058.047@CHILDRENSPLACE.COM,asdf1234
TCPPERFV70034100.906@CHILDRENSPLACE.COM,asdf1234
TCPPERFV70034103.696@CHILDRENSPLACE.COM,asdf1234
TCPPERFV70034106.479@CHILDRENSPLACE.COM,asdf1234
TCPPERFV70034109.188@CHILDRENSPLACE.COM,asdf1234
TCPPERFV70034111.890@CHILDRENSPLACE.COM,asdf1234
TCPPERFV70034114.471@CHILDRENSPLACE.COM,asdf1234
TCPPERFV70034117.137@CHILDRENSPLACE.COM,asdf1234
TCPPERFV70034119.763@CHILDRENSPLACE.COM,asdf1234
TCPPERFV70034122.270@CHILDRENSPLACE.COM,asdf1234
TCPPERFV70034124.895@CHILDRENSPLACE.COM,asdf1234
TCPPERFV70034128.129@CHILDRENSPLACE.COM,asdf1234
TCPPERFV70034130.719@CHILDRENSPLACE.COM,asdf1234
TCPPERFV70034133.372@CHILDRENSPLACE.COM,asdf1234
TCPPERFV70034135.930@CHILDRENSPLACE.COM,asdf1234
TCPPERFV70034138.687@CHILDRENSPLACE.COM,asdf1234
TCPPERFV70034141.212@CHILDRENSPLACE.COM,asdf1234
TCPPERFV70034143.755@CHILDRENSPLACE.COM,asdf1234
TCPPERFV70034146.426@CHILDRENSPLACE.COM,asdf1234
TCPPERFV70034149.000@CHILDRENSPLACE.COM,asdf1234
TCPPERFV70034151.828@CHILDRENSPLACE.COM,asdf1234
TCPPERFV70034156.510@CHILDRENSPLACE.COM,asdf1234
TCPPERFV70034159.137@CHILDRENSPLACE.COM,asdf1234
TCPPERFV70034201.651@CHILDRENSPLACE.COM,asdf1234
TCPPERFV70034204.510@CHILDRENSPLACE.COM,asdf1234
TCPPERFV70034208.062@CHILDRENSPLACE.COM,asdf1234
TCPPERFV70034210.608@CHILDRENSPLACE.COM,asdf1234
TCPPERFV70034213.340@CHILDRENSPLACE.COM,asdf1234
TCPPERFV70034216.043@CHILDRENSPLACE.COM,asdf1234
TCPPERFV70034218.842@CHILDRENSPLACE.COM,asdf1234
TCPPERFV70034221.514@CHILDRENSPLACE.COM,asdf1234
TCPPERFV70034224.192@CHILDRENSPLACE.COM,asdf1234
TCPPERFV70034226.822@CHILDRENSPLACE.COM,asdf1234
TCPPERFV70034229.351@CHILDRENSPLACE.COM,asdf1234
TCPPERFV70034232.515@CHILDRENSPLACE.COM,asdf1234
TCPPERFV70034235.586@CHILDRENSPLACE.COM,asdf1234
TCPPERFV70034238.204@CHILDRENSPLACE.COM,asdf1234
TCPPERFV70034240.705@CHILDRENSPLACE.COM,asdf1234
TCPPERFV70034244.019@CHILDRENSPLACE.COM,asdf1234
TCPPERFV70034246.570@CHILDRENSPLACE.COM,asdf1234
TCPPERFV70034249.071@CHILDRENSPLACE.COM,asdf1234
TCPPERFV70034251.680@CHILDRENSPLACE.COM,asdf1234
TCPPERFV70034254.298@CHILDRENSPLACE.COM,asdf1234
TCPPERFV70034257.411@CHILDRENSPLACE.COM,asdf1234
TCPPERFV70034259.928@CHILDRENSPLACE.COM,asdf1234
TCPPERFV70034302.572@CHILDRENSPLACE.COM,asdf1234
TCPPERFV70034305.209@CHILDRENSPLACE.COM,asdf1234
TCPPERFV70034307.701@CHILDRENSPLACE.COM,asdf1234
TCPPERFV70034310.187@CHILDRENSPLACE.COM,asdf1234
TCPPERFV70034312.828@CHILDRENSPLACE.COM,asdf1234
TCPPERFV70034315.577@CHILDRENSPLACE.COM,asdf1234
TCPPERFV70034318.106@CHILDRENSPLACE.COM,asdf1234
TCPPERFV70034321.369@CHILDRENSPLACE.COM,asdf1234
TCPPERFV70034323.842@CHILDRENSPLACE.COM,asdf1234
TCPPERFV70034326.293@CHILDRENSPLACE.COM,asdf1234
TCPPERFV70034328.858@CHILDRENSPLACE.COM,asdf1234
TCPPERFV70034331.313@CHILDRENSPLACE.COM,asdf1234
TCPPERFV70034334.116@CHILDRENSPLACE.COM,asdf1234
TCPPERFV70034336.731@CHILDRENSPLACE.COM,asdf1234
TCPPERFV70034339.389@CHILDRENSPLACE.COM,asdf1234
TCPPERFV70034341.884@CHILDRENSPLACE.COM,asdf1234
TCPPERFV70034344.991@CHILDRENSPLACE.COM,asdf1234
TCPPERFV70034347.454@CHILDRENSPLACE.COM,asdf1234
TCPPERFV70034350.413@CHILDRENSPLACE.COM,asdf1234
TCPPERFV70034352.960@CHILDRENSPLACE.COM,asdf1234
TCPPERFV70034355.612@CHILDRENSPLACE.COM,asdf1234
TCPPERFV70034358.313@CHILDRENSPLACE.COM,asdf1234
TCPPERFV70034400.936@CHILDRENSPLACE.COM,asdf1234
TCPPERFV70034403.538@CHILDRENSPLACE.COM,asdf1234
TCPPERFV70034406.136@CHILDRENSPLACE.COM,asdf1234
TCPPERFV70034409.304@CHILDRENSPLACE.COM,asdf1234
TCPPERFV70034411.916@CHILDRENSPLACE.COM,asdf1234
TCPPERFV70034414.532@CHILDRENSPLACE.COM,asdf1234
TCPPERFV70034417.018@CHILDRENSPLACE.COM,asdf1234
TCPPERFV70034419.523@CHILDRENSPLACE.COM,asdf1234
TCPPERFV70034421.997@CHILDRENSPLACE.COM,asdf1234
TCPPERFV70034424.528@CHILDRENSPLACE.COM,asdf1234
TCPPERFV70034427.077@CHILDRENSPLACE.COM,asdf1234
TCPPERFV70034429.552@CHILDRENSPLACE.COM,asdf1234
TCPPERFV70034432.742@CHILDRENSPLACE.COM,asdf1234
TCPPERFV70034435.367@CHILDRENSPLACE.COM,asdf1234
TCPPERFV70034437.967@CHILDRENSPLACE.COM,asdf1234
TCPPERFV70034440.622@CHILDRENSPLACE.COM,asdf1234
TCPPERFV70034443.844@CHILDRENSPLACE.COM,asdf1234
TCPPERFV70034446.521@CHILDRENSPLACE.COM,asdf1234
TCPPERFV70034449.076@CHILDRENSPLACE.COM,asdf1234
TCPPERFV70034451.802@CHILDRENSPLACE.COM,asdf1234
TCPPERFV70034454.346@CHILDRENSPLACE.COM,asdf1234
TCPPERFV70034456.986@CHILDRENSPLACE.COM,asdf1234
TCPPERFV70034459.526@CHILDRENSPLACE.COM,asdf1234
TCPPERFV70034502.330@CHILDRENSPLACE.COM,asdf1234
TCPPERFV70034504.952@CHILDRENSPLACE.COM,asdf1234
TCPPERFV70034507.642@CHILDRENSPLACE.COM,asdf1234
TCPPERFV70034510.118@CHILDRENSPLACE.COM,asdf1234
TCPPERFV70034512.758@CHILDRENSPLACE.COM,asdf1234
TCPPERFV70034515.393@CHILDRENSPLACE.COM,asdf1234
TCPPERFV70034517.916@CHILDRENSPLACE.COM,asdf1234
TCPPERFV70034520.459@CHILDRENSPLACE.COM,asdf1234
TCPPERFV70034523.164@CHILDRENSPLACE.COM,asdf1234
TCPPERFV70034526.130@CHILDRENSPLACE.COM,asdf1234
TCPPERFV70034528.653@CHILDRENSPLACE.COM,asdf1234
TCPPERFV70034531.481@CHILDRENSPLACE.COM,asdf1234
TCPPERFV70034534.200@CHILDRENSPLACE.COM,asdf1234
TCPPERFV70034536.830@CHILDRENSPLACE.COM,asdf1234
TCPPERFV70034539.379@CHILDRENSPLACE.COM,asdf1234
TCPPERFV70034541.976@CHILDRENSPLACE.COM,asdf1234
TCPPERFV70034545.498@CHILDRENSPLACE.COM,asdf1234
TCPPERFV70034548.036@CHILDRENSPLACE.COM,asdf1234
TCPPERFV70034550.478@CHILDRENSPLACE.COM,asdf1234
TCPPERFV70034553.160@CHILDRENSPLACE.COM,asdf1234
TCPPERFV70034556.030@CHILDRENSPLACE.COM,asdf1234
TCPPERFV70034558.766@CHILDRENSPLACE.COM,asdf1234
TCPPERFV70034601.312@CHILDRENSPLACE.COM,asdf1234
TCPPERFV70034604.043@CHILDRENSPLACE.COM,asdf1234
TCPPERFV70034606.890@CHILDRENSPLACE.COM,asdf1234
TCPPERFV70034616.305@CHILDRENSPLACE.COM,asdf1234
TCPPERFV70034618.964@CHILDRENSPLACE.COM,asdf1234
TCPPERFV70034621.505@CHILDRENSPLACE.COM,asdf1234
TCPPERFV70034624.094@CHILDRENSPLACE.COM,asdf1234
TCPPERFV70034626.738@CHILDRENSPLACE.COM,asdf1234
TCPPERFV70034629.312@CHILDRENSPLACE.COM,asdf1234
TCPPERFV70034632.098@CHILDRENSPLACE.COM,asdf1234
TCPPERFV70034634.629@CHILDRENSPLACE.COM,asdf1234
TCPPERFV70034637.248@CHILDRENSPLACE.COM,asdf1234
TCPPERFV70034639.935@CHILDRENSPLACE.COM,asdf1234
TCPPERFV70034642.565@CHILDRENSPLACE.COM,asdf1234
TCPPERFV70034645.135@CHILDRENSPLACE.COM,asdf1234
TCPPERFV70034647.673@CHILDRENSPLACE.COM,asdf1234
TCPPERFV70034650.272@CHILDRENSPLACE.COM,asdf1234
TCPPERFV70034652.850@CHILDRENSPLACE.COM,asdf1234
TCPPERFV70034655.456@CHILDRENSPLACE.COM,asdf1234
TCPPERFV70034658.081@CHILDRENSPLACE.COM,asdf1234
TCPPERFV70034700.731@CHILDRENSPLACE.COM,asdf1234
TCPPERFV70034703.216@CHILDRENSPLACE.COM,asdf1234
TCPPERFV70034705.803@CHILDRENSPLACE.COM,asdf1234
TCPPERFV70034708.341@CHILDRENSPLACE.COM,asdf1234
TCPPERFV70034710.920@CHILDRENSPLACE.COM,asdf1234
TCPPERFV70034713.650@CHILDRENSPLACE.COM,asdf1234
TCPPERFV70034716.112@CHILDRENSPLACE.COM,asdf1234
TCPPERFV70034718.489@CHILDRENSPLACE.COM,asdf1234
TCPPERFV70034720.952@CHILDRENSPLACE.COM,asdf1234
TCPPERFV70034723.529@CHILDRENSPLACE.COM,asdf1234
TCPPERFV70034725.928@CHILDRENSPLACE.COM,asdf1234
TCPPERFV70034728.448@CHILDRENSPLACE.COM,asdf1234
TCPPERFV70034731.325@CHILDRENSPLACE.COM,asdf1234
TCPPERFV70034733.855@CHILDRENSPLACE.COM,asdf1234
TCPPERFV70034736.380@CHILDRENSPLACE.COM,asdf1234
TCPPERFV70034738.957@CHILDRENSPLACE.COM,asdf1234
TCPPERFV70034741.692@CHILDRENSPLACE.COM,asdf1234
TCPPERFV70034744.350@CHILDRENSPLACE.COM,asdf1234
TCPPERFV70034747.082@CHILDRENSPLACE.COM,asdf1234
TCPPERFV70034749.644@CHILDRENSPLACE.COM,asdf1234
TCPPERFV70034752.160@CHILDRENSPLACE.COM,asdf1234
TCPPERFV70034754.873@CHILDRENSPLACE.COM,asdf1234
TCPPERFV70034757.555@CHILDRENSPLACE.COM,asdf1234
TCPPERFV70034800.181@CHILDRENSPLACE.COM,asdf1234
TCPPERFV70034802.780@CHILDRENSPLACE.COM,asdf1234
TCPPERFV70034805.415@CHILDRENSPLACE.COM,asdf1234
TCPPERFV70034807.955@CHILDRENSPLACE.COM,asdf1234
TCPPERFV70034810.597@CHILDRENSPLACE.COM,asdf1234
TCPPERFV70034813.161@CHILDRENSPLACE.COM,asdf1234
TCPPERFV70034815.766@CHILDRENSPLACE.COM,asdf1234
TCPPERFV70034818.818@CHILDRENSPLACE.COM,asdf1234
TCPPERFV70034821.471@CHILDRENSPLACE.COM,asdf1234
TCPPERFV70034824.150@CHILDRENSPLACE.COM,asdf1234
TCPPERFV70034826.773@CHILDRENSPLACE.COM,asdf1234
TCPPERFV70034829.357@CHILDRENSPLACE.COM,asdf1234
TCPPERFV70034831.999@CHILDRENSPLACE.COM,asdf1234
TCPPERFV70034834.629@CHILDRENSPLACE.COM,asdf1234
TCPPERFV70034837.124@CHILDRENSPLACE.COM,asdf1234
TCPPERFV70034839.793@CHILDRENSPLACE.COM,asdf1234
TCPPERFV70034842.466@CHILDRENSPLACE.COM,asdf1234
TCPPERFV70034845.040@CHILDRENSPLACE.COM,asdf1234
TCPPERFV70034847.819@CHILDRENSPLACE.COM,asdf1234
TCPPERFV70034850.348@CHILDRENSPLACE.COM,asdf1234
TCPPERFV70034852.923@CHILDRENSPLACE.COM,asdf1234
TCPPERFV70034855.544@CHILDRENSPLACE.COM,asdf1234
TCPPERFV70034858.207@CHILDRENSPLACE.COM,asdf1234
TCPPERFV70034900.831@CHILDRENSPLACE.COM,asdf1234
TCPPERFV70034903.463@CHILDRENSPLACE.COM,asdf1234
TCPPERFV70034906.096@CHILDRENSPLACE.COM,asdf1234
TCPPERFV70034908.720@CHILDRENSPLACE.COM,asdf1234
TCPPERFV70034911.993@CHILDRENSPLACE.COM,asdf1234
TCPPERFV70034914.863@CHILDRENSPLACE.COM,asdf1234
TCPPERFV70034917.538@CHILDRENSPLACE.COM,asdf1234
TCPPERFV70034920.216@CHILDRENSPLACE.COM,asdf1234
TCPPERFV70034922.900@CHILDRENSPLACE.COM,asdf1234
TCPPERFV70034925.704@CHILDRENSPLACE.COM,asdf1234
TCPPERFV70034928.255@CHILDRENSPLACE.COM,asdf1234
TCPPERFV70034930.878@CHILDRENSPLACE.COM,asdf1234
TCPPERFV70034933.530@CHILDRENSPLACE.COM,asdf1234
TCPPERFV70034936.139@CHILDRENSPLACE.COM,asdf1234
TCPPERFV70034938.764@CHILDRENSPLACE.COM,asdf1234
TCPPERFV70034941.402@CHILDRENSPLACE.COM,asdf1234
TCPPERFV70034944.544@CHILDRENSPLACE.COM,asdf1234
TCPPERFV70034946.938@CHILDRENSPLACE.COM,asdf1234
TCPPERFV70034949.459@CHILDRENSPLACE.COM,asdf1234
TCPPERFV70034951.968@CHILDRENSPLACE.COM,asdf1234
TCPPERFV70034954.404@CHILDRENSPLACE.COM,asdf1234
TCPPERFV70034956.855@CHILDRENSPLACE.COM,asdf1234
TCPPERFV70034959.434@CHILDRENSPLACE.COM,asdf1234
TCPPERFV70035002.034@CHILDRENSPLACE.COM,asdf1234
TCPPERFV70035004.906@CHILDRENSPLACE.COM,asdf1234
TCPPERFV70035007.409@CHILDRENSPLACE.COM,asdf1234
TCPPERFV70035010.045@CHILDRENSPLACE.COM,asdf1234
TCPPERFV70035012.652@CHILDRENSPLACE.COM,asdf1234
TCPPERFV70035015.279@CHILDRENSPLACE.COM,asdf1234
TCPPERFV70035017.810@CHILDRENSPLACE.COM,asdf1234
TCPPERFV70035021.032@CHILDRENSPLACE.COM,asdf1234
TCPPERFV70035023.564@CHILDRENSPLACE.COM,asdf1234
TCPPERFV70035026.034@CHILDRENSPLACE.COM,asdf1234
TCPPERFV70035028.664@CHILDRENSPLACE.COM,asdf1234
TCPPERFV70035031.201@CHILDRENSPLACE.COM,asdf1234
TCPPERFV70035033.797@CHILDRENSPLACE.COM,asdf1234
TCPPERFV70035036.590@CHILDRENSPLACE.COM,asdf1234
TCPPERFV70035039.192@CHILDRENSPLACE.COM,asdf1234
TCPPERFV70035041.685@CHILDRENSPLACE.COM,asdf1234
TCPPERFV70035044.250@CHILDRENSPLACE.COM,asdf1234
TCPPERFV70035046.876@CHILDRENSPLACE.COM,asdf1234
TCPPERFV70035049.705@CHILDRENSPLACE.COM,asdf1234
TCPPERFV70035052.298@CHILDRENSPLACE.COM,asdf1234
TCPPERFV70035055.333@CHILDRENSPLACE.COM,asdf1234
TCPPERFV70035058.175@CHILDRENSPLACE.COM,asdf1234
TCPPERFV70035100.828@CHILDRENSPLACE.COM,asdf1234
TCPPERFV70035103.439@CHILDRENSPLACE.COM,asdf1234
TCPPERFV70035106.805@CHILDRENSPLACE.COM,asdf1234
TCPPERFV70035109.532@CHILDRENSPLACE.COM,asdf1234
TCPPERFV70035112.312@CHILDRENSPLACE.COM,asdf1234
TCPPERFV70035115.391@CHILDRENSPLACE.COM,asdf1234
TCPPERFV70035117.946@CHILDRENSPLACE.COM,asdf1234
TCPPERFV70035120.606@CHILDRENSPLACE.COM,asdf1234
TCPPERFV70035123.220@CHILDRENSPLACE.COM,asdf1234
TCPPERFV70035126.553@CHILDRENSPLACE.COM,asdf1234
TCPPERFV70035129.217@CHILDRENSPLACE.COM,asdf1234
TCPPERFV70035133.214@CHILDRENSPLACE.COM,asdf1234
TCPPERFV70035135.755@CHILDRENSPLACE.COM,asdf1234
TCPPERFV70035138.389@CHILDRENSPLACE.COM,asdf1234
TCPPERFV70035141.676@CHILDRENSPLACE.COM,asdf1234
TCPPERFV70035144.224@CHILDRENSPLACE.COM,asdf1234
TCPPERFV70035146.745@CHILDRENSPLACE.COM,asdf1234
TCPPERFV70035149.332@CHILDRENSPLACE.COM,asdf1234
TCPPERFV70035152.442@CHILDRENSPLACE.COM,asdf1234
TCPPERFV70035154.965@CHILDRENSPLACE.COM,asdf1234
TCPPERFV70035157.613@CHILDRENSPLACE.COM,asdf1234
TCPPERFV70035200.042@CHILDRENSPLACE.COM,asdf1234
TCPPERFV70035202.463@CHILDRENSPLACE.COM,asdf1234
TCPPERFV70035205.528@CHILDRENSPLACE.COM,asdf1234
TCPPERFV70035208.082@CHILDRENSPLACE.COM,asdf1234
TCPPERFV70035210.671@CHILDRENSPLACE.COM,asdf1234
TCPPERFV70035213.124@CHILDRENSPLACE.COM,asdf1234
TCPPERFV70035215.665@CHILDRENSPLACE.COM,asdf1234
TCPPERFV70035218.425@CHILDRENSPLACE.COM,asdf1234
TCPPERFV70035220.884@CHILDRENSPLACE.COM,asdf1234
TCPPERFV70035223.569@CHILDRENSPLACE.COM,asdf1234
TCPPERFV70035226.215@CHILDRENSPLACE.COM,asdf1234
TCPPERFV70035229.418@CHILDRENSPLACE.COM,asdf1234
TCPPERFV70035231.934@CHILDRENSPLACE.COM,asdf1234
TCPPERFV70035234.454@CHILDRENSPLACE.COM,asdf1234
TCPPERFV70035237.081@CHILDRENSPLACE.COM,asdf1234
TCPPERFV70035239.502@CHILDRENSPLACE.COM,asdf1234
TCPPERFV70035242.126@CHILDRENSPLACE.COM,asdf1234
TCPPERFV70035244.638@CHILDRENSPLACE.COM,asdf1234
TCPPERFV70035247.151@CHILDRENSPLACE.COM,asdf1234
TCPPERFV70035249.945@CHILDRENSPLACE.COM,asdf1234
TCPPERFV70035252.532@CHILDRENSPLACE.COM,asdf1234
TCPPERFV70035255.540@CHILDRENSPLACE.COM,asdf1234
TCPPERFV70035258.756@CHILDRENSPLACE.COM,asdf1234
TCPPERFV70035301.565@CHILDRENSPLACE.COM,asdf1234
TCPPERFV70035304.140@CHILDRENSPLACE.COM,asdf1234
TCPPERFV70035306.669@CHILDRENSPLACE.COM,asdf1234
TCPPERFV70035309.260@CHILDRENSPLACE.COM,asdf1234
TCPPERFV70035312.118@CHILDRENSPLACE.COM,asdf1234
TCPPERFV70035314.584@CHILDRENSPLACE.COM,asdf1234
TCPPERFV70035317.557@CHILDRENSPLACE.COM,asdf1234
TCPPERFV70035320.047@CHILDRENSPLACE.COM,asdf1234
TCPPERFV70035322.676@CHILDRENSPLACE.COM,asdf1234
TCPPERFV70035325.308@CHILDRENSPLACE.COM,asdf1234
TCPPERFV70035327.748@CHILDRENSPLACE.COM,asdf1234
TCPPERFV70035330.257@CHILDRENSPLACE.COM,asdf1234
TCPPERFV70035332.973@CHILDRENSPLACE.COM,asdf1234
TCPPERFV70035335.593@CHILDRENSPLACE.COM,asdf1234
TCPPERFV70035338.157@CHILDRENSPLACE.COM,asdf1234
TCPPERFV70035340.727@CHILDRENSPLACE.COM,asdf1234
TCPPERFV70035343.324@CHILDRENSPLACE.COM,asdf1234
TCPPERFV70035345.855@CHILDRENSPLACE.COM,asdf1234
TCPPERFV70035348.399@CHILDRENSPLACE.COM,asdf1234
TCPPERFV70035350.967@CHILDRENSPLACE.COM,asdf1234
TCPPERFV70035354.191@CHILDRENSPLACE.COM,asdf1234
TCPPERFV70035356.846@CHILDRENSPLACE.COM,asdf1234
TCPPERFV70035359.469@CHILDRENSPLACE.COM,asdf1234
TCPPERFV70035402.104@CHILDRENSPLACE.COM,asdf1234
TCPPERFV70035404.579@CHILDRENSPLACE.COM,asdf1234
TCPPERFV70035407.099@CHILDRENSPLACE.COM,asdf1234
TCPPERFV70035409.681@CHILDRENSPLACE.COM,asdf1234
TCPPERFV70035412.324@CHILDRENSPLACE.COM,asdf1234
TCPPERFV70035414.950@CHILDRENSPLACE.COM,asdf1234
TCPPERFV70035417.473@CHILDRENSPLACE.COM,asdf1234
TCPPERFV70035420.101@CHILDRENSPLACE.COM,asdf1234
TCPPERFV70035422.687@CHILDRENSPLACE.COM,asdf1234
TCPPERFV70035425.255@CHILDRENSPLACE.COM,asdf1234
TCPPERFV70035427.971@CHILDRENSPLACE.COM,asdf1234
TCPPERFV70035430.481@CHILDRENSPLACE.COM,asdf1234
TCPPERFV70035433.137@CHILDRENSPLACE.COM,asdf1234
TCPPERFV70035436.044@CHILDRENSPLACE.COM,asdf1234
TCPPERFV70035438.593@CHILDRENSPLACE.COM,asdf1234
TCPPERFV70035441.202@CHILDRENSPLACE.COM,asdf1234
TCPPERFV70035444.083@CHILDRENSPLACE.COM,asdf1234
TCPPERFV70035446.802@CHILDRENSPLACE.COM,asdf1234
TCPPERFV70035449.498@CHILDRENSPLACE.COM,asdf1234
TCPPERFV70035452.603@CHILDRENSPLACE.COM,asdf1234
TCPPERFV70035455.858@CHILDRENSPLACE.COM,asdf1234
TCPPERFV70035458.560@CHILDRENSPLACE.COM,asdf1234
TCPPERFV70035501.119@CHILDRENSPLACE.COM,asdf1234
TCPPERFV70035503.707@CHILDRENSPLACE.COM,asdf1234
TCPPERFV70035506.282@CHILDRENSPLACE.COM,asdf1234
TCPPERFV70035508.820@CHILDRENSPLACE.COM,asdf1234
TCPPERFV70035511.371@CHILDRENSPLACE.COM,asdf1234
TCPPERFV70035513.952@CHILDRENSPLACE.COM,asdf1234
TCPPERFV70035516.566@CHILDRENSPLACE.COM,asdf1234
TCPPERFV70035519.067@CHILDRENSPLACE.COM,asdf1234
TCPPERFV70035521.490@CHILDRENSPLACE.COM,asdf1234
TCPPERFV70035524.078@CHILDRENSPLACE.COM,asdf1234
TCPPERFV70035526.724@CHILDRENSPLACE.COM,asdf1234
TCPPERFV70035529.545@CHILDRENSPLACE.COM,asdf1234
TCPPERFV70035532.122@CHILDRENSPLACE.COM,asdf1234
TCPPERFV70035534.770@CHILDRENSPLACE.COM,asdf1234
TCPPERFV70035537.355@CHILDRENSPLACE.COM,asdf1234
TCPPERFV70035539.851@CHILDRENSPLACE.COM,asdf1234
TCPPERFV70035542.504@CHILDRENSPLACE.COM,asdf1234
TCPPERFV70035545.054@CHILDRENSPLACE.COM,asdf1234
TCPPERFV70035547.641@CHILDRENSPLACE.COM,asdf1234
TCPPERFV70035550.519@CHILDRENSPLACE.COM,asdf1234
TCPPERFV70035553.104@CHILDRENSPLACE.COM,asdf1234
TCPPERFV70035555.673@CHILDRENSPLACE.COM,asdf1234
TCPPERFV70035558.212@CHILDRENSPLACE.COM,asdf1234
TCPPERFV70035600.714@CHILDRENSPLACE.COM,asdf1234
TCPPERFV70035603.334@CHILDRENSPLACE.COM,asdf1234
TCPPERFV70035605.830@CHILDRENSPLACE.COM,asdf1234
TCPPERFV70035608.426@CHILDRENSPLACE.COM,asdf1234
TCPPERFV70035610.944@CHILDRENSPLACE.COM,asdf1234
TCPPERFV70035613.616@CHILDRENSPLACE.COM,asdf1234
TCPPERFV70035616.324@CHILDRENSPLACE.COM,asdf1234
TCPPERFV70035619.038@CHILDRENSPLACE.COM,asdf1234
TCPPERFV70035621.606@CHILDRENSPLACE.COM,asdf1234
TCPPERFV70035624.178@CHILDRENSPLACE.COM,asdf1234
TCPPERFV70035626.742@CHILDRENSPLACE.COM,asdf1234
TCPPERFV70035629.295@CHILDRENSPLACE.COM,asdf1234
TCPPERFV70035631.846@CHILDRENSPLACE.COM,asdf1234
TCPPERFV70035634.420@CHILDRENSPLACE.COM,asdf1234
TCPPERFV70035636.915@CHILDRENSPLACE.COM,asdf1234
TCPPERFV70035639.351@CHILDRENSPLACE.COM,asdf1234
TCPPERFV70035641.858@CHILDRENSPLACE.COM,asdf1234
TCPPERFV70035644.566@CHILDRENSPLACE.COM,asdf1234
TCPPERFV70035647.106@CHILDRENSPLACE.COM,asdf1234
TCPPERFV70035649.763@CHILDRENSPLACE.COM,asdf1234
TCPPERFV70035652.431@CHILDRENSPLACE.COM,asdf1234
TCPPERFV70035654.962@CHILDRENSPLACE.COM,asdf1234
TCPPERFV70035657.658@CHILDRENSPLACE.COM,asdf1234
TCPPERFV70035700.194@CHILDRENSPLACE.COM,asdf1234
TCPPERFV70035702.758@CHILDRENSPLACE.COM,asdf1234
TCPPERFV70035705.247@CHILDRENSPLACE.COM,asdf1234
TCPPERFV70035707.907@CHILDRENSPLACE.COM,asdf1234
TCPPERFV70035710.461@CHILDRENSPLACE.COM,asdf1234
TCPPERFV70035713.200@CHILDRENSPLACE.COM,asdf1234
TCPPERFV70035715.799@CHILDRENSPLACE.COM,asdf1234
TCPPERFV70035718.283@CHILDRENSPLACE.COM,asdf1234
TCPPERFV70035720.734@CHILDRENSPLACE.COM,asdf1234
TCPPERFV70035723.448@CHILDRENSPLACE.COM,asdf1234
TCPPERFV70035726.041@CHILDRENSPLACE.COM,asdf1234
TCPPERFV70035728.662@CHILDRENSPLACE.COM,asdf1234
TCPPERFV70035731.147@CHILDRENSPLACE.COM,asdf1234
TCPPERFV70035733.784@CHILDRENSPLACE.COM,asdf1234
TCPPERFV70035736.422@CHILDRENSPLACE.COM,asdf1234
TCPPERFV70035739.049@CHILDRENSPLACE.COM,asdf1234
TCPPERFV70035741.600@CHILDRENSPLACE.COM,asdf1234
TCPPERFV70035744.285@CHILDRENSPLACE.COM,asdf1234
TCPPERFV70035746.861@CHILDRENSPLACE.COM,asdf1234
TCPPERFV70035749.356@CHILDRENSPLACE.COM,asdf1234
TCPPERFV70035752.034@CHILDRENSPLACE.COM,asdf1234
TCPPERFV70035754.734@CHILDRENSPLACE.COM,asdf1234
TCPPERFV70035757.684@CHILDRENSPLACE.COM,asdf1234
TCPPERFV70035800.269@CHILDRENSPLACE.COM,asdf1234
TCPPERFV70035802.799@CHILDRENSPLACE.COM,asdf1234
TCPPERFV70035805.246@CHILDRENSPLACE.COM,asdf1234
TCPPERFV70035807.882@CHILDRENSPLACE.COM,asdf1234
TCPPERFV70035810.509@CHILDRENSPLACE.COM,asdf1234
TCPPERFV70035813.002@CHILDRENSPLACE.COM,asdf1234
TCPPERFV70035815.479@CHILDRENSPLACE.COM,asdf1234
TCPPERFV70035817.925@CHILDRENSPLACE.COM,asdf1234
TCPPERFV70035820.481@CHILDRENSPLACE.COM,asdf1234
TCPPERFV70035823.042@CHILDRENSPLACE.COM,asdf1234
TCPPERFV70035825.748@CHILDRENSPLACE.COM,asdf1234
TCPPERFV70035828.256@CHILDRENSPLACE.COM,asdf1234
TCPPERFV70035830.848@CHILDRENSPLACE.COM,asdf1234
TCPPERFV70035833.522@CHILDRENSPLACE.COM,asdf1234
TCPPERFV70035836.145@CHILDRENSPLACE.COM,asdf1234
TCPPERFV70035838.611@CHILDRENSPLACE.COM,asdf1234
TCPPERFV70035841.069@CHILDRENSPLACE.COM,asdf1234
TCPPERFV70035843.614@CHILDRENSPLACE.COM,asdf1234
TCPPERFV70035846.289@CHILDRENSPLACE.COM,asdf1234
TCPPERFV70035848.788@CHILDRENSPLACE.COM,asdf1234
TCPPERFV70035851.270@CHILDRENSPLACE.COM,asdf1234
TCPPERFV70035853.732@CHILDRENSPLACE.COM,asdf1234
TCPPERFV70035856.148@CHILDRENSPLACE.COM,asdf1234
TCPPERFV70035858.674@CHILDRENSPLACE.COM,asdf1234
TCPPERFV70035901.172@CHILDRENSPLACE.COM,asdf1234
TCPPERFV70035903.590@CHILDRENSPLACE.COM,asdf1234
TCPPERFV70035906.036@CHILDRENSPLACE.COM,asdf1234
TCPPERFV70035908.521@CHILDRENSPLACE.COM,asdf1234
TCPPERFV70035910.944@CHILDRENSPLACE.COM,asdf1234
TCPPERFV70035913.468@CHILDRENSPLACE.COM,asdf1234
TCPPERFV70035915.956@CHILDRENSPLACE.COM,asdf1234
TCPPERFV70035918.432@CHILDRENSPLACE.COM,asdf1234
TCPPERFV70035920.966@CHILDRENSPLACE.COM,asdf1234
TCPPERFV70035925.025@CHILDRENSPLACE.COM,asdf1234
TCPPERFV70035927.464@CHILDRENSPLACE.COM,asdf1234
TCPPERFV70035929.994@CHILDRENSPLACE.COM,asdf1234
TCPPERFV70035932.516@CHILDRENSPLACE.COM,asdf1234
TCPPERFV70035934.968@CHILDRENSPLACE.COM,asdf1234
TCPPERFV70035937.428@CHILDRENSPLACE.COM,asdf1234
TCPPERFV70035940.024@CHILDRENSPLACE.COM,asdf1234
TCPPERFV70035942.541@CHILDRENSPLACE.COM,asdf1234
TCPPERFV70035944.998@CHILDRENSPLACE.COM,asdf1234
TCPPERFV70035947.700@CHILDRENSPLACE.COM,asdf1234
TCPPERFV70035950.201@CHILDRENSPLACE.COM,asdf1234
TCPPERFV70035952.885@CHILDRENSPLACE.COM,asdf1234
TCPPERFV70035955.553@CHILDRENSPLACE.COM,asdf1234
TCPPERFV70035958.141@CHILDRENSPLACE.COM,asdf1234
TCPPERFV70040001.107@CHILDRENSPLACE.COM,asdf1234
TCPPERFV70040003.795@CHILDRENSPLACE.COM,asdf1234
TCPPERFV70040007.469@CHILDRENSPLACE.COM,asdf1234
TCPPERFV70040012.274@CHILDRENSPLACE.COM,asdf1234
TCPPERFV70040015.256@CHILDRENSPLACE.COM,asdf1234
TCPPERFV70040017.994@CHILDRENSPLACE.COM,asdf1234
TCPPERFV70040020.592@CHILDRENSPLACE.COM,asdf1234
TCPPERFV70040023.148@CHILDRENSPLACE.COM,asdf1234
TCPPERFV70040025.882@CHILDRENSPLACE.COM,asdf1234
TCPPERFV70040028.430@CHILDRENSPLACE.COM,asdf1234
TCPPERFV70040031.095@CHILDRENSPLACE.COM,asdf1234
TCPPERFV70040033.820@CHILDRENSPLACE.COM,asdf1234
TCPPERFV70040036.411@CHILDRENSPLACE.COM,asdf1234
TCPPERFV70040039.266@CHILDRENSPLACE.COM,asdf1234
TCPPERFV70040041.983@CHILDRENSPLACE.COM,asdf1234
TCPPERFV70040044.553@CHILDRENSPLACE.COM,asdf1234
TCPPERFV70040047.042@CHILDRENSPLACE.COM,asdf1234
TCPPERFV70040049.618@CHILDRENSPLACE.COM,asdf1234
TCPPERFV70040052.269@CHILDRENSPLACE.COM,asdf1234
TCPPERFV70040054.936@CHILDRENSPLACE.COM,asdf1234
TCPPERFV70040057.481@CHILDRENSPLACE.COM,asdf1234
TCPPERFV70040100.076@CHILDRENSPLACE.COM,asdf1234
TCPPERFV70040102.740@CHILDRENSPLACE.COM,asdf1234
TCPPERFV70040105.479@CHILDRENSPLACE.COM,asdf1234
TCPPERFV70040108.304@CHILDRENSPLACE.COM,asdf1234
TCPPERFV70040110.841@CHILDRENSPLACE.COM,asdf1234
TCPPERFV70040113.443@CHILDRENSPLACE.COM,asdf1234
TCPPERFV70040115.909@CHILDRENSPLACE.COM,asdf1234
TCPPERFV70040118.382@CHILDRENSPLACE.COM,asdf1234
TCPPERFV70040121.057@CHILDRENSPLACE.COM,asdf1234
TCPPERFV70040123.569@CHILDRENSPLACE.COM,asdf1234
TCPPERFV70040126.123@CHILDRENSPLACE.COM,asdf1234
TCPPERFV70040128.925@CHILDRENSPLACE.COM,asdf1234
TCPPERFV70040131.544@CHILDRENSPLACE.COM,asdf1234
TCPPERFV70040134.219@CHILDRENSPLACE.COM,asdf1234
TCPPERFV70040136.689@CHILDRENSPLACE.COM,asdf1234
TCPPERFV70040139.235@CHILDRENSPLACE.COM,asdf1234
TCPPERFV70040141.706@CHILDRENSPLACE.COM,asdf1234
TCPPERFV70040144.378@CHILDRENSPLACE.COM,asdf1234
TCPPERFV70040147.029@CHILDRENSPLACE.COM,asdf1234
TCPPERFV70040149.479@CHILDRENSPLACE.COM,asdf1234
TCPPERFV70040152.135@CHILDRENSPLACE.COM,asdf1234
TCPPERFV70040154.651@CHILDRENSPLACE.COM,asdf1234
TCPPERFV70040157.212@CHILDRENSPLACE.COM,asdf1234
TCPPERFV70040159.804@CHILDRENSPLACE.COM,asdf1234
TCPPERFV70040202.624@CHILDRENSPLACE.COM,asdf1234
TCPPERFV70040205.084@CHILDRENSPLACE.COM,asdf1234
TCPPERFV70040207.670@CHILDRENSPLACE.COM,asdf1234
TCPPERFV70040210.246@CHILDRENSPLACE.COM,asdf1234
TCPPERFV70040212.706@CHILDRENSPLACE.COM,asdf1234
TCPPERFV70040215.670@CHILDRENSPLACE.COM,asdf1234
TCPPERFV70040218.305@CHILDRENSPLACE.COM,asdf1234
TCPPERFV70040220.734@CHILDRENSPLACE.COM,asdf1234
TCPPERFV70040223.445@CHILDRENSPLACE.COM,asdf1234
TCPPERFV70040226.059@CHILDRENSPLACE.COM,asdf1234
TCPPERFV70040228.623@CHILDRENSPLACE.COM,asdf1234
TCPPERFV70040231.415@CHILDRENSPLACE.COM,asdf1234
TCPPERFV70040233.860@CHILDRENSPLACE.COM,asdf1234
TCPPERFV70040236.358@CHILDRENSPLACE.COM,asdf1234
TCPPERFV70040238.794@CHILDRENSPLACE.COM,asdf1234
TCPPERFV70040241.281@CHILDRENSPLACE.COM,asdf1234
TCPPERFV70040244.156@CHILDRENSPLACE.COM,asdf1234
TCPPERFV70040246.746@CHILDRENSPLACE.COM,asdf1234
TCPPERFV70040249.319@CHILDRENSPLACE.COM,asdf1234
TCPPERFV70040251.882@CHILDRENSPLACE.COM,asdf1234
TCPPERFV70040254.577@CHILDRENSPLACE.COM,asdf1234
TCPPERFV70040257.205@CHILDRENSPLACE.COM,asdf1234
TCPPERFV70040259.882@CHILDRENSPLACE.COM,asdf1234
TCPPERFV70040302.516@CHILDRENSPLACE.COM,asdf1234
TCPPERFV70040305.225@CHILDRENSPLACE.COM,asdf1234
TCPPERFV70040307.982@CHILDRENSPLACE.COM,asdf1234
TCPPERFV70040310.592@CHILDRENSPLACE.COM,asdf1234
TCPPERFV70040313.388@CHILDRENSPLACE.COM,asdf1234
TCPPERFV70040316.174@CHILDRENSPLACE.COM,asdf1234
TCPPERFV70040318.993@CHILDRENSPLACE.COM,asdf1234
TCPPERFV70040321.643@CHILDRENSPLACE.COM,asdf1234
TCPPERFV70040324.298@CHILDRENSPLACE.COM,asdf1234
TCPPERFV70040326.945@CHILDRENSPLACE.COM,asdf1234
TCPPERFV70040329.688@CHILDRENSPLACE.COM,asdf1234
TCPPERFV70040332.347@CHILDRENSPLACE.COM,asdf1234
TCPPERFV70040335.185@CHILDRENSPLACE.COM,asdf1234
TCPPERFV70040337.814@CHILDRENSPLACE.COM,asdf1234
TCPPERFV70040340.462@CHILDRENSPLACE.COM,asdf1234
TCPPERFV70040343.040@CHILDRENSPLACE.COM,asdf1234
TCPPERFV70040345.616@CHILDRENSPLACE.COM,asdf1234
TCPPERFV70040348.216@CHILDRENSPLACE.COM,asdf1234
TCPPERFV70040351.074@CHILDRENSPLACE.COM,asdf1234
TCPPERFV70040353.767@CHILDRENSPLACE.COM,asdf1234
TCPPERFV70040356.378@CHILDRENSPLACE.COM,asdf1234
TCPPERFV70040359.038@CHILDRENSPLACE.COM,asdf1234
TCPPERFV70040401.689@CHILDRENSPLACE.COM,asdf1234
TCPPERFV70040404.286@CHILDRENSPLACE.COM,asdf1234
TCPPERFV70040407.009@CHILDRENSPLACE.COM,asdf1234
TCPPERFV70040409.951@CHILDRENSPLACE.COM,asdf1234
TCPPERFV70040412.549@CHILDRENSPLACE.COM,asdf1234
TCPPERFV70040415.107@CHILDRENSPLACE.COM,asdf1234
TCPPERFV70040417.727@CHILDRENSPLACE.COM,asdf1234
TCPPERFV70040420.420@CHILDRENSPLACE.COM,asdf1234
TCPPERFV70040423.066@CHILDRENSPLACE.COM,asdf1234
TCPPERFV70040425.670@CHILDRENSPLACE.COM,asdf1234
TCPPERFV70040428.562@CHILDRENSPLACE.COM,asdf1234
TCPPERFV70040431.181@CHILDRENSPLACE.COM,asdf1234
TCPPERFV70040433.939@CHILDRENSPLACE.COM,asdf1234
TCPPERFV70040436.809@CHILDRENSPLACE.COM,asdf1234
TCPPERFV70040439.491@CHILDRENSPLACE.COM,asdf1234
TCPPERFV70040442.252@CHILDRENSPLACE.COM,asdf1234
TCPPERFV70040445.108@CHILDRENSPLACE.COM,asdf1234
TCPPERFV70040447.803@CHILDRENSPLACE.COM,asdf1234
TCPPERFV70040450.470@CHILDRENSPLACE.COM,asdf1234
TCPPERFV70040453.104@CHILDRENSPLACE.COM,asdf1234
TCPPERFV70040455.885@CHILDRENSPLACE.COM,asdf1234
TCPPERFV70040458.598@CHILDRENSPLACE.COM,asdf1234
TCPPERFV70040501.299@CHILDRENSPLACE.COM,asdf1234
TCPPERFV70040504.406@CHILDRENSPLACE.COM,asdf1234
TCPPERFV70040507.022@CHILDRENSPLACE.COM,asdf1234
TCPPERFV70040509.764@CHILDRENSPLACE.COM,asdf1234
TCPPERFV70040512.479@CHILDRENSPLACE.COM,asdf1234
TCPPERFV70040516.058@CHILDRENSPLACE.COM,asdf1234
TCPPERFV70040519.942@CHILDRENSPLACE.COM,asdf1234
TCPPERFV70040522.765@CHILDRENSPLACE.COM,asdf1234
TCPPERFV70040525.410@CHILDRENSPLACE.COM,asdf1234
TCPPERFV70040528.600@CHILDRENSPLACE.COM,asdf1234
TCPPERFV70040531.739@CHILDRENSPLACE.COM,asdf1234
TCPPERFV70040534.828@CHILDRENSPLACE.COM,asdf1234
TCPPERFV70040537.942@CHILDRENSPLACE.COM,asdf1234
TCPPERFV70040540.945@CHILDRENSPLACE.COM,asdf1234
TCPPERFV70040543.872@CHILDRENSPLACE.COM,asdf1234
TCPPERFV70040547.544@CHILDRENSPLACE.COM,asdf1234
TCPPERFV70040551.032@CHILDRENSPLACE.COM,asdf1234
TCPPERFV70040554.899@CHILDRENSPLACE.COM,asdf1234
TCPPERFV70040558.817@CHILDRENSPLACE.COM,asdf1234
TCPPERFV70040601.970@CHILDRENSPLACE.COM,asdf1234
TCPPERFV70040605.623@CHILDRENSPLACE.COM,asdf1234
TCPPERFV70040608.597@CHILDRENSPLACE.COM,asdf1234
TCPPERFV70040611.645@CHILDRENSPLACE.COM,asdf1234
TCPPERFV70040614.486@CHILDRENSPLACE.COM,asdf1234
TCPPERFV70040617.401@CHILDRENSPLACE.COM,asdf1234
TCPPERFV70040620.136@CHILDRENSPLACE.COM,asdf1234
TCPPERFV70040622.977@CHILDRENSPLACE.COM,asdf1234
TCPPERFV70040625.699@CHILDRENSPLACE.COM,asdf1234
TCPPERFV70040628.455@CHILDRENSPLACE.COM,asdf1234
TCPPERFV70040631.076@CHILDRENSPLACE.COM,asdf1234
TCPPERFV70040633.852@CHILDRENSPLACE.COM,asdf1234
TCPPERFV70040636.846@CHILDRENSPLACE.COM,asdf1234
TCPPERFV70040639.690@CHILDRENSPLACE.COM,asdf1234
TCPPERFV70040642.508@CHILDRENSPLACE.COM,asdf1234
TCPPERFV70040645.754@CHILDRENSPLACE.COM,asdf1234
TCPPERFV70040648.518@CHILDRENSPLACE.COM,asdf1234
TCPPERFV70040651.399@CHILDRENSPLACE.COM,asdf1234
TCPPERFV70040654.317@CHILDRENSPLACE.COM,asdf1234
TCPPERFV70040657.002@CHILDRENSPLACE.COM,asdf1234
TCPPERFV70040659.754@CHILDRENSPLACE.COM,asdf1234
TCPPERFV70040702.468@CHILDRENSPLACE.COM,asdf1234
TCPPERFV70040705.872@CHILDRENSPLACE.COM,asdf1234
TCPPERFV70040708.890@CHILDRENSPLACE.COM,asdf1234
TCPPERFV70040711.877@CHILDRENSPLACE.COM,asdf1234
TCPPERFV70040714.700@CHILDRENSPLACE.COM,asdf1234
TCPPERFV70040717.673@CHILDRENSPLACE.COM,asdf1234
TCPPERFV70040720.969@CHILDRENSPLACE.COM,asdf1234
