{
  "jsonArr": [
    {
      "blockedShipMode": true,
      "code": "UGNR",
      "defaultShipMode": true,
      "description": "Standard FREE Up To 10 Business Days",
      "shipModeId": "901101",
      "shippingPrice": "$0"
    },
    {
      "blockedShipMode": false,
      "code": "U2DY",
      "defaultShipMode": false,
      "description": "Express Up To 5 Business Days",
      "shipModeId": "901102",
      "shippingPrice": "$15"
    },
    {
      "blockedShipMode": false,
      "code": "U1DS",
      "defaultShipMode": false,
      "description": "Rush Up To 3 Business Days",
      "shipModeId": "901103",
      "shippingPrice": "$20"
    },
    {
      "blockedShipMode": false,
      "code": "HEXP",
      "defaultShipMode": false,
      "description": "Holiday Express Up To 2 Days",
      "shipModeId": "901107",
      "shippingPrice": "$1"
    }
  ]
}