{
  "appliedCoupons": {
    "siteCoupons": [
      {
        "couponCode": "FORTYOFF",
        "couponDescription": "Perf test. 40% off order. US. Multiuse",
        "couponEndDate": "9999-12-31 23:59:59.999",
        "couponLongDescription": "Perf test. 40% off order. US. Multiuse",
        "couponStartDate": "2014-09-03 00:00:00.001",
        "isApplicable": "true"
      }
    ],
    "userCoupons": [
      
    ]
  },
  "availableCoupons": {
    "siteCoupons": [
      {
        "couponCode": "25OFF50",
        "couponDescription": "Perf Test. 25% off $50",
        "couponEndDate": "9999-12-31 23:59:59.999",
        "couponLongDescription": "Perf Test. 25% off $50",
        "couponStartDate": "2015-11-11 00:00:00.001"
      },
      {
        "couponCode": "VISA25",
        "couponDescription": "Perf Test. 25% off VISA",
        "couponEndDate": "9999-12-31 23:59:59.999",
        "couponLongDescription": "Perf Test. 25% off VISA",
        "couponStartDate": "2015-11-11 00:00:00.001"
      }
    ],
    "userCoupons": [
      
    ]
  }
}