GET /api/tcpproduct/getBundleIdAndBundleDetails HTTP/1.1
productCatentryId: 628258
Accept: application/json, text/plain, */*
Accept-Encoding: gzip,deflate
Accept-Language: en-US
User-Agent: Mozilla/5.0 (Linux; Android 4.4.2; SM-G900F Build/KOT49H) AppleWebKit/537.36 (KHTML, like Gecko) Version/4.0 Chrome/30.0.0.0 Mobile Safari/537.36
X-Requested-With: com.mobiquityinc.tcpdev
catalogId: 10551
deviceType: App
langId: -1
storeId: 10151
Connection: Keep-Alive
Host: tcp-perf.childrensplace.com
Cookie: BIGipServer~TCP-RD1~vip-10.56.26.209_web2=rd1o00000000000000000000ffff0a381c04o80; JSESSIONID=0000SynX32_Ou_4KQzgUbbMu5wN:19ivs1ptn; WC_ACTIVEPOINTER=-1%2C10151; hasPLCC=false; BIGipServer~TCP-RD1~PERF-API-Pool-10.56.32.130_8443=rd1o00000000000000000000ffff0a381c0do8443; WC_PERSISTENT=RGaK20WtwXFt6aJOn4jPQb2FyhI%3D%0A%3B2018-03-06+14%3A06%3A47.662_1433465402788-32_10151_230057051%2C-1%2CUSD_10151; WC_SESSION_ESTABLISHED=true; BIGipServer~TCP-RD1~vip-10.56.26.169_search1=rd1o00000000000000000000ffff0a381b99o3737; BIGipServer~TCP-RD1~vip-10.56.26.209_web2-443=rd1o00000000000000000000ffff0a381c07o443; memberSince=March 2018; tcp_isregistered=true; tcp_firstname=Joe; minicartcookie=10|USD72.09|false; WC_AUTHENTICATION_230057051=230057051%2C6JqzSB9qZNOvja0FnRcmcxCZZmQ%3D; acctId=""; myPlaceAcctNbr=M40180230057051; showLoyaltyWebsiteInd=1; acctStatus=active; orderItemsQtyList=1,1,1,1,1,1,1,1,1,1; WC_USERACTIVITY_230057051=230057051%2C10151%2C0%2Cnull%2Cnull%2Cnull%2Cnull%2Cnull%2Cnull%2Cnull%2CMVUiXcZLnIFKkEWYfgkvZKfac%2Fq%2FWtTlYBg7sLhtR0vzkLV%2FO9XhAzhB0IDJL9uCeCq5ge8dv9xG0Dnt339Hv%2FoJ3zQvwQTM%2FZFe4ft74Yz4KY7k0GGieMcqKNAZwMnLzP2dfqzq7yEFJ8g3DY8h3rP3MJZiZQ3mYR%2BiMWsqb5%2FuPGnMrCdLI4bAtV7McQOidCqHPbSpXFRtkkIHvrX9wA%3D%3D; numOfItems=10; tcp_email_signup_modal_persistent=6 Mar 2018 19:06:47 GMT; tier=1; pntsAvail=0

